{
    "_id": "yM4G2LvMwvkIRx0G",
    "data": {
        "attributes": {
            "ac": {
                "value": 10
            },
            "hardness": 0,
            "hasHealth": false,
            "hp": {
                "details": "",
                "max": 0,
                "temp": 0,
                "tempmax": 0,
                "value": 0
            },
            "stealth": {
                "details": "(trained)",
                "value": 25
            }
        },
        "creatureType": "",
        "details": {
            "description": "A rift attempts to draw creatures into another plane (the GM chooses the specific plane).",
            "disable": "Thievery DC 33 (master) to assemble a rift seal using objects strongly grounded to your plane, or <i>dispel magic </i>(7th level; counteract DC 31) to counteract the rift",
            "isComplex": false,
            "level": {
                "value": 13
            },
            "reset": "",
            "routine": ""
        },
        "saves": {
            "fortitude": {
                "saveDetail": "",
                "value": 0
            },
            "reflex": {
                "saveDetail": "",
                "value": 0
            },
            "will": {
                "saveDetail": "",
                "value": 0
            }
        },
        "source": {
            "value": ""
        },
        "statusEffects": [],
        "traits": {
            "ci": [],
            "di": {
                "custom": "",
                "selected": {},
                "value": []
            },
            "dr": [],
            "dv": [],
            "rarity": {
                "value": "common"
            },
            "size": {
                "value": "med"
            },
            "traits": {
                "custom": "",
                "value": [
                    "magical"
                ]
            }
        }
    },
    "effects": [],
    "flags": {},
    "img": "systems/pf2e/icons/default-icons/hazard.svg",
    "items": [
        {
            "_id": "K7Ya0U5jerfvH0vw",
            "data": {
                "actionCategory": {
                    "value": ""
                },
                "actionType": {
                    "value": "reaction"
                },
                "actions": {
                    "value": ""
                },
                "description": {
                    "value": "<p><strong>Trigger</strong> A creature moves within 10 feet of the rift.<br /><strong>Effect</strong> The triggering creature and all creatures within 30 feet of the rift are drawn into another plane. Each creature can attempt a <span data-pf2-check=\"reflex\" data-pf2-dc=\"33\" data-pf2-traits=\"conjuration,occult,teleportation\" data-pf2-label=\"Into the Great Beyond DC\" data-pf2-show-dc=\"gm\">Reflex</span> save to avoid this fate.</p>"
                },
                "requirements": {
                    "value": ""
                },
                "rules": [],
                "slug": null,
                "source": {
                    "value": ""
                },
                "traits": {
                    "custom": "",
                    "rarity": {
                        "value": "common"
                    },
                    "value": [
                        "conjuration",
                        "occult",
                        "teleportation"
                    ]
                },
                "trigger": {
                    "value": ""
                },
                "weapon": {
                    "value": ""
                }
            },
            "effects": [],
            "flags": {},
            "img": "systems/pf2e/icons/actions/Reaction.webp",
            "name": "Into the Great Beyond",
            "sort": 100000,
            "type": "action"
        }
    ],
    "name": "Planar Rift",
    "token": {
        "disposition": 0,
        "height": 1,
        "img": "systems/pf2e/icons/default-icons/hazard.svg",
        "name": "Planar Rift",
        "width": 1
    },
    "type": "hazard"
}
