{
    "_id": "nJBpLZFgEuF7uZAZ",
    "data": {
        "attributes": {
            "ac": {
                "value": 0
            },
            "hardness": 0,
            "hasHealth": true,
            "hp": {
                "details": "",
                "max": 10,
                "temp": 0,
                "tempmax": 0,
                "value": 10
            },
            "stealth": {
                "details": "<p>DC 42 (expert)</p>",
                "value": 32
            }
        },
        "creatureType": "",
        "details": {
            "description": "<p>Anyone who opens a secret compartment is subjected to a powerful curse.</p>",
            "disable": "<p>DC 39 Thievery (legendary) to carefully remove the bone fetish that holds the curse.</p>",
            "isComplex": false,
            "level": {
                "value": 18
            },
            "reset": "<p>The trap resets if both secret compartments are shut.</p>",
            "routine": ""
        },
        "saves": {
            "fortitude": {
                "saveDetail": "",
                "value": 0
            },
            "reflex": {
                "saveDetail": "",
                "value": 0
            },
            "will": {
                "saveDetail": "",
                "value": 0
            }
        },
        "source": {
            "value": ""
        },
        "statusEffects": [],
        "traits": {
            "ci": [],
            "di": {
                "custom": "",
                "selected": {},
                "value": []
            },
            "dr": [],
            "dv": [],
            "rarity": {
                "value": "common"
            },
            "size": {
                "value": "med"
            },
            "traits": {
                "custom": "",
                "value": []
            }
        }
    },
    "effects": [],
    "flags": {},
    "img": "systems/pf2e/icons/default-icons/hazard.svg",
    "items": [
        {
            "_id": "OQX9XEhfUYIiPSNz",
            "data": {
                "actionCategory": {
                    "value": ""
                },
                "actionType": {
                    "value": "reaction"
                },
                "actions": {
                    "value": ""
                },
                "description": {
                    "value": "<p><strong>Trigger</strong> A creature opens a secret compartment;</p>\n<p><strong>Effect</strong> The creature must succeed at a <span data-pf2-check=\"will\" data-pf2-dc=\"38\" data-pf2-traits=\"curse,divine,necromancy\" data-pf2-label=\"Hex of the Bloody Thief DC\" data-pf2-show-dc=\"gm\">Will</span> save or be subjected to the witch-priests’ curse. Whenever a cursed creature takes at least 10 piercing or slashing damage from a single attack, it also takes [[/r 3d6 #persistent bleed]] @Compendium[pf2e.conditionitems.Persistent Damage]{Persistent Bleed Damage}. In addition, the cursed creature regains only half as many Hit Points as normal from all healing. The effect is permanent unless removed by magic.</p>"
                },
                "requirements": {
                    "value": ""
                },
                "rules": [],
                "slug": null,
                "source": {
                    "value": ""
                },
                "traits": {
                    "custom": "",
                    "rarity": {
                        "value": "common"
                    },
                    "value": [
                        "curse",
                        "divine",
                        "necromancy"
                    ]
                },
                "trigger": {
                    "value": ""
                },
                "weapon": {
                    "value": ""
                }
            },
            "effects": [],
            "flags": {},
            "img": "systems/pf2e/icons/actions/Reaction.webp",
            "name": "Hex of the Bloody Thief",
            "sort": 100000,
            "type": "action"
        }
    ],
    "name": "Witch-Priests' Curse",
    "token": {
        "disposition": 0,
        "height": 1,
        "img": "systems/pf2e/icons/default-icons/hazard.svg",
        "name": "Witch-Priests' Curse",
        "width": 1
    },
    "type": "hazard"
}
