{
    "_id": "9evPzg9E6muFcoSk",
    "data": {
        "active": true,
        "alsoApplies": {
            "linked": [],
            "unlinked": []
        },
        "base": "Unnoticed",
        "description": {
            "value": "<p>If you are unnoticed by a creature, that creature has no idea you are present at all. When you're unnoticed, you're also @Compendium[pf2e.conditionitems.Undetected]{Undetected} by the creature. This condition matters for abilities that can be used only against targets totally unaware of your presence.</p>"
        },
        "duration": {
            "perpetual": true,
            "text": "",
            "value": 0
        },
        "group": "detection",
        "hud": {
            "img": {
                "useStatusName": true,
                "value": "systems/pf2e/icons/conditions-2/unnoticed.webp"
            },
            "selectable": true,
            "statusName": "unnoticed"
        },
        "modifiers": [],
        "overrides": [],
        "references": {
            "children": [],
            "immunityFrom": [],
            "overriddenBy": [],
            "overrides": []
        },
        "removable": true,
        "rules": [],
        "source": {
            "value": ""
        },
        "sources": {
            "hud": false
        },
        "traits": {
            "custom": "",
            "rarity": {
                "value": "common"
            },
            "value": []
        },
        "value": {
            "immutable": false,
            "isValued": false,
            "modifiers": [],
            "value": null
        }
    },
    "effects": [],
    "flags": {
        "pf2e": {
            "condition": true
        }
    },
    "img": "systems/pf2e/icons/conditions/unnoticed.webp",
    "name": "Unnoticed",
    "type": "condition"
}
