{
    "_id": "p27PSjFtHAWikKaw",
    "data": {
        "boosts": {
            "0": {
                "value": [
                    "str",
                    "wis"
                ]
            },
            "1": {
                "value": [
                    "cha",
                    "con",
                    "dex",
                    "int",
                    "str",
                    "wis"
                ]
            }
        },
        "description": {
            "value": "<p>In the past decade, the Pathfinder Society has clashed with demonic armies, meddled in politics, and more, but you joined the organization before everything seemed so complicated. Whether you're a dedicated scholar of ruins or an explorer who just longs for months-long expeditions into the wilderness, you're a Pathfinder to explore, report, and cooperate.</p>\n<p>Choose two ability boosts. One must be to <strong>Strength</strong> or <strong>Wisdom</strong>, and one is a free ability boost.</p>\n<p>You're trained in the Survival skill and the Pathfinder Society Lore skill. You gain the @Compendium[pf2e.feats-srd.Forager]{Forager} skill feat.</p>\n<hr />\n<p><strong>Special</strong>: You can select this background only if you have earned credit for at least 5 First Edition scenarios from Seasons 0 of the Pathfinder Society organized play campaign.</p>"
        },
        "items": {
            "l5syj": {
                "id": "8qebBeOJsyRIchcu",
                "img": "systems/pf2e/icons/features/feats/feats.webp",
                "level": "1",
                "name": "Forager",
                "pack": "pf2e.feats-srd"
            }
        },
        "rules": [
            {
                "key": "PF2E.RuleElement.ActiveEffectLike",
                "mode": "upgrade",
                "path": "data.skills.sur.rank",
                "value": 1
            }
        ],
        "source": {
            "value": ""
        },
        "trainedLore": "Pathfinder Lore",
        "trainedSkills": {
            "value": [
                "sur"
            ]
        },
        "traits": {
            "custom": "",
            "rarity": {
                "value": "common"
            },
            "value": []
        }
    },
    "effects": [],
    "flags": {},
    "img": "systems/pf2e/icons/default-icons/background.svg",
    "name": "Early Explorer",
    "type": "background"
}
