{
    "_id": "FKHut73XDUGTnKkP",
    "data": {
        "boosts": {
            "0": {
                "value": [
                    "con",
                    "wis"
                ]
            },
            "1": {
                "value": [
                    "cha",
                    "con",
                    "dex",
                    "int",
                    "str",
                    "wis"
                ]
            }
        },
        "description": {
            "value": "<p>In the chaotic rush of battle, you learned to adapt to rapidly changing conditions as you administered to battle casualties. You patched up soldiers, guards, or other combatants, and learned a fair amount about the logistics of war.</p>\n<p>Choose two ability boosts. One must be to <strong>Constitution</strong> or <strong>Wisdom</strong>, and one is a free ability boost.</p>\n<p>You're trained in the Medicine skill and the Warfare Lore skill. You gain the @Compendium[pf2e.feats-srd.Battle Medicine]{Battle Medicine} skill feat.</p>"
        },
        "items": {
            "lzyme": {
                "id": "wYerMk6F1RZb0Fwt",
                "img": "systems/pf2e/icons/features/feats/feats.webp",
                "level": "1",
                "name": "Battle Medicine",
                "pack": "pf2e.feats-srd"
            }
        },
        "rules": [
            {
                "key": "PF2E.RuleElement.ActiveEffectLike",
                "mode": "upgrade",
                "path": "data.skills.med.rank",
                "value": 1
            }
        ],
        "source": {
            "value": ""
        },
        "trainedLore": "Warfare Lore",
        "trainedSkills": {
            "value": [
                "med"
            ]
        },
        "traits": {
            "custom": "",
            "rarity": {
                "value": "common"
            },
            "value": []
        }
    },
    "effects": [],
    "flags": {},
    "img": "systems/pf2e/icons/default-icons/background.svg",
    "name": "Field Medic",
    "type": "background"
}
