{
    "_id": "mxJRdRSMsyZfBf5c",
    "data": {
        "boosts": {
            "0": {
                "value": [
                    "con",
                    "wis"
                ]
            },
            "1": {
                "value": [
                    "cha",
                    "con",
                    "dex",
                    "int",
                    "str",
                    "wis"
                ]
            }
        },
        "description": {
            "value": "<p><strong>[Legacy - Age of Ashes]</strong></p>\n<p>With the restrictions on Hermean citizenship lifted, you may have fled the city of Promise or have spent some of your childhood in the company of someone who did.</p>\n<p>Choose two ability boosts. One must be to <strong>Constitution</strong> or <strong>Wisdom</strong>, and one is a free ability boost.</p>\n<p>You're trained in the Society skill and the Legal Lore skill. You gain the @Compendium[pf2e.feats-srd.Multilingual]{Multilingual} skill feat or the @Compendium[pf2e.feats-srd.Assurance]{Assurance} skill feat for Society.</p>"
        },
        "items": {
            "o318c": {
                "id": "P9HCz0uR6xPHuw72",
                "img": "systems/pf2e/icons/features/feats/feats.webp",
                "level": "1",
                "name": "Multilingual",
                "pack": "pf2e.feats-srd"
            },
            "x6866": {
                "id": "W6Gl9ePmItfDHji0",
                "img": "systems/pf2e/icons/features/feats/feats.webp",
                "level": "1",
                "name": "Assurance",
                "pack": "pf2e.feats-srd"
            }
        },
        "rules": [
            {
                "key": "PF2E.RuleElement.ActiveEffectLike",
                "mode": "upgrade",
                "path": "data.skills.soc.rank",
                "value": 1
            }
        ],
        "source": {
            "value": ""
        },
        "trainedLore": "Legal Lore",
        "trainedSkills": {
            "value": [
                "soc"
            ]
        },
        "traits": {
            "custom": "",
            "rarity": {
                "value": "rare"
            },
            "value": []
        }
    },
    "effects": [],
    "flags": {},
    "img": "systems/pf2e/icons/default-icons/background.svg",
    "name": "Hermean Heritor",
    "type": "background"
}
