{
    "_id": "Zmwyhsxe4i6rZN75",
    "data": {
        "boosts": {
            "0": {
                "value": [
                    "dex",
                    "str"
                ]
            },
            "1": {
                "value": [
                    "cha",
                    "con",
                    "dex",
                    "int",
                    "str",
                    "wis"
                ]
            }
        },
        "description": {
            "value": "<p>You heard the call of the sea from a young age. Perhaps you signed onto a merchant's vessel, joined the navy, or even fell in with a crew of pirates and scalawags.</p>\n<p>Choose two ability boosts. One must be to Strength or Dexterity, and one is a free ability boost.</p>\n<p>You're trained in the Athletics skill and the Sailing Lore skill. You gain the @Compendium[pf2e.feats-srd.Underwater Marauder]{Underwater Marauder} skill feat.</p>"
        },
        "items": {
            "78ses": {
                "id": "iOY6YfGBaOvMNAor",
                "img": "systems/pf2e/icons/features/feats/feats.webp",
                "level": "1",
                "name": "Underwater Marauder",
                "pack": "pf2e.feats-srd"
            }
        },
        "rules": [
            {
                "key": "PF2E.RuleElement.ActiveEffectLike",
                "mode": "upgrade",
                "path": "data.skills.ath.rank",
                "value": 1
            }
        ],
        "source": {
            "value": ""
        },
        "trainedLore": "Sailing Lore",
        "trainedSkills": {
            "value": [
                "ath"
            ]
        },
        "traits": {
            "custom": "",
            "rarity": {
                "value": "common"
            },
            "value": []
        }
    },
    "effects": [],
    "flags": {},
    "img": "systems/pf2e/icons/default-icons/background.svg",
    "name": "Sailor",
    "type": "background"
}
