{
    "_id": "HEd2Lxgvl080nRxx",
    "data": {
        "boosts": {
            "0": {
                "value": [
                    "dex",
                    "int"
                ]
            },
            "1": {
                "value": [
                    "cha",
                    "con",
                    "dex",
                    "int",
                    "str",
                    "wis"
                ]
            }
        },
        "description": {
            "value": "<p>You were among the Pathfinders recruited by the devious Shadow Lodge, lured in by promises of wealth, reform, justice, or revenge. You might have fought against the Society's loyal agents, helped sabotage the Pathfinders' reputation in distant countries, or even infiltrated the far-flung lodges as a spy. You've since made peace with and rejoined the Pathfinder Society, yet the underhanded reflexes and skills you learned are hard to forget.</p>\n<p>Choose two ability boosts. One must be to <strong>Dexterity</strong> or <strong>Intelligence</strong>, and one is a free ability boost.</p>\n<p>You're trained in the Deception skill and the Underworld Lore skill. You gain the @Compendium[pf2e.feats-srd.Lie To Me]{Lie To Me} skill feat.</p>\n<hr />\n<p><strong>Special</strong>: You can select this background only if you have earned credit for at least 5 First Edition scenarios from Season 2 of the Pathfinder Society organized play campaign.</p>"
        },
        "items": {
            "o9m71": {
                "id": "Dvz54d6aPhjsmUux",
                "img": "systems/pf2e/icons/features/feats/feats.webp",
                "level": "1",
                "name": "Lie To Me",
                "pack": "pf2e.feats-srd"
            }
        },
        "rules": [
            {
                "key": "PF2E.RuleElement.ActiveEffectLike",
                "mode": "upgrade",
                "path": "data.skills.dec.rank",
                "value": 1
            }
        ],
        "source": {
            "value": ""
        },
        "trainedLore": "Underworld Lore",
        "trainedSkills": {
            "value": [
                "dec"
            ]
        },
        "traits": {
            "custom": "",
            "rarity": {
                "value": "common"
            },
            "value": []
        }
    },
    "effects": [],
    "flags": {},
    "img": "systems/pf2e/icons/default-icons/background.svg",
    "name": "Shadow Lodge Defector",
    "type": "background"
}
