{
    "_id": "x2y25cE98Eq4qxbu",
    "data": {
        "boosts": {
            "0": {
                "value": [
                    "int",
                    "wis"
                ]
            },
            "1": {
                "value": [
                    "cha",
                    "con",
                    "dex",
                    "int",
                    "str",
                    "wis"
                ]
            }
        },
        "description": {
            "value": "<p><strong>Prerequisite</strong>: Region - Eye of Dread</p>\n<hr />\n<p>You were educated at a famed Ustalavic academy, such as the University of Lepidstadt or the Sincomakti School of Sciences, and received quality instruction in advanced concepts of mathematics, science, and engineering.</p>\n<p>Choose two ability boosts. One must be to <strong>Intelligence</strong> or <strong>Wisdom</strong>, and one is a free ability boost.</p>\n<p>You're trained in the Crafting skill and the Academia Lore skill. You gain the @Compendium[pf2e.feats-srd.Skill Training]{Skill Training} skill feat.</p>"
        },
        "items": {
            "ftnjp": {
                "id": "P6icK2DbRoZ3H6kc",
                "img": "systems/pf2e/icons/features/feats/feats.webp",
                "level": "1",
                "name": "Skill Training",
                "pack": "pf2e.feats-srd"
            }
        },
        "rules": [
            {
                "key": "PF2E.RuleElement.ActiveEffectLike",
                "mode": "upgrade",
                "path": "data.skills.cra.rank",
                "value": 1
            }
        ],
        "source": {
            "value": ""
        },
        "trainedLore": "Academia Lore",
        "trainedSkills": {
            "value": [
                "cra"
            ]
        },
        "traits": {
            "custom": "",
            "rarity": {
                "value": "common"
            },
            "value": []
        }
    },
    "effects": [],
    "flags": {},
    "img": "systems/pf2e/icons/default-icons/background.svg",
    "name": "Ustalavic Academic",
    "type": "background"
}
