{
    "_id": "HuC6uonXt6YXePjb",
    "data": {
        "baseItem": null,
        "brokenThreshold": {
            "value": 0
        },
        "bulkCapacity": {
            "value": ""
        },
        "collapsed": {
            "value": false
        },
        "containerId": {
            "value": null
        },
        "description": {
            "value": "<p>This armor is easily doffed. A set of armor with armor latches gains the noisy trait. You cannot add armor latches to armor that already possesses the noisy trait. You can remove a set of armor with armor latches with a three-action activity, which has the manipulate trait. This doesn’t affect the time it takes to don the armor.</p>"
        },
        "equipped": {
            "value": false
        },
        "equippedBulk": {
            "value": ""
        },
        "hardness": {
            "value": 0
        },
        "hp": {
            "value": 0
        },
        "identification": {
            "misidentified": {},
            "status": "identified",
            "unidentified": {
                "data": {
                    "description": {
                        "value": ""
                    }
                },
                "img": "",
                "name": ""
            }
        },
        "invested": {
            "value": null
        },
        "level": {
            "value": 1
        },
        "maxHp": {
            "value": 0
        },
        "negateBulk": {
            "value": "0"
        },
        "preciousMaterial": {
            "value": null
        },
        "preciousMaterialGrade": {
            "value": null
        },
        "price": {
            "value": "4 gp"
        },
        "quantity": {
            "value": 1
        },
        "rules": [],
        "size": {
            "value": "med"
        },
        "source": {
            "value": ""
        },
        "stackGroup": {
            "value": ""
        },
        "traits": {
            "custom": "",
            "rarity": {
                "value": "common"
            },
            "usage": {
                "value": "held-in-one-hand"
            },
            "value": [
                "adjustment"
            ]
        },
        "usage": {
            "value": ""
        },
        "weight": {
            "value": "-"
        }
    },
    "effects": [],
    "flags": {},
    "img": "systems/pf2e/icons/default-icons/equipment.svg",
    "name": "Armor Latches",
    "type": "equipment"
}
