{
    "_id": "5WT7gdzHNb5BG1J0",
    "data": {
        "description": {
            "value": "<div><strong>Weapons</strong> sickle, sling with 20 bullets, staff</div>\n<div><strong>Gear</strong> adventurer's pack, explorer's clothing, material component pouch</div>\n<div><strong>Options</strong> @Compendium[pf2e.equipment-srd.Cookware]{Cookware} (1 gp), @Compendium[pf2e.equipment-srd.Healer's Tools]{Healer's Tools} (5 gp)</div>"
        },
        "equippedBulk": {
            "value": ""
        },
        "items": {
            "5172o": {
                "id": "MKSeXwUm56c15MZa",
                "img": "systems/pf2e/icons/equipment/weapons/sling-bullets.webp",
                "isContainer": false,
                "items": {},
                "name": "Sling Bullets",
                "pack": "pf2e.equipment-srd",
                "quantity": 20
            },
            "5weem": {
                "id": "UCH4myuFnokGv0vF",
                "img": "systems/pf2e/icons/equipment/weapons/sling.webp",
                "isContainer": false,
                "items": {},
                "name": "Sling",
                "pack": "pf2e.equipment-srd",
                "quantity": 1
            },
            "cps": {
                "id": "lzJ8AVhRcbFul5fh",
                "img": "systems/pf2e/icons/equipment/treasure/currency/copper-pieces.webp",
                "isContainer": false,
                "items": {},
                "name": "Copper Pieces",
                "pack": "pf2e.equipment-srd",
                "quantity": 8
            },
            "gps": {
                "id": "B6B7tBWJSqOBz5zz",
                "img": "systems/pf2e/icons/equipment/treasure/currency/gold-pieces.webp",
                "isContainer": false,
                "items": {},
                "name": "Gold Pieces",
                "pack": "pf2e.equipment-srd",
                "quantity": 12
            },
            "lkd8s": {
                "id": "dDIPA1WE9ESF67EB",
                "img": "systems/pf2e/icons/equipment/adventuring-gear/clothes-explorers.webp",
                "isContainer": false,
                "items": {},
                "name": "Clothing (Explorer's)",
                "pack": "pf2e.equipment-srd",
                "quantity": 1
            },
            "nwx1e": {
                "id": "ynnBwzkzsR6B73iO",
                "img": "systems/pf2e/icons/equipment/weapons/sickle.webp",
                "isContainer": false,
                "items": {},
                "name": "Sickle",
                "pack": "pf2e.equipment-srd",
                "quantity": 1
            },
            "sps": {
                "id": "5Ew82vBF9YfaiY9f",
                "img": "systems/pf2e/icons/equipment/treasure/currency/silver-pieces.webp",
                "isContainer": false,
                "items": {},
                "name": "Silver Pieces",
                "pack": "pf2e.equipment-srd",
                "quantity": 6
            },
            "x82fi": {
                "id": "FVjTuBCIefAgloUU",
                "img": "systems/pf2e/icons/equipment/weapons/staff.webp",
                "isContainer": false,
                "items": {},
                "name": "Staff",
                "pack": "pf2e.equipment-srd",
                "quantity": 1
            },
            "zrmra": {
                "id": "VHxXMvBeBTq2FSdf",
                "img": "systems/pf2e/icons/equipment/adventuring-gear/material-component-pouch.webp",
                "isContainer": false,
                "items": {},
                "name": "Material Component Pouch",
                "pack": "pf2e.equipment-srd",
                "quantity": 1
            },
            "zx9h5": {
                "id": "2req0jGaxz8hScdB",
                "img": "systems/pf2e/icons/equipment/adventuring-gear/adventurers-pack.webp",
                "isContainer": true,
                "items": {},
                "name": "Adventurer's Pack",
                "pack": "pf2e.equipment-srd",
                "quantity": 1
            }
        },
        "price": {
            "value": "2 gp, 3 sp, 2 cp"
        },
        "rules": [],
        "source": {
            "value": ""
        },
        "traits": {
            "custom": "",
            "rarity": {
                "value": "common"
            },
            "value": [
                "witch"
            ]
        },
        "weight": {
            "value": "-"
        }
    },
    "effects": [],
    "flags": {},
    "img": "systems/pf2e/icons/equipment/adventuring-gear/classkit-witch.webp",
    "name": "Class Kit (Witch)",
    "type": "kit"
}
