{
    "_id": "zPSImy0ENQjnRJNs",
    "data": {
        "armor": {
            "value": 6
        },
        "armorType": {
            "value": "heavy"
        },
        "baseItem": "full-plate",
        "brokenThreshold": {
            "value": null
        },
        "bulkCapacity": {
            "value": ""
        },
        "check": {
            "value": -3
        },
        "collapsed": {
            "value": false
        },
        "containerId": {
            "value": ""
        },
        "description": {
            "value": "<p>This +2 resilient full plate, crafted from grim plates of iron, covers the entire body except for small holes for the eyes and mouth. While wearing the armor, you gain the benefits of a @Compendium[pf2e.spells-srd.Nondetection]{Nondetection} spell. Additionally, creatures attempting to Recall Knowledge about a subject involving you must succeed at a DC 30 Will save. On a success, they can attempt the check normally. On a failure, they can still attempt the check, but even if they successfully Recall Knowledge, they don't remember you (although they might remember other details about the event). Creatures that fail their save can make another attempt to Recall Knowledge about you, but they must wait 24 hours to do so.<br /><br />You can spend 1 hour using blacksmithing tools to bind a helpless Medium humanoid inside the suit, which welds the suit shut and makes it impossible to remove without breaking it (Hardness 9, HP 36, BT 18). The humanoid inside the suit counts as being Invested while bound in this fashion and can't break out of the suit on its own. If the suit is welded shut, the creature gains the benefits above but also the following penalties:</p>\n<ul>\n<li>Whenever the humanoid attempts a Deception, Diplomacy, Intimidation, or Performance check, they must roll twice and use the worse result.</li>\n<li>Additionally, creatures the humanoid encounters have an initial attitude toward them of one degree worse than they normally would (for instance, @Compendium[pf2e.conditionitems.Unfriendly]{Unfriendly} instead of @Compendium[pf2e.conditionitems.Indifferent]{Indifferent}).</li>\n<li>Good creatures are @Compendium[pf2e.conditionitems.Enfeebled]{Enfeebled} 2 while carrying, wielding, or wearing this item crafted by the sea-witches.</li>\n</ul>\n<p>Craft Requirements Supply a casting of Nondetection and @Compendium[pf2e.spells-srd.Outcast's Curse]{Outcast's Curse}.</p>"
        },
        "dex": {
            "value": 0
        },
        "equipped": {
            "value": false
        },
        "equippedBulk": {
            "value": "3"
        },
        "group": {
            "value": "plate"
        },
        "hardness": {
            "value": null
        },
        "hp": {
            "value": null
        },
        "identification": {
            "misidentified": {},
            "status": "identified",
            "unidentified": {
                "data": {
                    "description": {
                        "value": ""
                    }
                },
                "img": "",
                "name": ""
            }
        },
        "invested": {
            "value": false
        },
        "level": {
            "value": 13
        },
        "maxHp": {
            "value": null
        },
        "negateBulk": {
            "value": "0"
        },
        "potencyRune": {
            "value": 2
        },
        "preciousMaterial": {
            "value": ""
        },
        "preciousMaterialGrade": {
            "value": ""
        },
        "price": {
            "value": "2500 gp"
        },
        "propertyRune1": {
            "value": ""
        },
        "propertyRune2": {
            "value": ""
        },
        "propertyRune3": {
            "value": ""
        },
        "propertyRune4": {
            "value": ""
        },
        "quantity": {
            "value": 1
        },
        "resiliencyRune": {
            "value": "resilient"
        },
        "rules": [
            {
                "key": "PF2E.RuleElement.FlatModifier",
                "predicate": {
                    "not": [
                        "unburdened-iron"
                    ]
                },
                "roll-options": [
                    "all"
                ],
                "selector": "speed",
                "type": "untyped",
                "value": {
                    "brackets": [
                        {
                            "end": 17,
                            "value": -10
                        },
                        {
                            "start": 18,
                            "value": -5
                        }
                    ],
                    "field": "actor|data.abilities.str.value"
                }
            },
            {
                "key": "PF2E.RuleElement.FlatModifier",
                "label": "Bulwark",
                "predicate": {
                    "all": [
                        "damaging-effect"
                    ]
                },
                "selector": "reflex",
                "type": "ability",
                "value": 3
            }
        ],
        "size": {
            "value": "med"
        },
        "source": {
            "value": ""
        },
        "speed": {
            "value": -10
        },
        "stackGroup": {
            "value": ""
        },
        "strength": {
            "value": 18
        },
        "traits": {
            "custom": "",
            "rarity": {
                "value": "rare"
            },
            "value": [
                "bulwark",
                "divination",
                "invested",
                "magical"
            ]
        },
        "usage": {
            "value": "wornarmor"
        },
        "weight": {
            "value": "4"
        }
    },
    "effects": [],
    "flags": {},
    "img": "systems/pf2e/icons/equipment/armor/specific-magic-armor/forgotten_shell.webp",
    "name": "Forgotten Shell",
    "type": "armor"
}
