{
    "_id": "ThX0ntpTqonGqguT",
    "data": {
        "activation": {
            "condition": "",
            "cost": 0,
            "type": ""
        },
        "autoDestroy": {
            "_deprecated": true,
            "value": true
        },
        "autoUse": {
            "_deprecated": true,
            "value": true
        },
        "baseItem": null,
        "brokenThreshold": {
            "value": 0
        },
        "bulkCapacity": {
            "value": ""
        },
        "charges": {
            "_deprecated": true,
            "max": "1",
            "value": "1"
        },
        "collapsed": {
            "value": false
        },
        "consumableType": {
            "value": "potion"
        },
        "consume": {
            "_deprecated": true,
            "value": ""
        },
        "containerId": {
            "value": ""
        },
        "description": {
            "value": "<p><strong>Activate</strong> <span class=\"pf2-icon\">1</span> Interact</p>\n<p>Upon imbibing this potion, you take on the appearance of a specific type of creature for [[/r 2d12 #hours]]{2d12 hours}. The type of creature is determined when the potion is created. For example, you might have a <em>potion of elf disguise</em> or <em>potion of frog disguise</em>. Drinking the potion doesn't impart the knowledge of how long the effect lasts; the GM rolls the duration in secret.</p>\n<p>The disguise doesn't change your traits or statistics, nor does it give you any of the special abilities of the creature you're imitating. It might affect what items you can hold or wear (for example, your new form might lack opposable thumbs). The potion shrinks you down to a minimum of size Tiny, the potion increases your size if the creature is larger than you, to a maximum of Large, or maintains your size if the creature is larger than Large. This does not change any of your statistics, with the exception of reducing your reach to 0 as a Tiny creature. The creature has to be of a specific kind, such as \"<em>leopard</em>\" or \"<em>lion</em>\" rather than just \"<em>cat</em>\", or \"<em>fire giant</em>\" or \"<em>ogre</em>\" rather than just \"<em>giant</em>\", but the potion can't cause you to mimic a specific individual creature.</p>\n<p>The effects of this potion use the same rules as the <em>Impersonate</em> activity of <em>Deception</em>. Onlookers always assume you're the chosen type of creature unless they're actively Seeking. You gain a +4 status bonus to your Deception DC against such Perception checks and add your level even if untrained.</p>\n<p>While drinking a greater potion of <em>disguise,</em> if you picture the specific form you want to transform into, the potion will change you into that form. You can attempt to Impersonate a specific individual, though you still need to roll Deception.</p>"
        },
        "duration": {
            "units": "",
            "value": null
        },
        "equipped": {
            "value": false
        },
        "equippedBulk": {
            "value": ""
        },
        "hardness": {
            "value": 0
        },
        "hp": {
            "value": 0
        },
        "identification": {
            "misidentified": {},
            "status": "identified",
            "unidentified": {
                "data": {
                    "description": {
                        "value": ""
                    }
                },
                "img": "",
                "name": ""
            }
        },
        "level": {
            "value": 11
        },
        "maxHp": {
            "value": 0
        },
        "negateBulk": {
            "value": "0"
        },
        "preciousMaterial": {
            "value": ""
        },
        "preciousMaterialGrade": {
            "value": ""
        },
        "price": {
            "value": "300 gp"
        },
        "quantity": {
            "value": 1
        },
        "range": {
            "long": null,
            "units": "",
            "value": null
        },
        "rules": [],
        "size": {
            "value": "med"
        },
        "source": {
            "value": ""
        },
        "spell": {
            "data": null,
            "heightenedLevel": null
        },
        "stackGroup": {
            "value": ""
        },
        "target": {
            "type": "",
            "units": "",
            "value": null
        },
        "traits": {
            "custom": "",
            "rarity": {
                "value": "uncommon"
            },
            "usage": {
                "value": "held-in-one-hand"
            },
            "value": [
                "consumable",
                "magical",
                "polymorph",
                "potion",
                "transmutation"
            ]
        },
        "usage": {
            "value": "held-in-one-hand"
        },
        "uses": {
            "autoDestroy": true,
            "autoUse": true,
            "max": 0,
            "per": null,
            "value": 0
        },
        "weight": {
            "value": "L"
        }
    },
    "effects": [],
    "flags": {},
    "img": "systems/pf2e/icons/equipment/consumables/potions/potion-of-disguise.webp",
    "name": "Potion of Disguise (Greater)",
    "type": "consumable"
}
