{
    "_id": "qeTWg0TWw9CwMKCO",
    "data": {
        "activation": {
            "condition": "",
            "cost": 0,
            "type": ""
        },
        "autoDestroy": {
            "_deprecated": true,
            "value": true
        },
        "autoUse": {
            "_deprecated": true,
            "value": true
        },
        "baseItem": null,
        "brokenThreshold": {
            "value": 0
        },
        "bulkCapacity": {
            "value": ""
        },
        "charges": {
            "_deprecated": true,
            "max": "1",
            "value": "1"
        },
        "collapsed": {
            "value": false
        },
        "consumableType": {
            "value": "talisman"
        },
        "consume": {
            "_deprecated": true,
            "value": ""
        },
        "containerId": {
            "value": ""
        },
        "description": {
            "value": "<p><span>This pyramid-shaped spike is attached to an armor's chest piece. When you activate the spike, it shoots a strand of force to help you gain purchase. If you roll a success on the triggering attempt, you get a critical success instead (if you roll a critical failure, you get a failure instead). <br /></span></p>\n<p><span><strong>Activate</strong> <span class=\"pf2-icon\">F</span> Command; <strong>Trigger</strong> You attempt to Grab an Edge but haven't rolled; <strong>Requirements</strong> You're an expert in Reflex</span></p>"
        },
        "duration": {
            "units": "",
            "value": null
        },
        "equipped": {
            "value": false
        },
        "equippedBulk": {
            "value": ""
        },
        "hardness": {
            "value": 0
        },
        "hp": {
            "value": 0
        },
        "identification": {
            "misidentified": {},
            "status": "identified",
            "unidentified": {
                "data": {
                    "description": {
                        "value": ""
                    }
                },
                "img": "",
                "name": ""
            }
        },
        "level": {
            "value": 2
        },
        "maxHp": {
            "value": 0
        },
        "negateBulk": {
            "value": "0"
        },
        "preciousMaterial": {
            "value": ""
        },
        "preciousMaterialGrade": {
            "value": ""
        },
        "price": {
            "value": "7 gp"
        },
        "quantity": {
            "value": 1
        },
        "range": {
            "long": null,
            "units": "",
            "value": null
        },
        "rules": [],
        "size": {
            "value": "med"
        },
        "source": {
            "value": ""
        },
        "spell": {
            "data": null,
            "heightenedLevel": null
        },
        "stackGroup": {
            "value": ""
        },
        "target": {
            "type": "",
            "units": "",
            "value": null
        },
        "traits": {
            "custom": "",
            "rarity": {
                "value": "common"
            },
            "usage": {
                "value": "affixed-to-armor"
            },
            "value": [
                "abjuration",
                "consumable",
                "force",
                "magical",
                "talisman"
            ]
        },
        "usage": {
            "value": "held-in-one-hand"
        },
        "uses": {
            "autoDestroy": true,
            "autoUse": true,
            "max": 0,
            "per": null,
            "value": 0
        },
        "weight": {
            "value": "-"
        }
    },
    "effects": [],
    "flags": {},
    "img": "systems/pf2e/icons/equipment/consumables/talismans/savior-spike.webp",
    "name": "Savior Spike",
    "type": "consumable"
}
