{
    "_id": "Kmrkm1sHKkGXiJlr",
    "data": {
        "MAP": {
            "value": ""
        },
        "ability": {
            "value": "str"
        },
        "baseItem": "meteor-hammer",
        "bonus": {
            "value": 3
        },
        "bonusDamage": {
            "value": 0
        },
        "brokenThreshold": {
            "value": 0
        },
        "bulkCapacity": {
            "value": ""
        },
        "collapsed": {
            "value": false
        },
        "containerId": {
            "value": ""
        },
        "damage": {
            "damageType": "bludgeoning",
            "dice": 1,
            "die": "d8",
            "value": ""
        },
        "description": {
            "value": "<p>This portable silver anvil has a narrow hoop on one end, through which a long, sturdy chain has been strung. Torag's Silver Anvil can be wielded as a +3 @Compendium[pf2e.equipment-srd.Holy]{Holy} @Compendium[pf2e.equipment-srd.Flaming (Greater)]{Greater Flaming} greater striking silver meteor hammer.</p>\n<p>Outside of combat, the anvil can be used with a hammer as an incredibly effective portable forge, heating up the metal to be forged without a furnace and granting a +3 item bonus to Crafting checks involving metalworking.</p>\n<p>When you use the anvil to successfully Repair a metal item, the item recovers an additional 10 Hit Points (or an additional 20 on a critical success).</p>\n<hr />\n<p>Automatically applied effects:</p>\n<ul>\n<li> +3 item bonus to Crafting checks involving metalworking</li>\n</ul>"
        },
        "equipped": {
            "value": false
        },
        "equippedBulk": {
            "value": ""
        },
        "group": {
            "value": "flail"
        },
        "hands": {
            "value": ""
        },
        "hardness": {
            "value": 0
        },
        "hp": {
            "value": 0
        },
        "identification": {
            "misidentified": {},
            "status": "identified",
            "unidentified": {
                "data": {
                    "description": {
                        "value": ""
                    }
                },
                "img": "",
                "name": ""
            }
        },
        "invested": {
            "value": false
        },
        "level": {
            "value": 18
        },
        "maxHp": {
            "value": 0
        },
        "negateBulk": {
            "value": "0"
        },
        "potencyRune": {
            "value": 3
        },
        "preciousMaterial": {
            "value": "silver"
        },
        "preciousMaterialGrade": {
            "value": "high"
        },
        "price": {
            "value": "24,000 gp"
        },
        "property1": {
            "critDamage": "",
            "critDamageType": "",
            "critDice": null,
            "critDie": "",
            "criticalConditionType": "",
            "criticalConditionValue": null,
            "damageType": "",
            "dice": null,
            "die": "",
            "strikeConditionType": "",
            "strikeConditionValue": null,
            "value": ""
        },
        "propertyRune1": {
            "value": "holy"
        },
        "propertyRune2": {
            "value": "greaterFlaming"
        },
        "propertyRune3": {
            "value": null
        },
        "propertyRune4": {
            "value": null
        },
        "quantity": {
            "value": 1
        },
        "range": {
            "value": "melee"
        },
        "reload": {
            "value": ""
        },
        "rules": [
            {
                "key": "PF2E.RuleElement.FlatModifier",
                "label": "Torag's Silver Anvil (metalworking)",
                "predicate": {
                    "any": [
                        "metalworking"
                    ]
                },
                "selector": "crafting",
                "type": "item",
                "value": 3
            }
        ],
        "size": {
            "value": "med"
        },
        "source": {
            "value": ""
        },
        "specific": {
            "material": {
                "grade": "high",
                "type": "silver"
            },
            "runes": {
                "potency": 3,
                "striking": "greaterStriking"
            },
            "value": true
        },
        "splashDamage": {
            "value": null
        },
        "stackGroup": {
            "value": ""
        },
        "strikingRune": {
            "value": "greaterStriking"
        },
        "traits": {
            "custom": "",
            "rarity": {
                "value": "uncommon"
            },
            "value": [
                "backswing",
                "disarm",
                "divine",
                "magical",
                "reach",
                "transmutation",
                "trip"
            ]
        },
        "usage": {
            "value": "held-in-one-hand"
        },
        "weaponType": {
            "value": "martial"
        },
        "weight": {
            "value": "2"
        }
    },
    "effects": [],
    "flags": {},
    "img": "systems/pf2e/icons/equipment/weapons/specific-magic-weapons/torags-silver-anvil.webp",
    "name": "Torag's Silver Anvil",
    "type": "weapon"
}
