{
    "_id": "Wq0Euk0RK6rhRDsN",
    "data": {
        "abilities": {
            "cha": {
                "mod": 0
            },
            "con": {
                "mod": 0
            },
            "dex": {
                "mod": 2
            },
            "int": {
                "mod": -5
            },
            "str": {
                "mod": 1
            },
            "wis": {
                "mod": 2
            }
        },
        "attributes": {
            "ac": {
                "details": "",
                "value": 15
            },
            "allSaves": {
                "value": null
            },
            "hp": {
                "details": "negative healing",
                "max": 7,
                "temp": 0,
                "value": 7
            },
            "initiative": {
                "ability": "perception"
            },
            "perception": {
                "value": 6
            },
            "shield": {
                "ac": 2,
                "brokenThreshold": 0,
                "hardness": 0,
                "max": 0,
                "value": 0
            },
            "speed": {
                "otherSpeeds": [
                    {
                        "exceptions": "",
                        "label": "Fly",
                        "type": "fly",
                        "value": "25"
                    }
                ],
                "value": "15"
            }
        },
        "details": {
            "alignment": {
                "value": "NE"
            },
            "creatureType": "",
            "flavorText": "<p>Beheaded are the reanimated heads of decapitation victims. These mindless undead fly through the air or roll around to attack their prey.</p>\n<hr />\n<p>The most common beheaded appears simply as a rotting head, barely preserved by the magic that created it.</p>",
            "level": {
                "value": -1
            },
            "source": {
                "value": "Pathfinder Bestiary 3"
            }
        },
        "resources": {},
        "saves": {
            "fortitude": {
                "saveDetail": "",
                "value": 4
            },
            "reflex": {
                "saveDetail": "",
                "value": 6
            },
            "will": {
                "saveDetail": "",
                "value": 4
            }
        },
        "traits": {
            "attitude": {
                "value": "hostile"
            },
            "ci": [],
            "di": {
                "custom": "",
                "value": [
                    "death effects",
                    "disease",
                    "mental",
                    "paralyzed",
                    "poison",
                    "unconscious"
                ]
            },
            "dr": [],
            "dv": [
                {
                    "exceptions": "",
                    "label": "Positive",
                    "type": "positive",
                    "value": 1
                }
            ],
            "languages": {
                "custom": "",
                "selected": [],
                "value": []
            },
            "rarity": {
                "value": "common"
            },
            "senses": {
                "value": "darkvision"
            },
            "size": {
                "value": "tiny"
            },
            "traits": {
                "custom": "",
                "value": [
                    "mindless",
                    "undead"
                ]
            }
        }
    },
    "effects": [],
    "flags": {},
    "img": "systems/pf2e/icons/default-icons/npc.svg",
    "items": [
        {
            "_id": "jBnvJizQVNlbpByJ",
            "data": {
                "attack": {
                    "value": ""
                },
                "attackEffects": {
                    "custom": "",
                    "value": []
                },
                "bonus": {
                    "value": 6
                },
                "damageRolls": {
                    "0": {
                        "damage": "1d4+1",
                        "damageType": "piercing"
                    }
                },
                "description": {
                    "value": ""
                },
                "rules": [],
                "slug": null,
                "source": {
                    "value": ""
                },
                "traits": {
                    "custom": "",
                    "rarity": {
                        "value": "common"
                    },
                    "value": [
                        "agile",
                        "finesse"
                    ]
                },
                "weaponType": {
                    "value": "melee"
                }
            },
            "effects": [],
            "flags": {},
            "img": "systems/pf2e/icons/default-icons/melee.svg",
            "name": "Jaws",
            "sort": 100000,
            "type": "melee"
        },
        {
            "_id": "uRFTCAT3URlRs0Pp",
            "data": {
                "actionCategory": {
                    "value": "interaction"
                },
                "actionType": {
                    "value": "passive"
                },
                "actions": {
                    "value": ""
                },
                "description": {
                    "value": "<p>A monster with darkvision can see perfectly well in areas of darkness and dim light, though such vision is in black and white only. Some forms of magical darkness, such as a 4th-level @Compendium[pf2e.spells-srd.Darkness]{Darkness} spell, block normal darkvision. A monster with @Compendium[pf2e.bestiary-ability-glossary-srd.Greater Darkvision]{Greater Darkvision}, however, can see through even these forms of magical darkness.</p>"
                },
                "requirements": {
                    "value": ""
                },
                "rules": [],
                "slug": "darkvision",
                "source": {
                    "value": ""
                },
                "traits": {
                    "custom": "",
                    "rarity": {
                        "value": "common"
                    },
                    "value": []
                },
                "trigger": {
                    "value": ""
                },
                "weapon": {
                    "value": ""
                }
            },
            "effects": [],
            "flags": {
                "core": {
                    "sourceId": "Compendium.pf2e.bestiary-ability-glossary-srd.qCCLZhnp2HhP3Ex6"
                }
            },
            "img": "systems/pf2e/icons/default-icons/action.svg",
            "name": "Darkvision",
            "sort": 200000,
            "type": "action"
        },
        {
            "_id": "x3JhD2cIvlQJ82Lh",
            "data": {
                "actionCategory": {
                    "value": "defensive"
                },
                "actionType": {
                    "value": "passive"
                },
                "actions": {
                    "value": ""
                },
                "description": {
                    "value": "<p>A creature with negative healing draws health from negative energy rather than positive energy. It is damaged by positive damage and is not healed by positive healing effects. It does not take negative damage, and it is healed by negative effects that heal undead.</p>"
                },
                "requirements": {
                    "value": ""
                },
                "rules": [],
                "slug": "negative-healing",
                "source": {
                    "value": ""
                },
                "traits": {
                    "custom": "",
                    "rarity": {
                        "value": "common"
                    },
                    "value": []
                },
                "trigger": {
                    "value": ""
                },
                "weapon": {
                    "value": ""
                }
            },
            "effects": [],
            "flags": {
                "core": {
                    "sourceId": "Compendium.pf2e.bestiary-ability-glossary-srd.TTCw5NusiSSkJU1x"
                }
            },
            "img": "systems/pf2e/icons/default-icons/action.svg",
            "name": "Negative Healing",
            "sort": 300000,
            "type": "action"
        },
        {
            "_id": "KjLaF8NJBaPjsRAz",
            "data": {
                "actionCategory": {
                    "value": "offensive"
                },
                "actionType": {
                    "value": "action"
                },
                "actions": {
                    "value": "1"
                },
                "description": {
                    "value": "<p><strong>Requirements</strong> The beheaded’s previous action was a jaws Strike that dealt damage to its target;</p>\n<p><strong>Effect</strong> The severed head makes a second jaws Strike as it violently shakes itself, trying to rip away a mouthful of flesh. On a success, the target takes an additional [[/r 1d4 #slashing]]{1d4 slashing damage} and [[/r 1 #persistent bleed]] @Compendium[pf2e.conditionitems.Persistent Damage]{Persistent Bleed Damage}.</p>"
                },
                "requirements": {
                    "value": ""
                },
                "rules": [],
                "slug": null,
                "source": {
                    "value": ""
                },
                "traits": {
                    "custom": "",
                    "rarity": {
                        "value": "common"
                    },
                    "value": []
                },
                "trigger": {
                    "value": ""
                },
                "weapon": {
                    "value": ""
                }
            },
            "effects": [],
            "flags": {},
            "img": "systems/pf2e/icons/actions/OneAction.webp",
            "name": "Gnash",
            "sort": 400000,
            "type": "action"
        },
        {
            "_id": "Zh8VyOJVStjNfjec",
            "data": {
                "description": {
                    "value": ""
                },
                "item": {
                    "value": 0
                },
                "mod": {
                    "value": 6
                },
                "proficient": {
                    "value": 0
                },
                "rules": [
                    {
                        "key": "PF2E.RuleElement.FlatModifier",
                        "label": "To Maneuver in Flight",
                        "predicate": {
                            "all": [
                                "action:maneuver-in-flight"
                            ]
                        },
                        "selector": "acrobatics",
                        "value": 2
                    }
                ],
                "slug": null,
                "source": {
                    "value": ""
                },
                "traits": {
                    "custom": "",
                    "rarity": {
                        "value": "common"
                    },
                    "value": []
                },
                "variants": {
                    "0": {
                        "label": "+8 to Maneuver in Flight",
                        "options": "action:maneuver-in-flight"
                    }
                }
            },
            "effects": [],
            "flags": {},
            "img": "systems/pf2e/icons/default-icons/lore.svg",
            "name": "Acrobatics",
            "sort": 500000,
            "type": "lore"
        }
    ],
    "name": "Severed Head",
    "token": {
        "disposition": -1,
        "height": 0.5,
        "img": "systems/pf2e/icons/default-icons/npc.svg",
        "name": "Severed Head",
        "width": 0.5
    },
    "type": "npc"
}
