{
    "_id": "L80gn6WOWi9roJW3",
    "data": {
        "actionCategory": {
            "value": "offensive"
        },
        "actionType": {
            "value": "passive"
        },
        "actions": {
            "value": ""
        },
        "description": {
            "value": "<p>The divine warden is a beacon for its deity’s faith. A cleric of the divine warden’s patron deity can channel a @Compendium[pf2e.spells-srd.Heal]{Heal} spell through a divine warden they can see within 60 feet. The cleric determines any targets or area for the spell as if they were standing in the divine warden’s space.</p>"
        },
        "requirements": {
            "value": ""
        },
        "rules": [],
        "source": {
            "value": ""
        },
        "traits": {
            "custom": "",
            "rarity": {
                "value": "common"
            },
            "value": []
        },
        "trigger": {
            "value": ""
        },
        "weapon": {
            "value": ""
        }
    },
    "effects": [],
    "flags": {},
    "img": "systems/pf2e/icons/actions/Passive.webp",
    "name": "(Divine Warden) Instrument of Faith",
    "type": "action"
}
