{
    "_id": "jD0M3yV6gjkXafsJ",
    "data": {
        "actionCategory": {
            "value": "defensive"
        },
        "actionType": {
            "value": "passive"
        },
        "actions": {
            "value": ""
        },
        "description": {
            "value": "<p>When the divine warden is reduced to 0 HP, it erupts with divine energy in a 30-foot emanation, dealing 1d6 damage per level. This damage is either positive or negative, determined by the patron deity’s divine font (chosen at the divine warden’s creation if the deity offers a choice), and this ability gains the corresponding trait. Each creature in the area must attempt a Will save with the following outcomes.</p>\n<hr />\n<p><strong>Critical Success</strong> The creature takes half damage.</p>\n<p><strong>Success</strong> The creature takes full damage.</p>\n<p><strong>Failure</strong> The creature takes full damage and becomes temporarily cursed by the patron deity. The creature becomes @Compendium[pf2e.conditionitems.Enfeebled]{Enfeebled 1} and @Compendium[pf2e.conditionitems.Stupefied]{Stupefied 1} for 1 day; this is a curse effect that uses the Will save DC as the counteract DC.</p>\n<p><strong>Critical Failure</strong> As failure, except the creature becomes @Compendium[pf2e.conditionitems.Enfeebled]{Enfeebled 2} and @Compendium[pf2e.conditionitems.Stupefied]{Stupefied 2}.</p>"
        },
        "requirements": {
            "value": ""
        },
        "rules": [],
        "source": {
            "value": ""
        },
        "traits": {
            "custom": "",
            "rarity": {
                "value": "common"
            },
            "value": [
                "divine",
                "necromancy"
            ]
        },
        "trigger": {
            "value": ""
        },
        "weapon": {
            "value": ""
        }
    },
    "effects": [],
    "flags": {},
    "img": "systems/pf2e/icons/actions/Passive.webp",
    "name": "(Divine Warden) Divine Destruction",
    "type": "action"
}
