{
    "_id": "JSBmboE6bYVxDT9d",
    "data": {
        "actionCategory": {
            "value": "offensive"
        },
        "actionType": {
            "value": "action"
        },
        "actions": {
            "value": "1"
        },
        "description": {
            "value": "<p>The ghost possesses an object of size Large or smaller within 20 feet, making it an animated object. This animated object's level can be no higher than the ghost's level -2. If the target object is being held by a creature, the bearer can attempt a <span data-pf2-check=\"will\" data-pf2-dc=\"\" data-pf2-label=\"Inhabit Object DC\" data-pf2-show-dc=\"gm\">Will</span> save to prevent the possession.</p>\n<p data-visibility=\"gm\">This possession ends when the object is destroyed or the ghost leaves it. At this point, the ghost reappears in the object's square and can't Inhabit an Object again for [[/br 1d4 #rounds]](1d4 rounds}.</p>"
        },
        "requirements": {
            "value": ""
        },
        "rules": [],
        "source": {
            "value": ""
        },
        "traits": {
            "custom": "",
            "rarity": {
                "value": "common"
            },
            "value": []
        },
        "trigger": {
            "value": ""
        },
        "weapon": {
            "value": ""
        }
    },
    "effects": [],
    "flags": {},
    "img": "systems/pf2e/icons/actions/OneAction.webp",
    "name": "(Ghost) Inhabit Object",
    "type": "action"
}
