{
    "_id": "7jWANvnDmNcQvFve",
    "data": {
        "actionCategory": {
            "value": "offensive"
        },
        "actionType": {
            "value": "passive"
        },
        "actions": {
            "value": ""
        },
        "description": {
            "value": "<p>At the time of its creation, a graveknight chooses one of the following energy types that was relevant to its life or death: acid, cold, electricity, or fire.</p>\n<p>Any weapon the graveknight wields gains the effects of the caustic, frost, shock, or flaming weapon rune, respectively, in addition to a +1 striking weapon rune.</p>\n<p>If the graveknight is 14th level or higher, its weapons instead gain the effects of the greater versions of both of these runes.</p>"
        },
        "requirements": {
            "value": ""
        },
        "rules": [],
        "source": {
            "value": "Pathfinder Bestiary"
        },
        "traits": {
            "custom": "",
            "rarity": {
                "value": "common"
            },
            "value": []
        },
        "trigger": {
            "value": ""
        },
        "weapon": {
            "value": ""
        }
    },
    "effects": [],
    "flags": {},
    "img": "systems/pf2e/icons/actions/Passive.webp",
    "name": "(Graveknight) Ruinous Weapons",
    "type": "action"
}
