{
    "_id": "W77QhVNE46WDyMXi",
    "data": {
        "actionCategory": {
            "value": "defensive"
        },
        "actionType": {
            "value": "passive"
        },
        "actions": {
            "value": ""
        },
        "description": {
            "value": "<p>When the skeleton is destroyed, its bones shatter and explode as the necromantic energy holding it together is released.</p>\n<p>Adjacent creatures take [[/r 1d6 #slashing]]{1d6 slashing damage} per 2 levels (minimum 1d6) with a basic Reflex save.</p>"
        },
        "requirements": {
            "value": ""
        },
        "rules": [],
        "source": {
            "value": ""
        },
        "traits": {
            "custom": "",
            "rarity": {
                "value": "common"
            },
            "value": []
        },
        "trigger": {
            "value": ""
        },
        "weapon": {
            "value": ""
        }
    },
    "effects": [],
    "flags": {},
    "img": "systems/pf2e/icons/actions/Passive.webp",
    "name": "(Skeleton) Explosive Death",
    "type": "action"
}
