{
    "_id": "FXHjmH1oce7Z3tZb",
    "data": {
        "actionCategory": {
            "value": "defensive"
        },
        "actionType": {
            "value": "passive"
        },
        "actions": {
            "value": ""
        },
        "description": {
            "value": "<p>Unlike other undead, a vampire isn’t destroyed at 0 HP. Instead, it falls @Compendium[pf2e.conditionitems.Unconscious]{Unconscious}. If its body rests in its coffin for 1 hour, the vampire gains 1 HP, after which its @Compendium[pf2e.bestiary-ability-glossary-srd.Fast Healing]{Fast Healing} begins to function normally.</p>"
        },
        "requirements": {
            "value": ""
        },
        "rules": [],
        "source": {
            "value": "Pathfinder Bestiary"
        },
        "traits": {
            "custom": "",
            "rarity": {
                "value": "common"
            },
            "value": [
                "divine",
                "necromancy",
                "negative"
            ]
        },
        "trigger": {
            "value": ""
        },
        "weapon": {
            "value": ""
        }
    },
    "effects": [],
    "flags": {},
    "img": "systems/pf2e/icons/actions/Passive.webp",
    "name": "(Vampire, Basic) Coffin Restoration",
    "type": "action"
}
