{
    "_id": "m4HQ2o5aPxjXf2kY",
    "data": {
        "actionCategory": {
            "value": "defensive"
        },
        "actionType": {
            "value": "reaction"
        },
        "actions": {
            "value": ""
        },
        "description": {
            "value": "<p><strong>Trigger</strong> The monster has its shield raised and takes damage from a physical attack.</p>\n<p><strong>Effect</strong> The monster snaps its shield into place to deflect a blow. The shield prevents the monster from taking an amount of damage up to the shield's Hardness. The monster and the shield each take any remaining damage, possibly breaking or destroying the shield.</p>"
        },
        "requirements": {
            "value": ""
        },
        "rules": [],
        "source": {
            "value": ""
        },
        "traits": {
            "custom": "",
            "rarity": {
                "value": "common"
            },
            "value": []
        },
        "trigger": {
            "value": ""
        },
        "weapon": {
            "value": ""
        }
    },
    "effects": [],
    "flags": {},
    "img": "systems/pf2e/icons/actions/Reaction.webp",
    "name": "Shield Block",
    "type": "action"
}
