{
    "_id": "X6TTBlHIfJZ43OqR",
    "data": {
        "abilities": {
            "cha": {
                "mod": -5
            },
            "con": {
                "mod": 9
            },
            "dex": {
                "mod": 8
            },
            "int": {
                "mod": -5
            },
            "str": {
                "mod": 10
            },
            "wis": {
                "mod": 7
            }
        },
        "attributes": {
            "ac": {
                "details": "",
                "value": 48
            },
            "allSaves": {
                "value": ""
            },
            "hp": {
                "details": "",
                "max": 430,
                "temp": 0,
                "value": 430
            },
            "initiative": {
                "ability": "perception"
            },
            "perception": {
                "value": 39
            },
            "shield": {
                "ac": 0,
                "brokenThreshold": 0,
                "hardness": 0,
                "max": 0,
                "value": 0
            },
            "speed": {
                "otherSpeeds": [],
                "value": "30"
            }
        },
        "details": {
            "alignment": {
                "value": "N"
            },
            "creatureType": "Construct",
            "flavorText": "<p>Created by Mengkare and powered by a shard of the <em>@Compendium[pf2e.equipment-srd.Orb of Dragonkind]{Orb of Gold Dragonkind}</em>, this construct is made of sculpted crystal draped in a beautiful gold filigree frame.</p>",
            "level": {
                "value": 22
            },
            "source": {
                "value": "Pathfinder #150: Broken Promises"
            }
        },
        "resources": {
            "focus": {
                "max": 1,
                "value": 1
            }
        },
        "saves": {
            "fortitude": {
                "saveDetail": "",
                "value": 39
            },
            "reflex": {
                "saveDetail": "",
                "value": 36
            },
            "will": {
                "saveDetail": "",
                "value": 33
            }
        },
        "traits": {
            "ci": [],
            "di": {
                "custom": "",
                "value": [
                    "bleed",
                    "death effects",
                    "disease",
                    "doomed",
                    "drained",
                    "fatigued",
                    "healing",
                    "mental",
                    "necromancy",
                    "nonlethal attacks",
                    "paralyzed",
                    "poison",
                    "sickened",
                    "unconscious"
                ]
            },
            "dr": [
                {
                    "exceptions": "",
                    "label": "Fire",
                    "type": "fire",
                    "value": "24"
                },
                {
                    "exceptions": "except bludgeoning adamantine",
                    "label": "Physical",
                    "type": "physical",
                    "value": "24"
                }
            ],
            "dv": [
                {
                    "label": "Sonic",
                    "type": "sonic",
                    "value": "24"
                }
            ],
            "languages": {
                "custom": "",
                "selected": [],
                "value": []
            },
            "rarity": {
                "value": "unique"
            },
            "senses": {
                "value": "darkvision, true seeing"
            },
            "size": {
                "value": "lg"
            },
            "traits": {
                "custom": "",
                "value": [
                    "construct"
                ]
            }
        }
    },
    "effects": [],
    "flags": {},
    "img": "systems/pf2e/icons/default-icons/npc.svg",
    "items": [
        {
            "_id": "MQvALn3TuAb3iI1B",
            "data": {
                "ability": {
                    "value": "cha"
                },
                "autoHeightenLevel": {
                    "value": null
                },
                "description": {
                    "value": ""
                },
                "displayLevels": {},
                "prepared": {
                    "value": "innate"
                },
                "proficiency": {
                    "value": 0
                },
                "rules": [],
                "showUnpreparedSpells": {
                    "value": true
                },
                "signatureSpells": {
                    "value": []
                },
                "slots": {
                    "slot0": {
                        "max": 0,
                        "prepared": [],
                        "value": 0
                    },
                    "slot1": {
                        "max": 0,
                        "prepared": [],
                        "value": 0
                    },
                    "slot10": {
                        "max": 0,
                        "prepared": [],
                        "value": 0
                    },
                    "slot11": {
                        "max": 0,
                        "prepared": [],
                        "value": 0
                    },
                    "slot2": {
                        "max": 0,
                        "prepared": [],
                        "value": 0
                    },
                    "slot3": {
                        "max": 0,
                        "prepared": [],
                        "value": 0
                    },
                    "slot4": {
                        "max": 0,
                        "prepared": [],
                        "value": 0
                    },
                    "slot5": {
                        "max": 0,
                        "prepared": [],
                        "value": 0
                    },
                    "slot6": {
                        "max": 0,
                        "prepared": [],
                        "value": 0
                    },
                    "slot7": {
                        "max": 0,
                        "prepared": [],
                        "value": 0
                    },
                    "slot8": {
                        "max": 0,
                        "prepared": [],
                        "value": 0
                    },
                    "slot9": {
                        "max": 0,
                        "prepared": [],
                        "value": 0
                    }
                },
                "slug": null,
                "source": {
                    "value": ""
                },
                "spelldc": {
                    "dc": 44,
                    "mod": 0,
                    "value": 36
                },
                "tradition": {
                    "value": "arcane"
                },
                "traits": {
                    "custom": "",
                    "rarity": {
                        "value": "common"
                    },
                    "value": []
                }
            },
            "effects": [],
            "flags": {},
            "img": "systems/pf2e/icons/default-icons/spellcastingEntry.svg",
            "name": "Innate Arcane Spells",
            "sort": 100000,
            "type": "spellcastingEntry"
        },
        {
            "_id": "Y4NlUcT2NJz7cDOb",
            "data": {
                "ability": {
                    "value": ""
                },
                "area": {
                    "areaType": "",
                    "value": null
                },
                "areasize": {
                    "value": ""
                },
                "autoHeightenLevel": {
                    "value": null
                },
                "category": {
                    "value": "spell"
                },
                "components": {
                    "material": false,
                    "somatic": true,
                    "verbal": true
                },
                "cost": {
                    "value": ""
                },
                "damage": {
                    "applyMod": false,
                    "value": ""
                },
                "damageType": {
                    "value": ""
                },
                "description": {
                    "value": "<p>You see things within 60 feet as they actually are. The GM rolls a secret counteract check against any illusion or transmutation in the area, but only for the purpose of determining whether you see through it (for instance, if the check succeeds against a polymorph spell, you can see the creature's true form, but you don't end the polymorph spell).</p>"
                },
                "duration": {
                    "value": "10 minutes"
                },
                "hasCounteractCheck": {
                    "value": true
                },
                "level": {
                    "value": 6
                },
                "location": {
                    "value": "MQvALn3TuAb3iI1B"
                },
                "materials": {
                    "value": ""
                },
                "prepared": {
                    "value": ""
                },
                "primarycheck": {
                    "value": ""
                },
                "range": {
                    "value": ""
                },
                "rules": [],
                "save": {
                    "basic": "",
                    "value": ""
                },
                "scaling": {
                    "formula": "",
                    "mode": "none"
                },
                "school": {
                    "value": "divination"
                },
                "secondarycasters": {
                    "value": ""
                },
                "secondarycheck": {
                    "value": ""
                },
                "slug": "true-seeing",
                "source": {
                    "value": ""
                },
                "spellType": {
                    "value": "utility"
                },
                "sustained": {
                    "value": false
                },
                "target": {
                    "value": ""
                },
                "time": {
                    "value": "2"
                },
                "traditions": {
                    "value": [
                        "arcane",
                        "divine",
                        "occult",
                        "primal"
                    ]
                },
                "traits": {
                    "custom": "",
                    "rarity": {
                        "value": "common"
                    },
                    "value": [
                        "divination",
                        "revelation"
                    ]
                }
            },
            "effects": [],
            "flags": {
                "core": {
                    "sourceId": "Compendium.pf2e.spells-srd.uqlxMQQeSGWEVjki"
                }
            },
            "img": "systems/pf2e/icons/spells/true-seeing.webp",
            "name": "True Seeing (constant)",
            "sort": 200000,
            "type": "spell"
        },
        {
            "_id": "5s7kaeGdKYRnxQlF",
            "data": {
                "attack": {
                    "value": ""
                },
                "attackEffects": {
                    "value": []
                },
                "bonus": {
                    "value": 41
                },
                "damageRolls": {
                    "hqc9zd9kq8vg56zveepa": {
                        "damage": "6d10+8",
                        "damageType": "piercing"
                    }
                },
                "description": {
                    "value": "<p>[[/r 2d10 #persistent bleed]] @Compendium[pf2e.conditionitems.Persistent Damage]{Persistent Bleed Damage}</p>"
                },
                "rules": [],
                "slug": null,
                "source": {
                    "value": ""
                },
                "traits": {
                    "custom": "",
                    "rarity": {
                        "value": "common"
                    },
                    "value": [
                        "magical",
                        "reach-15"
                    ]
                },
                "weaponType": {
                    "value": "melee"
                }
            },
            "effects": [],
            "flags": {},
            "img": "systems/pf2e/icons/default-icons/melee.svg",
            "name": "Jaws",
            "sort": 300000,
            "type": "melee"
        },
        {
            "_id": "T1sHFc7JoaRRC0iK",
            "data": {
                "attack": {
                    "value": ""
                },
                "attackEffects": {
                    "value": []
                },
                "bonus": {
                    "value": 41
                },
                "damageRolls": {
                    "yuct2pf8bdz098zngb2g": {
                        "damage": "9d6+8",
                        "damageType": "slashing"
                    }
                },
                "description": {
                    "value": ""
                },
                "rules": [],
                "slug": null,
                "source": {
                    "value": ""
                },
                "traits": {
                    "custom": "",
                    "rarity": {
                        "value": "common"
                    },
                    "value": [
                        "agile",
                        "magical",
                        "reach-10"
                    ]
                },
                "weaponType": {
                    "value": "melee"
                }
            },
            "effects": [],
            "flags": {},
            "img": "systems/pf2e/icons/default-icons/melee.svg",
            "name": "Claw",
            "sort": 400000,
            "type": "melee"
        },
        {
            "_id": "3Evl5c2LrCI0TdM8",
            "data": {
                "actionCategory": {
                    "value": "interaction"
                },
                "actionType": {
                    "value": "passive"
                },
                "actions": {
                    "value": ""
                },
                "description": {
                    "value": "<p>A monster with darkvision can see perfectly well in areas of darkness and dim light, though such vision is in black and white only. Some forms of magical darkness, such as a 4th-level @Compendium[pf2e.spells-srd.Darkness]{Darkness} spell, block normal darkvision. A monster with @Compendium[pf2e.bestiary-ability-glossary-srd.Greater Darkvision]{Greater Darkvision}, however, can see through even these forms of magical darkness.</p>"
                },
                "requirements": {
                    "value": ""
                },
                "rules": [],
                "slug": "darkvision",
                "source": {
                    "value": ""
                },
                "traits": {
                    "custom": "",
                    "rarity": {
                        "value": "common"
                    },
                    "value": []
                },
                "trigger": {
                    "value": ""
                },
                "weapon": {
                    "value": ""
                }
            },
            "effects": [],
            "flags": {
                "core": {
                    "sourceId": "Compendium.pf2e.bestiary-ability-glossary-srd.qCCLZhnp2HhP3Ex6"
                }
            },
            "img": "systems/pf2e/icons/default-icons/action.svg",
            "name": "Darkvision",
            "sort": 500000,
            "type": "action"
        },
        {
            "_id": "v8QaZXPq7Yj9K2v1",
            "data": {
                "actionCategory": {
                    "value": "interaction"
                },
                "actionType": {
                    "value": "passive"
                },
                "actions": {
                    "value": ""
                },
                "description": {
                    "value": "<p>A constant spell affects the monster without the monster needing to cast it, and its duration is unlimited. If a constant spell gets counteracted, the monster can reactivate it by spending the normal spellcasting actions the spell requires.</p>"
                },
                "requirements": {
                    "value": ""
                },
                "rules": [],
                "slug": "constant-spells",
                "source": {
                    "value": ""
                },
                "traits": {
                    "custom": "",
                    "rarity": {
                        "value": "common"
                    },
                    "value": []
                },
                "trigger": {
                    "value": ""
                },
                "weapon": {
                    "value": ""
                }
            },
            "effects": [],
            "flags": {
                "core": {
                    "sourceId": "Compendium.pf2e.bestiary-ability-glossary-srd.kakyXBG5WA8c6Zfd"
                }
            },
            "img": "systems/pf2e/icons/default-icons/action.svg",
            "name": "Constant Spells",
            "sort": 600000,
            "type": "action"
        },
        {
            "_id": "hPc0H3LlS5oAeiST",
            "data": {
                "actionCategory": {
                    "value": "defensive"
                },
                "actionType": {
                    "value": "passive"
                },
                "actions": {
                    "value": ""
                },
                "description": {
                    "value": "<p>@Compendium[pf2e.bestiary-ability-glossary-srd.Aura]{Aura} 90 feet, <span data-pf2-check=\"will\" data-pf2-traits=\"aura,emotion,fear,mental\" data-pf2-label=\"Frightening Presence DC\" data-pf2-dc=\"42\" data-pf2-show-dc=\"gm\">will</span> save</p>\n<hr />\n<p>A creature that first enters the area must attempt a Will save.<span data-visibility=\"gm\"> Regardless of the result of the saving throw, the creature is temporarily immune to this monster's Frightful Presence for 1 minute.</span></p>\n<div data-visibility=\"gm\">\n<p><strong>Critical Success</strong> The creature is unaffected by the presence.</p>\n<p><strong>Success</strong> The creature is @Compendium[pf2e.conditionitems.Frightened]{Frightened 1}.</p>\n<p><strong>Failure</strong> The creature is @Compendium[pf2e.conditionitems.Frightened]{Frightened 2}.</p>\n<p><strong>Critical Failure</strong> The creature is @Compendium[pf2e.conditionitems.Frightened]{Frightened 4}.</p>\n</div>"
                },
                "requirements": {
                    "value": ""
                },
                "rules": [],
                "slug": "frightful-presence",
                "source": {
                    "value": ""
                },
                "traits": {
                    "custom": "",
                    "rarity": {
                        "value": "common"
                    },
                    "value": [
                        "aura",
                        "emotion",
                        "fear",
                        "mental"
                    ]
                },
                "trigger": {
                    "value": ""
                },
                "weapon": {
                    "value": ""
                }
            },
            "effects": [],
            "flags": {
                "core": {
                    "sourceId": "Compendium.pf2e.bestiary-ability-glossary-srd.etMnv73EIdEZrYYu"
                }
            },
            "img": "systems/pf2e/icons/actions/Passive.webp",
            "name": "Frightful Presence",
            "sort": 700000,
            "type": "action"
        },
        {
            "_id": "DyilSr4hYYAgoPFF",
            "data": {
                "actionCategory": {
                    "value": "offensive"
                },
                "actionType": {
                    "value": "reaction"
                },
                "actions": {
                    "value": ""
                },
                "description": {
                    "value": "<p><strong>Trigger</strong> The dragonshard guardian takes cold, fire, electricity, or sonic damage from a non–dragonshard guardian source;</p>\n<p><strong>Effect</strong> The dragonshard guardian's body absorbs the energy entirely, preventing the damage from harming the construct. Its body reverberates and transforms the absorbed energy before projecting it outward in a 60-foot burst.</p>\n<p>Each creature within the burst takes an amount of fire damage equal to the amount of energy damage absorbed by the triggering attack, including any damage resisted by the guardian's resistances and additional damage from its weakness (<span data-pf2-check=\"reflex\" data-pf2-traits=\"damaging-effect,arcane,fire\" data-pf2-label=\"Reverberating Revenge DC\" data-pf2-dc=\"45\" data-pf2-show-dc=\"gm\">basic Reflex</span> save).</p>\n<p>This fire damage doesn't harm objects or constructs.</p>"
                },
                "requirements": {
                    "value": ""
                },
                "rules": [],
                "slug": null,
                "source": {
                    "value": ""
                },
                "traits": {
                    "custom": "",
                    "rarity": {
                        "value": "common"
                    },
                    "value": [
                        "arcane",
                        "fire"
                    ]
                },
                "trigger": {
                    "value": ""
                },
                "weapon": {
                    "value": ""
                }
            },
            "effects": [],
            "flags": {},
            "img": "systems/pf2e/icons/actions/Reaction.webp",
            "name": "Reverberating Revenge",
            "sort": 800000,
            "type": "action"
        },
        {
            "_id": "b9ku7PIEzSu9iFAq",
            "data": {
                "actionCategory": {
                    "value": "offensive"
                },
                "actionType": {
                    "value": "action"
                },
                "actions": {
                    "value": "2"
                },
                "description": {
                    "value": "<div data-visibility=\"gm\">\n<p>The construct breathes in one of two ways, then can't use Breath Weapon again for [[/br 1d4 #rounds]]{1d4 rounds}.</p>\n</div><p>- Flame (arcane, evocation, fire) A blast of flame deals [[/r 15d10 #fire]]{15d10 fire damage} to all creatures in a 60-foot cone (<span data-pf2-check=\"reflex\" data-pf2-traits=\"damaging-effect,arcane, evocation, fire\" data-pf2-label=\"Breath Weapon DC\" data-pf2-dc=\"45\" data-pf2-show-dc=\"gm\">basic Reflex</span> save). This fire damage does not harm objects or constructs.</p>\n<p>- Weakening Gas (arcane, necromancy) A cloud of gold-flecked gas forces each creature in a 60-foot cone to attempt a <span data-pf2-check=\"fortitude\" data-pf2-traits=\"arcane, necromancy\" data-pf2-label=\"Breath Weapon DC\" data-pf2-dc=\"45\" data-pf2-show-dc=\"gm\">Fortitude</span> save; the effect lasts 1 minute.</p>\n<div data-visibility=\"gm\">\n<hr />\n<p><strong>Critical Success</strong> The creature is unaffected.</p>\n<p><strong>Success</strong> The creature is @Compendium[pf2e.conditionitems.Enfeebled]{Enfeebled 2}.</p>\n<p><strong>Failure</strong> The creature is @Compendium[pf2e.conditionitems.Enfeebled]{Enfeebled 5}.</p>\n<p><strong>Critical Failure</strong> The creature is @Compendium[pf2e.conditionitems.Enfeebled]{Enfeebled 8}.</p>\n</div>"
                },
                "requirements": {
                    "value": ""
                },
                "rules": [],
                "slug": null,
                "source": {
                    "value": ""
                },
                "traits": {
                    "custom": "",
                    "rarity": {
                        "value": "common"
                    },
                    "value": [
                        "arcane",
                        "evocation",
                        "fire",
                        "necromancy"
                    ]
                },
                "trigger": {
                    "value": ""
                },
                "weapon": {
                    "value": ""
                }
            },
            "effects": [],
            "flags": {},
            "img": "systems/pf2e/icons/actions/TwoActions.webp",
            "name": "Breath Weapon",
            "sort": 900000,
            "type": "action"
        },
        {
            "_id": "md14DazyIAqaWBL2",
            "data": {
                "description": {
                    "value": ""
                },
                "item": {
                    "value": 0
                },
                "mod": {
                    "value": 30
                },
                "proficient": {
                    "value": 0
                },
                "rules": [],
                "slug": null,
                "source": {
                    "value": ""
                },
                "traits": {
                    "custom": "",
                    "rarity": {
                        "value": "common"
                    },
                    "value": []
                }
            },
            "effects": [],
            "flags": {},
            "img": "systems/pf2e/icons/default-icons/lore.svg",
            "name": "Arcana",
            "sort": 1000000,
            "type": "lore"
        }
    ],
    "name": "Dragonshard Guardian",
    "token": {
        "disposition": -1,
        "height": 2,
        "img": "systems/pf2e/icons/default-icons/npc.svg",
        "name": "Dragonshard Guardian",
        "width": 2
    },
    "type": "npc"
}
