{
    "_id": "scPhFbBqlmD2fQHa",
    "data": {
        "abilities": {
            "cha": {
                "mod": 2
            },
            "con": {
                "mod": 4
            },
            "dex": {
                "mod": 5
            },
            "int": {
                "mod": 1
            },
            "str": {
                "mod": 6
            },
            "wis": {
                "mod": 1
            }
        },
        "attributes": {
            "ac": {
                "details": "",
                "value": 33
            },
            "allSaves": {
                "value": "+1 status to all saves vs. magic"
            },
            "hp": {
                "details": "regeneration 20 ",
                "max": 210,
                "temp": 0,
                "value": 210
            },
            "initiative": {
                "ability": "perception"
            },
            "perception": {
                "value": 24
            },
            "shield": {
                "ac": 0,
                "brokenThreshold": 0,
                "hardness": 0,
                "max": 0,
                "value": 0
            },
            "speed": {
                "otherSpeeds": [],
                "value": "25 feet"
            }
        },
        "details": {
            "alignment": {
                "value": "NE"
            },
            "creatureType": "Undead",
            "flavorText": "Not all would-be dragonslayers who die a valiant death rest peacefully amid the annals of legend. Sometimes, a draconic necromancer is so impressed by its fallen foe that the dragon ritually raises the dead warrior to serve the dragon in undeath. These undead guardians are infused with a fraction of the power of the dragon who slew them, channeling the same energy as their draconic masters' breath.<br />Dragonscarred dead are similar to skeletal champions or graveknights in that they are not merely reanimated servants who mindlessly follow orders, but are instead powerful wardens who maintain the same agency they bore in life. While a dragonscarred dead is often magically compelled to follow its reanimator's commands, some of these undead dragonslayers manage to escape their masters and pursue their own vile agendas-which may involve rallying allies to challenge their draconic creator once more and finish the dire mission they started in life.</br>",
            "level": {
                "value": 13
            },
            "source": {
                "value": "Pathfinder #148: Fires of the Haunted City"
            }
        },
        "resources": {},
        "saves": {
            "fortitude": {
                "saveDetail": "",
                "value": 25
            },
            "reflex": {
                "saveDetail": "",
                "value": 20
            },
            "will": {
                "saveDetail": "",
                "value": 22
            }
        },
        "traits": {
            "ci": [],
            "di": {
                "custom": "",
                "value": [
                    "death effects",
                    "disease",
                    "fire",
                    "paralyzed",
                    "poison",
                    "unconscious"
                ]
            },
            "dr": [],
            "dv": [
                {
                    "label": "Cold",
                    "type": "cold",
                    "value": "10"
                },
                {
                    "label": "Good",
                    "type": "good",
                    "value": "10"
                }
            ],
            "languages": {
                "custom": "",
                "selected": [],
                "value": [
                    "common",
                    "draconic",
                    "necril"
                ]
            },
            "rarity": {
                "value": "uncommon"
            },
            "senses": {
                "value": "darkvision, guardian sense"
            },
            "size": {
                "value": "med"
            },
            "traits": {
                "custom": "",
                "value": [
                    "fire",
                    "undead"
                ]
            }
        }
    },
    "effects": [],
    "flags": {},
    "img": "systems/pf2e/icons/default-icons/npc.svg",
    "items": [
        {
            "_id": "DMWe9k2Ek2SFNpuq",
            "data": {
                "baseItem": null,
                "brokenThreshold": {
                    "value": 0
                },
                "bulkCapacity": {
                    "value": ""
                },
                "collapsed": {
                    "value": false
                },
                "containerId": {
                    "value": ""
                },
                "description": {
                    "value": ""
                },
                "equipped": {
                    "value": false
                },
                "equippedBulk": {
                    "value": ""
                },
                "hardness": {
                    "value": 0
                },
                "hp": {
                    "value": 0
                },
                "identification": {
                    "misidentified": {},
                    "status": "identified",
                    "unidentified": {
                        "data": {
                            "description": {
                                "value": ""
                            }
                        },
                        "img": "",
                        "name": ""
                    }
                },
                "invested": {
                    "value": false
                },
                "level": {
                    "value": 0
                },
                "maxHp": {
                    "value": 0
                },
                "negateBulk": {
                    "value": "0"
                },
                "preciousMaterial": {
                    "value": ""
                },
                "preciousMaterialGrade": {
                    "value": ""
                },
                "price": {
                    "value": "0 gp"
                },
                "quantity": {
                    "value": 1
                },
                "rules": [],
                "size": {
                    "value": "med"
                },
                "slug": null,
                "source": {
                    "value": ""
                },
                "stackGroup": {
                    "value": ""
                },
                "traits": {
                    "custom": "",
                    "rarity": {
                        "value": "common"
                    },
                    "value": []
                },
                "usage": {
                    "value": "held-in-one-hand"
                },
                "weight": {
                    "value": 0
                }
            },
            "effects": [],
            "flags": {},
            "img": "systems/pf2e/icons/default-icons/equipment.svg",
            "name": "broken greatsword",
            "sort": 100000,
            "type": "equipment"
        },
        {
            "_id": "bD1gctOA2Ni82NSM",
            "data": {
                "attack": {
                    "value": ""
                },
                "attackEffects": {
                    "value": []
                },
                "bonus": {
                    "value": 27
                },
                "damageRolls": {
                    "tyuzt95zhvdfb06uadpw": {
                        "damage": "1d12+9",
                        "damageType": "slashing"
                    },
                    "mq6lzbondtqh0k4qjcji": {
                        "damage": "2d6",
                        "damageType": "negative"
                    },
                    "fgmrdwjorb6klds07t9t": {
                        "damage": "3d6",
                        "damageType": "fire"
                    }
                },
                "description": {
                    "value": ""
                },
                "rules": [],
                "slug": null,
                "source": {
                    "value": ""
                },
                "traits": {
                    "custom": "",
                    "rarity": {
                        "value": "common"
                    },
                    "value": [
                        "magical",
                        "versatile P"
                    ]
                },
                "weaponType": {
                    "value": "melee"
                }
            },
            "effects": [],
            "flags": {},
            "img": "systems/pf2e/icons/default-icons/melee.svg",
            "name": "Breath-seared Greatsword",
            "sort": 200000,
            "type": "melee"
        },
        {
            "_id": "l69fOTyMIBdJNWTY",
            "data": {
                "actionCategory": {
                    "value": "interaction"
                },
                "actionType": {
                    "value": "passive"
                },
                "actions": {
                    "value": ""
                },
                "description": {
                    "value": "<p>The dragonscarred dead is immediately aware of any intruder that enters the lair of its creator dragon. It does not know the exact location of the intruder but remains aware of the intruder's presence until the intruder either leaves or is destroyed.</p>"
                },
                "requirements": {
                    "value": ""
                },
                "rules": [],
                "slug": null,
                "source": {
                    "value": ""
                },
                "traits": {
                    "custom": "",
                    "rarity": {
                        "value": "common"
                    },
                    "value": [
                        "arcane",
                        "detection",
                        "divination"
                    ]
                },
                "trigger": {
                    "value": ""
                },
                "weapon": {
                    "value": ""
                }
            },
            "effects": [],
            "flags": {},
            "img": "systems/pf2e/icons/default-icons/action.svg",
            "name": "Guardian Sense",
            "sort": 300000,
            "type": "action"
        },
        {
            "_id": "4F44yeZmuOFxMjya",
            "data": {
                "actionCategory": {
                    "value": "defensive"
                },
                "actionType": {
                    "value": "passive"
                },
                "actions": {
                    "value": ""
                },
                "description": {
                    "value": "<p>60 feet, DC 29<br /> 60 feet, DC 29. A creature that first enters the area must attempt a Will save. Regardless of the result of the saving throw, the creature is temporarily immune to this monster's Frightful Presence for 1 minute.<br /><br /> <strong>Critical Success</strong> The creature is unaffected by the presence.<br /> <strong>Success</strong> The creature is @Compendium[pf2e.conditionitems.Frightened]{Frightened} 1.<br /> <strong>Failure</strong> The creature is @Compendium[pf2e.conditionitems.Frightened]{Frightened} 2.<br /> <strong>Critical Failure</strong> The creature is @Compendium[pf2e.conditionitems.Frightened]{Frightened} 4.</p>"
                },
                "requirements": {
                    "value": ""
                },
                "rules": [],
                "slug": null,
                "source": {
                    "value": ""
                },
                "traits": {
                    "custom": "",
                    "rarity": {
                        "value": "common"
                    },
                    "value": [
                        "aura",
                        "emotion",
                        "fear",
                        "mental"
                    ]
                },
                "trigger": {
                    "value": ""
                },
                "weapon": {
                    "value": ""
                }
            },
            "effects": [],
            "flags": {},
            "img": "systems/pf2e/icons/default-icons/action.svg",
            "name": "Frightful Presence",
            "sort": 400000,
            "type": "action"
        },
        {
            "_id": "4K4yW5oQfO6cRjez",
            "data": {
                "actionCategory": {
                    "value": "offensive"
                },
                "actionType": {
                    "value": "passive"
                },
                "actions": {
                    "value": ""
                },
                "description": {
                    "value": "<p>The dragonscarred dead's weapon is magically scorched by a dragon's breath. When wielded by the dragonscarred dead who carried it in life, the sword deals an extra [[/r 2d6 #negative]]{2d6 negative damage} and [[/r 3d6 #fire]]{3d6 fire damage}. In the hands of any other creature, it is merely a broken greatsword.</p>"
                },
                "requirements": {
                    "value": ""
                },
                "rules": [],
                "slug": null,
                "source": {
                    "value": ""
                },
                "traits": {
                    "custom": "",
                    "rarity": {
                        "value": "common"
                    },
                    "value": []
                },
                "trigger": {
                    "value": ""
                },
                "weapon": {
                    "value": ""
                }
            },
            "effects": [],
            "flags": {},
            "img": "systems/pf2e/icons/actions/Passive.webp",
            "name": "Breath-Seared Sword",
            "sort": 500000,
            "type": "action"
        },
        {
            "_id": "KOEGii7EkPZsq9Iz",
            "data": {
                "actionCategory": {
                    "value": "offensive"
                },
                "actionType": {
                    "value": "action"
                },
                "actions": {
                    "value": 2
                },
                "description": {
                    "value": "<p>The dragonscarred dead focuses its boundless frustration in a gaze targeting one creature it can see within 30 feet. That creature must attempt a <span data-pf2-check=\"will\" data-pf2-dc=\"30\" data-pf2-traits=\"arcane,enchantment,mental,visual\" data-pf2-label=\"Glare of Rage DC\" data-pf2-show-dc=\"gm\">Will</span> save.<br /><br /> <strong>Critical Success</strong> The creature is unaffected.<br /> <strong>Success</strong> The creature is @Compendium[pf2e.conditionitems.Stunned]{Stunned} 1.<br /> <strong>Failure</strong> The creature is @Compendium[pf2e.conditionitems.Stunned]{Stunned}.<br /> <strong>Critical Failure</strong> The creature is stunned for [[/br 1d4 #rounds]]{1d4 rounds} and is fatigued.</p>"
                },
                "requirements": {
                    "value": ""
                },
                "rules": [],
                "slug": null,
                "source": {
                    "value": ""
                },
                "traits": {
                    "custom": "",
                    "rarity": {
                        "value": "common"
                    },
                    "value": [
                        "arcane",
                        "enchantment",
                        "mental",
                        "visual"
                    ]
                },
                "trigger": {
                    "value": ""
                },
                "weapon": {
                    "value": ""
                }
            },
            "effects": [],
            "flags": {},
            "img": "systems/pf2e/icons/default-icons/action.svg",
            "name": "Glare of Rage",
            "sort": 600000,
            "type": "action"
        },
        {
            "_id": "MW5hsPalo9ZD2L0v",
            "data": {
                "description": {
                    "value": ""
                },
                "item": {
                    "value": 0
                },
                "mod": {
                    "value": 25
                },
                "proficient": {
                    "value": 0
                },
                "rules": [],
                "slug": null,
                "source": {
                    "value": ""
                },
                "traits": {
                    "custom": "",
                    "rarity": {
                        "value": "common"
                    },
                    "value": []
                }
            },
            "effects": [],
            "flags": {},
            "img": "systems/pf2e/icons/default-icons/lore.svg",
            "name": "Athletics",
            "sort": 700000,
            "type": "lore"
        },
        {
            "_id": "YlxLNSbifo76lEgK",
            "data": {
                "description": {
                    "value": ""
                },
                "item": {
                    "value": 0
                },
                "mod": {
                    "value": 22
                },
                "proficient": {
                    "value": 0
                },
                "rules": [],
                "slug": null,
                "source": {
                    "value": ""
                },
                "traits": {
                    "custom": "",
                    "rarity": {
                        "value": "common"
                    },
                    "value": []
                }
            },
            "effects": [],
            "flags": {},
            "img": "systems/pf2e/icons/default-icons/lore.svg",
            "name": "Draconic Lore",
            "sort": 800000,
            "type": "lore"
        },
        {
            "_id": "ETXwJoV7RmyqLues",
            "data": {
                "description": {
                    "value": ""
                },
                "item": {
                    "value": 0
                },
                "mod": {
                    "value": 21
                },
                "proficient": {
                    "value": 0
                },
                "rules": [],
                "slug": null,
                "source": {
                    "value": ""
                },
                "traits": {
                    "custom": "",
                    "rarity": {
                        "value": "common"
                    },
                    "value": []
                }
            },
            "effects": [],
            "flags": {},
            "img": "systems/pf2e/icons/default-icons/lore.svg",
            "name": "Intimidation",
            "sort": 900000,
            "type": "lore"
        }
    ],
    "name": "Dragonscarred Dead",
    "token": {
        "disposition": -1,
        "height": 1,
        "img": "systems/pf2e/icons/default-icons/npc.svg",
        "name": "Dragonscarred Dead",
        "width": 1
    },
    "type": "npc"
}
