{
    "_id": "8w6esW689NNbbq3i",
    "data": {
        "actionCategory": {
            "value": ""
        },
        "actionType": {
            "value": "reaction"
        },
        "actions": {
            "value": ""
        },
        "description": {
            "value": "<p><strong>Trigger</strong> You attempt a saving throw against a magical effect, but you haven't rolled yet</p>\n<hr />\n<p>Your ancestors' innate resistance to magic surges, before slowly ebbing down. You gain a +1 circumstance bonus to the triggering saving throw and until the end of this turn.</p>"
        },
        "requirements": {
            "value": ""
        },
        "rules": [],
        "source": {
            "value": ""
        },
        "traits": {
            "custom": "",
            "rarity": {
                "value": "common"
            },
            "value": []
        },
        "trigger": {
            "value": ""
        },
        "weapon": {
            "value": ""
        }
    },
    "effects": [],
    "flags": {},
    "img": "systems/pf2e/icons/actions/Reaction.webp",
    "name": "Call on Ancient Blood",
    "type": "action"
}
