{
    "_id": "34E7k2YRcsOU5uyl",
    "data": {
        "actionCategory": {
            "value": ""
        },
        "actionType": {
            "value": "action"
        },
        "actions": {
            "value": ""
        },
        "description": {
            "value": "<p>You change into your human or spider shape. Each shape has a specific, persistent appearance.</p>\n<p>In your human shape, you can't use unarmed attacks granted by your ancestry. You aren't flat footed when climbing in your spider shape.</p>\n<p>However, in your spider shape you can't use weapons, shields, or other held items of any sort, and you are limited in what actions you can take that have the manipulate trait. The only manipulate actions you can take are to @Compendium[pf2e.actionspf2e.Cast a Spell]{Cast a Spell}with somatic components, weave silk or webbing, or simple @Compendium[pf2e.actionspf2e.Interact]{Interact} actions such as opening an unlocked door. Your spider legs can't perform actions that require fingers or significant manual dexterity, including any action that would require a check to accomplish. The GM might determine other manipulate actions are appropriate for your spider legs.</p>"
        },
        "requirements": {
            "value": ""
        },
        "rules": [],
        "source": {
            "value": ""
        },
        "traits": {
            "custom": "",
            "rarity": {
                "value": "common"
            },
            "value": [
                "anadi",
                "arcane",
                "concentrate",
                "polymorph",
                "transmutation"
            ]
        },
        "trigger": {
            "value": ""
        },
        "weapon": {
            "value": ""
        }
    },
    "effects": [],
    "flags": {},
    "img": "systems/pf2e/icons/actions/OneAction.webp",
    "name": "Change Shape (Anadi)",
    "type": "action"
}
