{
    "_id": "Ah5g9pDwWF9b9VW9",
    "data": {
        "actionCategory": {
            "value": "offensive"
        },
        "actionType": {
            "value": "action"
        },
        "actions": {
            "value": "1"
        },
        "description": {
            "value": "<p><strong>Requirements</strong> You aren't @Compendium[pf2e.conditionitems.Fatigued]{Fatigued} or raging</p>\n<hr />\n<p>You tap into your inner fury and begin raging. You gain a number of temporary Hit Points equal to your level plus your Constitution modifier. This frenzy lasts for 1 minute, until there are no enemies you can perceive, or until you fall @Compendium[pf2e.conditionitems.Unconscious]{Unconscious}, whichever comes first. You can't voluntarily stop raging. While you are raging:</p>\n<ul>\n<li>You deal 2 additional damage with melee weapons and unarmed attacks. This additional damage is halved if your weapon or unarmed attack is agile.</li>\n<li>You take a -1 penalty to AC.</li>\n<li>You can't use actions with the concentrate trait unless they also have the rage trait. You can @Compendium[pf2e.actionspf2e.Seek]{Seek} while raging.</li>\n</ul>\n<p>After you stop raging, you lose any remaining temporary Hit Points from Rage, and you can't Rage again for 1 minute.</p>"
        },
        "requirements": {
            "value": ""
        },
        "rules": [],
        "source": {
            "value": ""
        },
        "traits": {
            "custom": "",
            "rarity": {
                "value": "common"
            },
            "value": [
                "concentrate",
                "barbarian",
                "emotion",
                "mental"
            ]
        },
        "trigger": {
            "value": ""
        },
        "weapon": {
            "value": ""
        }
    },
    "effects": [],
    "flags": {},
    "img": "systems/pf2e/icons/actions/OneAction.webp",
    "name": "Rage",
    "type": "action"
}
