{
    "_id": "F0JgJR2rXKOg9k1z",
    "data": {
        "actionCategory": {
            "value": "defensive"
        },
        "actionType": {
            "value": "reaction"
        },
        "actions": {
            "value": ""
        },
        "description": {
            "value": "<p><strong>Trigger</strong> A foe attempts a skill check and doesn't get a critical success</p>\n<hr />\n<p>After your foe has tried their best, you show everyone how it's really done. Attempt a check using the same skill that triggered this reaction.</p>\n<hr />\n<p><strong>Critical Success</strong> You gain a +1 status bonus to attack rolls, Perception checks, saving throws, and skill checks until the end of your next turn.</p>\n<p><strong>Success</strong> As critical success, except you gain the benefits only if the triggering creature failed their skill check.</p>"
        },
        "requirements": {
            "value": ""
        },
        "rules": [],
        "source": {
            "value": ""
        },
        "traits": {
            "custom": "",
            "rarity": {
                "value": "common"
            },
            "value": []
        },
        "trigger": {
            "value": ""
        },
        "weapon": {
            "value": ""
        }
    },
    "effects": [],
    "flags": {},
    "img": "systems/pf2e/icons/actions/Reaction.webp",
    "name": "Upstage",
    "type": "action"
}
