{
    "_id": "UzSrsR9S2pgMDbbp",
    "data": {
        "description": {
            "value": "<p><span style=\"color: #191813; font-family: Roboto, system, -apple-system, sans-serif; font-size: 13px;\">The cape becomes a pair of golden drake wings that grant you a fly Speed of 30 feet for 1 hour.</span></p>"
        },
        "duration": {
            "expiry": "turn-end",
            "sustained": false,
            "unit": "hours",
            "value": 1
        },
        "level": {
            "value": 1
        },
        "rules": [
            {
                "key": "PF2E.RuleElement.BaseSpeed",
                "selector": "fly",
                "value": 30
            }
        ],
        "source": {
            "value": ""
        },
        "start": {
            "initiative": null,
            "value": 0
        },
        "target": null,
        "tokenIcon": {
            "show": true
        },
        "traits": {
            "custom": "",
            "rarity": {
                "value": "common"
            },
            "value": []
        }
    },
    "effects": [],
    "flags": {},
    "img": "systems/pf2e/icons/equipment/worn-items/other-worn-items/cape-of-the-mountebank.webp",
    "name": "Effect: Cape of the Open Sky",
    "type": "effect"
}
