{
    "_id": "hCHAr6Mp0AxSxj3h",
    "data": {
        "attributes": {
            "ac": {
                "value": 10
            },
            "hardness": 0,
            "hasHealth": true,
            "hp": {
                "details": "",
                "max": 0,
                "temp": 0,
                "value": 0
            },
            "stealth": {
                "details": "<p>(trained)</p>",
                "value": 22
            }
        },
        "creatureType": "",
        "details": {
            "description": "<p>A monk's tormented spirit attacks intruders.</p>",
            "disable": "<p><span data-pf2-check=\"irori-lore\" data-pf2-traits=\"haunt\" data-pf2-label=\"Restore the Prayer Items DC\" data-pf2-dc=\"32\" data-pf2-show-dc=\"gm\">Irori Lore</span> (trained) to clean the room and return the prayer items to their proper arrangement, <span data-pf2-check=\"religion\" data-pf2-label=\"Iroran Prayer of Peace DC\" data-pf2-dc=\"37\" data-pf2-show-dc=\"gm\">Religion</span> (expert) to state an Iroran prayer of peace and put the haunt to rest, or <span data-pf2-check=\"occultism\" data-pf2-label=\"Create a Ward Against Future Hauntings DC\" data-pf2-dc=\"40\" data-pf2-show-dc=\"gm\">Occultism</span> (master) to create a ward against future hauntings</p>",
            "isComplex": false,
            "level": {
                "value": 13
            },
            "reset": "<p>The haunt re-forms after 1 hour. The haunt becomes disabled and doesn't re-form if a creature lights all of the candles in the room and offers a prayer to Irori.</p>",
            "routine": ""
        },
        "saves": {
            "fortitude": {
                "saveDetail": "",
                "value": 0
            },
            "reflex": {
                "saveDetail": "",
                "value": 0
            },
            "will": {
                "saveDetail": "",
                "value": 0
            }
        },
        "source": {
            "value": "Pathfinder #166: Despair on Danger Island"
        },
        "statusEffects": [],
        "traits": {
            "ci": [],
            "di": {
                "custom": "",
                "selected": {},
                "value": []
            },
            "dr": [],
            "dv": [],
            "rarity": {
                "value": "common"
            },
            "size": {
                "value": "med"
            },
            "traits": {
                "custom": "",
                "value": [
                    "haunt"
                ]
            }
        }
    },
    "effects": [],
    "flags": {},
    "img": "systems/pf2e/icons/default-icons/hazard.svg",
    "items": [
        {
            "_id": "vOiHInRhZ9Bv0oQq",
            "data": {
                "actionCategory": {
                    "value": "offensive"
                },
                "actionType": {
                    "value": "reaction"
                },
                "actions": {
                    "value": ""
                },
                "description": {
                    "value": "<p><strong>Trigger</strong> A creature enters the prayer room.</p>\n<p><strong>Effect</strong> The abbot's spirit appears and begins to channel powerful ki energy. One round later, the room fills with a powerful kinetic storm, dealing [[/r 3d10+15 #electricity]]{3d10+15 electricity damage} and [[/r 3d10+15 #force]]{3d10+15 force damage} to all creatures in the room. Creatures in the room must attempt a <span data-pf2-check=\"reflex\" data-pf2-traits=\"haunt\" data-pf2-label=\"\" data-pf2-dc=\"37\" data-pf2-show-dc=\"gm\">Reflex</span> save.</p>\n<hr />\n<p><strong>Critical Success</strong> The creature is unaffected.</p>\n<p><strong>Success</strong> The creature takes half damage.</p>\n<p><strong>Failure</strong> The creature takes full damage and becomes @Compendium[pf2e.conditionitems.Deafened]{Deafened} for 1 round.</p>\n<p><strong>Critical Failure</strong> The creature takes full damage, [[/r 2d8 #persistent electricity]] @Compendium[pf2e.conditionitems.Persistent Damage]{Persistent Electricity Damage}, and becomes deafened for 1 minute.</p>"
                },
                "requirements": {
                    "value": ""
                },
                "rules": [],
                "slug": null,
                "source": {
                    "value": ""
                },
                "traits": {
                    "custom": "",
                    "rarity": {
                        "value": "common"
                    },
                    "value": []
                },
                "trigger": {
                    "value": ""
                },
                "weapon": {
                    "value": ""
                }
            },
            "effects": [],
            "flags": {},
            "img": "systems/pf2e/icons/actions/Reaction.webp",
            "name": "Ki Storm",
            "sort": 0,
            "type": "action"
        }
    ],
    "name": "Wronged Monk's Wrath",
    "token": {
        "disposition": 0,
        "height": 1,
        "img": "systems/pf2e/icons/default-icons/hazard.svg",
        "name": "Wronged Monk's Wrath",
        "width": 1
    },
    "type": "hazard"
}
