{
    "_id": "vpw2ReYdcyQBpdqn",
    "data": {
        "description": {
            "value": "<p>Increase the familiar's swim Speed from 25 feet to 40 feet.</p>"
        },
        "duration": {
            "expiry": "turn-start",
            "sustained": false,
            "unit": "unlimited",
            "value": -1
        },
        "level": {
            "value": 1
        },
        "rules": [
            {
                "key": "PF2E.RuleElement.FlatModifier",
                "selector": "swim-speed",
                "value": 15
            }
        ],
        "source": {
            "value": ""
        },
        "start": {
            "initiative": null,
            "value": 0
        },
        "target": null,
        "tokenIcon": {
            "show": false
        },
        "traits": {
            "custom": "",
            "rarity": {
                "value": "common"
            },
            "value": []
        }
    },
    "effects": [],
    "flags": {},
    "img": "systems/pf2e/icons/default-icons/mystery-man.svg",
    "name": "Fast Movement: Swim",
    "type": "effect"
}
