{
    "_id": "ILF7Azqi2TM6ktl9",
    "data": {
        "attributes": {
            "ac": {
                "value": 28
            },
            "hardness": 16,
            "hasHealth": true,
            "hp": {
                "details": "",
                "max": 10,
                "temp": 0,
                "tempmax": 0,
                "value": 64
            },
            "stealth": {
                "details": "(expert) or DC 29 (expert) to spot the control panel",
                "value": 17
            }
        },
        "creatureType": "",
        "details": {
            "description": "Five scroll symbols shoot electricity bolts around the room.",
            "disable": "<p>Thievery DC 25 (expert) or @Compendium[pf2e.spells-srd.Dispel Magic]{Dispel Magic} (3rd level; counteract DC 24);</p>\n<p>Thievery DC 29 (master) to disable the entire trap from the hidden control panel beneath the central slab.</p>",
            "isComplex": true,
            "level": {
                "value": 9
            },
            "reset": "The trap deactivates 1 round after it has no target ncreatures and resets after 1 minute.",
            "routine": "<p>(5 actions) Each disabled symbol reduces the trap's number of actions by 1.</p>\n<p>For each of its actions, a different symbol shoots an electricity bolt at a random creature in the room. The trap doesn't take multiple attack penalties.</p>"
        },
        "saves": {
            "fortitude": {
                "saveDetail": "",
                "value": 21
            },
            "reflex": {
                "saveDetail": "",
                "value": 15
            },
            "will": {
                "saveDetail": "",
                "value": 0
            }
        },
        "source": {
            "value": "Pathfinder Adventure: The Slithering"
        },
        "statusEffects": [],
        "traits": {
            "ci": [],
            "di": {
                "custom": "",
                "selected": {},
                "value": [
                    "critical-hits",
                    "object-immunities",
                    "precision"
                ]
            },
            "dr": [
                {
                    "exceptions": "",
                    "label": "Electricity",
                    "type": "electricity",
                    "value": "15"
                }
            ],
            "dv": [],
            "rarity": {
                "value": "common"
            },
            "size": {
                "value": "med"
            },
            "traits": {
                "custom": "",
                "value": [
                    "magical",
                    "mechanical",
                    "trap"
                ]
            }
        }
    },
    "effects": [],
    "flags": {},
    "img": "systems/pf2e/icons/default-icons/hazard.svg",
    "items": [
        {
            "_id": "YKm4JByteFxgMLrc",
            "data": {
                "actionCategory": {
                    "value": ""
                },
                "actionType": {
                    "value": "passive"
                },
                "actions": {
                    "value": ""
                },
                "description": {
                    "value": "<p><strong>Hardness</strong>: 16;</p>\n<p><strong>HP</strong>: 64 (BT 32)</p>\n<p style=\"box-sizing: border-box; user-select: text; color: #191813; font-family: Roboto, system, -apple-system, sans-serif; font-size: 13px;\"><strong style=\"box-sizing: border-box; user-select: text;\">Resistances</strong>: Electricity 15</p>\n<p style=\"box-sizing: border-box; user-select: text; color: #191813; font-family: Roboto, system, -apple-system, sans-serif; font-size: 13px;\"><strong style=\"box-sizing: border-box; user-select: text;\">Immunities</strong>: Critical Hits, Object Immunities, Precision Damage</p>"
                },
                "requirements": {
                    "value": ""
                },
                "rules": [],
                "slug": null,
                "source": {
                    "value": ""
                },
                "traits": {
                    "custom": "",
                    "rarity": {
                        "value": "common"
                    },
                    "value": []
                },
                "trigger": {
                    "value": ""
                },
                "weapon": {
                    "value": ""
                }
            },
            "effects": [],
            "flags": {},
            "img": "systems/pf2e/icons/actions/Passive.webp",
            "name": "Symbol Stats (Each)",
            "sort": 100000,
            "type": "action"
        },
        {
            "_id": "y1EDMIPZrSGC7wRz",
            "data": {
                "actionCategory": {
                    "value": ""
                },
                "actionType": {
                    "value": "passive"
                },
                "actions": {
                    "value": ""
                },
                "description": {
                    "value": "<p><strong>Hardness</strong>: 18;</p>\n<p><strong>HP</strong>: 72 (BT 36)</p>\n<p><strong>Resistances</strong>: Electricity 15</p>\n<p><strong>Immunities</strong>: Critical Hits, Object Immunities, Precision Damage</p>"
                },
                "requirements": {
                    "value": ""
                },
                "rules": [],
                "slug": null,
                "source": {
                    "value": ""
                },
                "traits": {
                    "custom": "",
                    "rarity": {
                        "value": "common"
                    },
                    "value": []
                },
                "trigger": {
                    "value": ""
                },
                "weapon": {
                    "value": ""
                }
            },
            "effects": [],
            "flags": {},
            "img": "systems/pf2e/icons/actions/Passive.webp",
            "name": "Control Panel Stats",
            "sort": 200000,
            "type": "action"
        },
        {
            "_id": "enJ4VkXbDUV56rwT",
            "data": {
                "actionCategory": {
                    "value": ""
                },
                "actionType": {
                    "value": "reaction"
                },
                "actions": {
                    "value": ""
                },
                "description": {
                    "value": "<p><strong>Trigger</strong>: A creature without an Aspis Consortium badge approaches within 5 feet of a slab;</p>\n<p><strong>Effect</strong>: Both double doors leading out of the room shut and lock. While the trap is active, the doors must be battered open (Hardness 18; Panel HP 72 [BT 36]; Athletics DC 29 to @Compendium[pf2e.actionspf2e.Force Open]{Force Open}). The closest symbol to the triggering creature shoots an electricity bolt attack at it. The trap then rolls initiative.</p>"
                },
                "requirements": {
                    "value": ""
                },
                "rules": [],
                "slug": null,
                "source": {
                    "value": ""
                },
                "traits": {
                    "custom": "",
                    "rarity": {
                        "value": "common"
                    },
                    "value": [
                        "arcane",
                        "evocation"
                    ]
                },
                "trigger": {
                    "value": ""
                },
                "weapon": {
                    "value": ""
                }
            },
            "effects": [],
            "flags": {},
            "img": "systems/pf2e/icons/default-icons/action.svg",
            "name": "Reactive Charge",
            "sort": 300000,
            "type": "action"
        },
        {
            "_id": "r4GLtMTPNISHccTL",
            "data": {
                "actionCategory": {
                    "value": ""
                },
                "actionType": {
                    "value": "passive"
                },
                "actions": {
                    "value": ""
                },
                "description": {
                    "value": ""
                },
                "requirements": {
                    "value": ""
                },
                "rules": [],
                "slug": null,
                "source": {
                    "value": ""
                },
                "traits": {
                    "custom": "",
                    "rarity": {
                        "value": "common"
                    },
                    "value": []
                },
                "trigger": {
                    "value": ""
                },
                "weapon": {
                    "value": ""
                }
            },
            "effects": [],
            "flags": {},
            "img": "systems/pf2e/icons/actions/Passive.webp",
            "name": "No MAP Penalty",
            "sort": 400000,
            "type": "action"
        },
        {
            "_id": "GKCraZhfHY73oosv",
            "data": {
                "attack": {
                    "value": ""
                },
                "attackEffects": {
                    "value": []
                },
                "bonus": {
                    "value": 21
                },
                "damageRolls": {
                    "kz4wjza1vdnr4bny3gibi": {
                        "damage": "1d6+2",
                        "damageType": "electricity"
                    }
                },
                "description": {
                    "value": "<p>[[/r 1d6 #persistent electricity]] @Compendium[pf2e.conditionitems.Persistent Damage]{Persistent Electricity Damage}</p>"
                },
                "rules": [],
                "slug": null,
                "source": {
                    "value": ""
                },
                "traits": {
                    "custom": "Range 40 feet",
                    "rarity": {
                        "value": "common"
                    },
                    "value": [
                        "range-increment-40"
                    ]
                },
                "weaponType": {
                    "value": "ranged"
                }
            },
            "effects": [],
            "flags": {},
            "img": "systems/pf2e/icons/default-icons/melee.svg",
            "name": "Electrical Bolt",
            "sort": 500000,
            "type": "melee"
        }
    ],
    "name": "Scroll Shock Trap",
    "token": {
        "disposition": 0,
        "height": 1,
        "img": "systems/pf2e/icons/default-icons/hazard.svg",
        "name": "Scroll Shock Trap",
        "width": 1
    },
    "type": "hazard"
}
