{
    "_id": "Zdh2uO1vVYJmaqld",
    "data": {
        "description": {
            "value": "<p>Granted by @Compendium[pf2e.equipment-srd.Potion of Flying (Greater)]{Potion of Flying (Greater)}</p>\n<p>Automatically applied effects:</p>\n<ul>\n<li>You gain a Fly speed of 40 feet</li>\n</ul>"
        },
        "duration": {
            "expiry": "turn-start",
            "sustained": false,
            "unit": "hours",
            "value": 1
        },
        "level": {
            "value": 15
        },
        "rules": [
            {
                "key": "PF2E.RuleElement.BaseSpeed",
                "selector": "fly",
                "value": 40
            }
        ],
        "source": {
            "value": ""
        },
        "start": {
            "initiative": null,
            "value": 0
        },
        "target": null,
        "tokenIcon": {
            "show": true
        },
        "traits": {
            "custom": "",
            "rarity": {
                "value": "common"
            },
            "value": []
        }
    },
    "effects": [],
    "flags": {},
    "img": "systems/pf2e/icons/equipment/consumables/potions/potion-of-flying.webp",
    "name": "Effect: Potion of Flying (Greater)",
    "type": "effect"
}
