{
    "_id": "988f6NpOo4YzFzIr",
    "data": {
        "description": {
            "value": "<p>Granted by @Compendium[pf2e.equipment-srd.Quicksilver Mutagen (Major)]{Quicksilver Mutagen (Major)}</p>\n<p>Implemented effects:</p>\n<ul>\n<li>+4 item bonus to Acrobatics, Stealth and Thievery checks</li>\n<li>+4 item bonus to Reflex saves</li>\n<li>+4 item bonus to Dexterity-based attack rolls</li>\n<li>+20 foot status bonus to Speed</li>\n<li>-2 penalty to Fortitude saves</li>\n</ul>\n<p>Unimplemented effects:</p>\n<ul>\n<li>You take damage equal to twice your level; you can't recover Hit Points lost this way by any means while the mutagen lasts</li>\n</ul>"
        },
        "duration": {
            "expiry": "turn-start",
            "sustained": false,
            "unit": "hours",
            "value": 1
        },
        "level": {
            "value": 17
        },
        "rules": [
            {
                "key": "PF2E.RuleElement.FlatModifier",
                "label": "Quicksilver Mutagen (Major)",
                "selector": "acrobatics",
                "type": "item",
                "value": 4
            },
            {
                "key": "PF2E.RuleElement.FlatModifier",
                "label": "Quicksilver Mutagen (Major)",
                "selector": "stealth",
                "type": "item",
                "value": 4
            },
            {
                "key": "PF2E.RuleElement.FlatModifier",
                "label": "Quicksilver Mutagen (Major)",
                "selector": "thievery",
                "type": "item",
                "value": 4
            },
            {
                "key": "PF2E.RuleElement.FlatModifier",
                "label": "Quicksilver Mutagen (Major)",
                "selector": "fortitude",
                "type": "untyped",
                "value": -2
            },
            {
                "key": "PF2E.RuleElement.FlatModifier",
                "label": "Quicksilver Mutagen (Dexterity-based attacks)",
                "predicate": {
                    "any": [
                        "dex-attack"
                    ]
                },
                "selector": "attack",
                "type": "item",
                "value": 4
            },
            {
                "key": "PF2E.RuleElement.FlatModifier",
                "selector": "speed",
                "type": "status",
                "value": 20
            },
            {
                "key": "PF2E.RuleElement.FlatModifier",
                "selector": "reflex",
                "type": "item",
                "value": 4
            }
        ],
        "source": {
            "value": ""
        },
        "start": {
            "initiative": null,
            "value": 0
        },
        "target": null,
        "tokenIcon": {
            "show": true
        },
        "traits": {
            "custom": "",
            "rarity": {
                "value": "common"
            },
            "value": []
        }
    },
    "effects": [],
    "flags": {},
    "img": "systems/pf2e/icons/equipment/alchemical-items/alchemical-elixirs/quicksilver-mutagen.webp",
    "name": "Effect: Quicksilver Mutagen (Major)",
    "type": "effect"
}
