{
    "_id": "thOpQunbQr77XWdF",
    "data": {
        "description": {
            "value": "<p>Granted by @Compendium[pf2e.equipment-srd.Sea Touch Elixir (Lesser)]{Sea Touch Elixir (Lesser)}</p>\n<hr />\n<p>Auomatically applied effects:</p>\n<ul>\n<li>gain a swim Speed of 20 feet</li>\n</ul>"
        },
        "duration": {
            "expiry": "turn-start",
            "sustained": false,
            "unit": "minutes",
            "value": 10
        },
        "level": {
            "value": 5
        },
        "rules": [
            {
                "key": "PF2E.RuleElement.BaseSpeed",
                "selector": "swim",
                "value": 20
            }
        ],
        "source": {
            "value": ""
        },
        "start": {
            "initiative": null,
            "value": 0
        },
        "target": null,
        "tokenIcon": {
            "show": true
        },
        "traits": {
            "custom": "",
            "rarity": {
                "value": "common"
            },
            "value": []
        }
    },
    "effects": [],
    "flags": {},
    "img": "systems/pf2e/icons/equipment/alchemical-items/alchemical-elixirs/sea-touch-elixir.webp",
    "name": "Effect: Sea Touch Elixir (Lesser)",
    "type": "effect"
}
