{
    "_id": "ED58GzldWb82yc2q",
    "data": {
        "actionCategory": {
            "value": ""
        },
        "actionType": {
            "value": "passive"
        },
        "actions": {
            "value": ""
        },
        "description": {
            "value": "<p>You build a rapport with an animal, which becomes magically bonded to you. You gain a familiar. The type of animal is up to you, but most gnomes choose animals with a burrow Speed.</p>"
        },
        "featType": {
            "value": "ancestry"
        },
        "level": {
            "value": 1
        },
        "prerequisites": {
            "value": []
        },
        "rules": [
            {
                "key": "PF2E.RuleElement.FlatModifier",
                "selector": "familiar-abilities",
                "type": "base",
                "value": 2
            }
        ],
        "source": {
            "value": ""
        },
        "traits": {
            "custom": "",
            "rarity": {
                "value": "common"
            },
            "value": [
                "gnome"
            ]
        }
    },
    "effects": [],
    "flags": {},
    "img": "systems/pf2e/icons/features/feats/feats.webp",
    "name": "Animal Accomplice",
    "type": "feat"
}
