{
    "_id": "HEZeZcBWQR1QeWDo",
    "data": {
        "actionCategory": {
            "value": "offensive"
        },
        "actionType": {
            "value": "free"
        },
        "actions": {
            "value": ""
        },
        "description": {
            "value": "<p><strong>Frequency</strong> once per minute<br /><strong>Trigger</strong> You use @Compendium[pf2e.feats-srd.Quick Alchemy]{Quick Alchemy} to craft an alchemical bomb that deals splash damage and is at least 2 levels lower than your @Compendium[pf2e.classfeatures.Advanced Alchemy]{Advanced Alchemy} level.<br /></p>\n<hr />\n<p>Your bomb incorporates an explosive spark of wonder that leaves witnesses dumbfounded. Any target hit by your Strike with the bomb is @Compendium[pf2e.conditionitems.Fascinated]{Fascinated} by you for 1 round. On a critical success, the target is also @Compendium[pf2e.conditionitems.Stunned]{Stunned} 1.</p>"
        },
        "featType": {
            "value": "class"
        },
        "level": {
            "value": 20
        },
        "prerequisites": {
            "value": []
        },
        "rules": [],
        "source": {
            "value": ""
        },
        "traits": {
            "custom": "",
            "rarity": {
                "value": "uncommon"
            },
            "selected": {
                "additive2": "Additive 2",
                "alchemical": "Alchemical"
            },
            "value": [
                "additive2",
                "alchemical"
            ]
        }
    },
    "effects": [],
    "flags": {},
    "img": "systems/pf2e/icons/features/feats/feats.webp",
    "name": "Astonishing Explosion",
    "type": "feat"
}
