{
    "_id": "oNHmfpe8ezZ3eKDD",
    "data": {
        "actionCategory": {
            "value": ""
        },
        "actionType": {
            "value": "passive"
        },
        "actions": {
            "value": ""
        },
        "description": {
            "value": "<p>Your critical hits are particularly devastating. On a critical hit with a melee Strike, add one extra damage die. This is in addition to any extra dice you gain if the weapon is deadly or fatal. The target also takes @Compendium[pf2e.conditionitems.Persistent Damage]{Persistent Bleed Damage} equal to two damage dice.</p>"
        },
        "featType": {
            "value": "class"
        },
        "level": {
            "value": 18
        },
        "location": "",
        "prerequisites": {
            "value": []
        },
        "rules": [
            {
                "critical": true,
                "diceNumber": 1,
                "key": "PF2E.RuleElement.DamageDice",
                "predicate": {
                    "all": [
                        "melee"
                    ]
                },
                "selector": "damage"
            }
        ],
        "source": {
            "value": ""
        },
        "traits": {
            "custom": "",
            "rarity": {
                "value": "common"
            },
            "value": [
                "barbarian"
            ]
        }
    },
    "effects": [],
    "flags": {},
    "img": "systems/pf2e/icons/features/feats/feats.webp",
    "name": "Brutal Critical",
    "type": "feat"
}
