{
    "_id": "JAl4t2KINE8nI8KY",
    "data": {
        "actionCategory": {
            "value": "interaction"
        },
        "actionType": {
            "value": "passive"
        },
        "actions": {
            "value": ""
        },
        "description": {
            "value": "<p>You can alter your exoskeleton’s size. You constantly gain the effects of @Compendium[pf2e.spells-srd.Enlarge]{Enlarge}. You can dismiss or resume these effects as an action, which has the concentrate trait.</p>\n<p>@Compendium[pf2e.spell-effects.Spell Effect: Enlarge]{Spell Effect: Enlarge}</p>"
        },
        "featType": {
            "value": "ancestry"
        },
        "level": {
            "value": 13
        },
        "location": "",
        "prerequisites": {
            "value": []
        },
        "rules": [],
        "source": {
            "value": ""
        },
        "traits": {
            "custom": "",
            "rarity": {
                "value": "common"
            },
            "value": [
                "conrasu"
            ]
        }
    },
    "effects": [],
    "flags": {},
    "img": "systems/pf2e/icons/default-icons/feats.webp",
    "name": "Ceremony of Growth",
    "type": "feat"
}
