{
    "_id": "fnMT0AsZXFW9Ppyp",
    "data": {
        "actionCategory": {
            "value": ""
        },
        "actionType": {
            "value": "action"
        },
        "actions": {
            "value": "2"
        },
        "description": {
            "value": "<p><strong>Frequency</strong> once per day</p>\n<hr />\n<p>You secrete a cloak of concentrated poison that harms any who dare attack you. For 1 minute, any creature that touches you or damages you with an unarmed attack or melee weapon without the reach trait takes [[/r 3d6 #poison]]{3d6 poison damage}.</p>"
        },
        "featType": {
            "value": "ancestry"
        },
        "level": {
            "value": 13
        },
        "location": "",
        "prerequisites": {
            "value": []
        },
        "rules": [],
        "source": {
            "value": ""
        },
        "traits": {
            "custom": "",
            "rarity": {
                "value": "common"
            },
            "value": [
                "leshy",
                "poison"
            ]
        }
    },
    "effects": [],
    "flags": {},
    "img": "systems/pf2e/icons/features/feats/feats.webp",
    "name": "Cloak Of Poison",
    "type": "feat"
}
