{
    "_id": "ZcKW5n7F0oAqRw5o",
    "data": {
        "actionCategory": {
            "value": ""
        },
        "actionType": {
            "value": "passive"
        },
        "actions": {
            "value": ""
        },
        "description": {
            "value": "<p>Your life has been spent challenging death itself, and proximity to that implacable foe only makes your heart beat harder.</p>\n<p>When you are taking persistent damage or your @Compendium[pf2e.conditionitems.Wounded]{Wounded} value is 1 or greater, you gain a +2 circumstance bonus to Fortitude saving throws.</p>"
        },
        "featType": {
            "value": "ancestry"
        },
        "level": {
            "value": 9
        },
        "prerequisites": {
            "value": []
        },
        "rules": [],
        "source": {
            "value": ""
        },
        "traits": {
            "custom": "",
            "rarity": {
                "value": "common"
            },
            "value": [
                "orc"
            ]
        }
    },
    "effects": [],
    "flags": {},
    "img": "systems/pf2e/icons/features/feats/feats.webp",
    "name": "Death's Drums",
    "type": "feat"
}
