{
    "_id": "DSyLFBi2LcUxeORh",
    "data": {
        "actionCategory": {
            "value": ""
        },
        "actionType": {
            "value": "action"
        },
        "actions": {
            "value": "2"
        },
        "description": {
            "value": "<p>You’ve learned to draw your fiendish nature into a small ball of corruption and hide it in your soul. Your obviously fiendish traits disappear, including any tails, horns, and cloven hooves, though hints remain (claws turn into jagged nails or eyes retain an odd hue, for instance). You’re still recognizably yourself, but now appear as a typical, non-tiefling member of your base ancestry. Using Devil in Plain Sight counts as creating a disguise when using Deception to Impersonate, and your transformation automatically defeats Perception DCs to determine if you’re a normal member of your base ancestry; only creatures actively rolling Perception to examine you might notice the disguise. While in your shapeshifted form, you can’t use unarmed attacks, innate spells, or other abilities that require physical features you receive from a tiefling ancestry feat—for instance, you can’t use the @Compendium[pf2e.feats-srd.Skillful Tail (Tiefling)]{Skillful Tail} feat. You can remain in your alternate form indefinitely, and can shift back to your tiefling form by using this action again.</p>"
        },
        "featType": {
            "value": "ancestry"
        },
        "level": {
            "value": 5
        },
        "location": "",
        "prerequisites": {
            "value": []
        },
        "rules": [],
        "source": {
            "value": ""
        },
        "traits": {
            "custom": "",
            "rarity": {
                "value": "common"
            },
            "value": [
                "concentrate",
                "divine",
                "polymorph",
                "tiefling",
                "transmutation"
            ]
        }
    },
    "effects": [],
    "flags": {},
    "img": "systems/pf2e/icons/features/feats/feats.webp",
    "name": "Devil In Plain Sight",
    "type": "feat"
}
