{
    "_id": "gC5EnlP38t1vTlWt",
    "data": {
        "actionCategory": {
            "value": ""
        },
        "actionType": {
            "value": "passive"
        },
        "actions": {
            "value": ""
        },
        "description": {
            "value": "<p>Your polite manners and natural ability to comfort others make it easy for you to break down cultural barriers and earn strangers' trust. While you are in a settlement, when you roll a critical failure on a Diplomacy check to @Compendium[pf2e.actionspf2e.Gather Information]{Gather Information} or @Compendium[pf2e.actionspf2e.Make an Impression]{Make an Impression}, you get a failure instead.</p>"
        },
        "featType": {
            "value": "ancestry"
        },
        "level": {
            "value": 1
        },
        "prerequisites": {
            "value": []
        },
        "rules": [],
        "source": {
            "value": "Pathfinder #153: Life's Long Shadows"
        },
        "traits": {
            "custom": "",
            "rarity": {
                "value": "common"
            },
            "value": [
                "shoony"
            ]
        }
    },
    "effects": [],
    "flags": {},
    "img": "systems/pf2e/icons/features/feats/feats.webp",
    "name": "Esteemed Visitor",
    "type": "feat"
}
