{
    "_id": "0N8TtGSk5enoLBZ8",
    "data": {
        "actionCategory": {
            "value": ""
        },
        "actionType": {
            "value": "action"
        },
        "actions": {
            "value": "1"
        },
        "description": {
            "value": "<p>You've learned to subitize, quickly estimating the number of items in a group with relative accuracy at only a glance.</p>\n<p>You immediately learn the number of visually similar items in a group you can see (such as coins, books, or people), rounded to the first digit in the total number.</p>\n<p>For example, you could look at a case of potion vials and learn that it held about 30 vials, but you wouldn't know that it was exactly 33 vials, how many different types of potions there were, or how many of which type. Similarly, you could look at a pile of 2,805 coins and know that there were about 3,000 coins in all.</p>\n<p>You can use this ability only on items that can typically be counted, so you can't use it on grains of sand or stars in the sky, for example.</p>\n<p>In addition, when you attempt to @Compendium[pf2e.actionspf2e.Decipher Writing]{Decipher Writing} that is primarily numerical or mathematical, you gain a +2 circumstance bonus to your check.</p>"
        },
        "featType": {
            "value": "skill"
        },
        "level": {
            "value": 1
        },
        "location": "",
        "prerequisites": {
            "value": [
                {
                    "value": "trained in Society"
                }
            ]
        },
        "rules": [
            {
                "key": "PF2E.RuleElement.FlatModifier",
                "label": "Eye for Number (decipher numerical writing)",
                "predicate": {
                    "all": [
                        "action:decipher-writing",
                        "numerical"
                    ]
                },
                "selector": "skill-check",
                "type": "circumstance",
                "value": 2
            }
        ],
        "source": {
            "value": ""
        },
        "traits": {
            "custom": "",
            "rarity": {
                "value": "common"
            },
            "value": [
                "general",
                "skill"
            ]
        }
    },
    "effects": [],
    "flags": {},
    "img": "systems/pf2e/icons/features/feats/feats.webp",
    "name": "Eye For Numbers",
    "type": "feat"
}
