{
    "_id": "e6s2nIvlTycuzlR9",
    "data": {
        "actionCategory": {
            "value": ""
        },
        "actionType": {
            "value": "passive"
        },
        "actions": {
            "value": ""
        },
        "description": {
            "value": "<p>You can @Compendium[pf2e.actionspf2e.Lie]{Lie} about having taken an action so convincingly that you acquire all the tangible benefits of having successfully completed it.</p>\n<p>You can roll Deception in place of a different skill when attempting to @Compendium[pf2e.actionspf2e.Earn Income]{Earn Income}, @Compendium[pf2e.actionspf2e.Make an Impression]{Make an Impression}, @Compendium[pf2e.actionspf2e.Request]{Request}, or @Compendium[pf2e.actionspf2e.Subsist]{Subsist}.</p>\n<p>You can use Fabricated Connections to Make an Impression or Request once per day, and you can also use it once per week to Earn Income or Subsist.</p>"
        },
        "featType": {
            "value": "archetype"
        },
        "level": {
            "value": 7
        },
        "location": "",
        "prerequisites": {
            "value": [
                {
                    "value": "Dandy Dedication"
                },
                {
                    "value": "master in Deception"
                }
            ]
        },
        "rules": [],
        "source": {
            "value": ""
        },
        "traits": {
            "custom": "",
            "rarity": {
                "value": "common"
            },
            "value": [
                "archetype",
                "skill"
            ]
        }
    },
    "effects": [],
    "flags": {},
    "img": "systems/pf2e/icons/features/feats/feats.webp",
    "name": "Fabricated Connections",
    "type": "feat"
}
