{
    "_id": "SCDSgeJU7vULvHmo",
    "data": {
        "actionCategory": {
            "value": ""
        },
        "actionType": {
            "value": "passive"
        },
        "actions": {
            "value": ""
        },
        "description": {
            "value": "<p>While you are raging, you gain a +10-foot status bonus to your Speed.</p>"
        },
        "featType": {
            "value": "class"
        },
        "level": {
            "value": 4
        },
        "location": "",
        "prerequisites": {
            "value": []
        },
        "rules": [
            {
                "key": "PF2E.RuleElement.FlatModifier",
                "label": "Fast Movement (while raging)",
                "predicate": {
                    "all": [
                        "rage"
                    ]
                },
                "roll-options": [
                    "land-speed",
                    "all"
                ],
                "selector": "land-speed",
                "type": "status",
                "value": 10
            }
        ],
        "source": {
            "value": ""
        },
        "traits": {
            "custom": "",
            "rarity": {
                "value": "common"
            },
            "value": [
                "barbarian"
            ]
        }
    },
    "effects": [],
    "flags": {},
    "img": "systems/pf2e/icons/features/feats/feats.webp",
    "name": "Fast Movement",
    "type": "feat"
}
