{
    "_id": "tmGsnUkPv8SIhBgn",
    "data": {
        "actionCategory": {
            "value": ""
        },
        "actionType": {
            "value": "action"
        },
        "actions": {
            "value": "2"
        },
        "description": {
            "value": "<p>Your Panache allows you to perform incredible feats: climbing, swimming, and leaping far beyond your normal capacity. While you have panache, you gain the following benefits.</p>\n<ul>\n<li>You gain climb and swim Speeds equal to half your land Speed.</li>\n<li>The DCs of your @Compendium[pf2e.actionspf2e.High Jump]{High Jumps} and @Compendium[pf2e.actionspf2e.Long Jump]{Long Jumps} decrease by 10. This doesn't combine with other abilities that reduce those DCs.</li>\n<li>The distance you can move with a vertical @Compendium[pf2e.actionspf2e.Leap]{Leap}increases to 5 feet. Your distance for a horizontal Leap increases to 15 feet if your Speed is at least 15 feet, or to 20 feet if your Speed is at least 30 feet.</li>\n</ul>"
        },
        "featType": {
            "value": "class"
        },
        "level": {
            "value": 4
        },
        "location": "",
        "prerequisites": {
            "value": [
                {
                    "value": "expert in Athletics"
                }
            ]
        },
        "rules": [],
        "source": {
            "value": ""
        },
        "traits": {
            "custom": "",
            "rarity": {
                "value": "common"
            },
            "value": [
                "swashbuckler"
            ]
        }
    },
    "effects": [],
    "flags": {},
    "img": "systems/pf2e/icons/features/feats/feats.webp",
    "name": "Flamboyant Athlete",
    "type": "feat"
}
