{
    "_id": "bmWvMfYxZbZtigDp",
    "data": {
        "actionCategory": {
            "value": ""
        },
        "actionType": {
            "value": "passive"
        },
        "actions": {
            "value": ""
        },
        "description": {
            "value": "<p>You can perform two aspects of a ritual yourself.</p>\n<p>When you cast a ritual, you can reduce the number of secondary casters by 1.</p>\n<p>When you do, you must fulfill any requirements for the secondary caster, and you attempt the secondary check normally performed by that secondary caster. You can't replace a secondary caster who is the target of the spell (as in the @Compendium[pf2e.spells-srd.Atone]{Atone} ritual).</p>"
        },
        "featType": {
            "value": "archetype"
        },
        "level": {
            "value": 6
        },
        "prerequisites": {
            "value": [
                {
                    "value": "Ritualist Dedication"
                }
            ]
        },
        "rules": [],
        "source": {
            "value": ""
        },
        "traits": {
            "custom": "",
            "rarity": {
                "value": "common"
            },
            "value": [
                "archetype"
            ]
        }
    },
    "effects": [],
    "flags": {},
    "img": "systems/pf2e/icons/features/feats/feats.webp",
    "name": "Flexible Ritualist",
    "type": "feat"
}
