{
    "_id": "qgNc5XwjsaWET0Op",
    "data": {
        "actionCategory": {
            "value": ""
        },
        "actionType": {
            "value": "passive"
        },
        "actions": {
            "value": ""
        },
        "description": {
            "value": "<p>You've learned to apply your flashy techniques to thrown weapons as easily as melee attacks.</p>\n<p>When you have @Compendium[pf2e.classfeatures.Panache]{Panache}, you apply your precise strike damage on ranged Strikes you make with a thrown weapon within that weapon's first range increment. The thrown weapon must be an agile or finesse weapon.</p>\n<p>This also allows you to make a thrown weapon ranged Strike for @Compendium[pf2e.classfeatures.Confident Finisher]{Confident Finisher} and any other finisher that includes a Strike that can benefit from your precise strike.</p>"
        },
        "featType": {
            "value": "class"
        },
        "level": {
            "value": 1
        },
        "location": "",
        "prerequisites": {
            "value": [
                {
                    "value": "precise strike"
                }
            ]
        },
        "rules": [],
        "source": {
            "value": ""
        },
        "traits": {
            "custom": "",
            "rarity": {
                "value": "common"
            },
            "value": [
                "swashbuckler"
            ]
        }
    },
    "effects": [],
    "flags": {},
    "img": "systems/pf2e/icons/features/feats/feats.webp",
    "name": "Flying Blade",
    "type": "feat"
}
