{
    "_id": "ZxiAMposVPDNPwxI",
    "data": {
        "actionCategory": {
            "value": ""
        },
        "actionType": {
            "value": "passive"
        },
        "actions": {
            "value": ""
        },
        "description": {
            "value": "<p><strong>Access</strong> underground dwarf ethnicity<br /></p>\n<hr />\n<p>Your unusual rest cycle allows you to recover faster. As long as you rest for 12 hours, you gain the effects of the @Compendium[pf2e.feats-srd.Fast Recovery]{Fast Recovery} general feat and you can go 20 hours without resting before becoming @Compendium[pf2e.conditionitems.Fatigued]{Fatigued}.</p>"
        },
        "featType": {
            "value": "ancestry"
        },
        "level": {
            "value": 1
        },
        "prerequisites": {
            "value": []
        },
        "rules": [],
        "source": {
            "value": ""
        },
        "traits": {
            "custom": "",
            "rarity": {
                "value": "uncommon"
            },
            "value": [
                "dwarf"
            ]
        }
    },
    "effects": [],
    "flags": {},
    "img": "systems/pf2e/icons/features/feats/feats.webp",
    "name": "Forge-Day's Rest",
    "type": "feat"
}
