{
    "_id": "nRjyyDulHnP5OewA",
    "data": {
        "actionCategory": {
            "value": ""
        },
        "actionType": {
            "value": "action"
        },
        "actions": {
            "value": "1"
        },
        "description": {
            "value": "<p><strong>Requirements</strong> You are in Gorilla Stance.</p>\n<hr />\n<p>You pound your chest before slamming into your foes.</p>\n<p>Attempt an Intimidation check to @Compendium[pf2e.actionspf2e.Demoralize]{Demoralize}, then make one gorilla slam Strike against the same target. If your Strike hits, you gain a circumstance bonus to the damage roll equal to triple the value of the target's @Compendium[pf2e.conditionitems.Frightened]{Frightened} condition.</p>\n<hr />\n<p><strong>Special</strong> If you have this feat, while you are in Gorilla Stance, you gain a @Compendium[pf2e.actionspf2e.Climb]{Climb} Speed of 15 feet.</p>\n<p>@Compendium[pf2e.feat-effects.Stance: Gorilla Stance (Gorilla Pound)]{Stance: Gorilla Stance (Gorilla Pound)}</p>"
        },
        "featType": {
            "value": "class"
        },
        "level": {
            "value": 6
        },
        "location": "",
        "prerequisites": {
            "value": [
                {
                    "value": "expert in Intimidation"
                },
                {
                    "value": "Gorilla Stance"
                }
            ]
        },
        "rules": [],
        "source": {
            "value": ""
        },
        "traits": {
            "custom": "",
            "rarity": {
                "value": "common"
            },
            "value": [
                "emotion",
                "flourish",
                "mental",
                "monk"
            ]
        }
    },
    "effects": [],
    "flags": {},
    "img": "systems/pf2e/icons/features/feats/feats.webp",
    "name": "Gorilla Pound",
    "type": "feat"
}
