{
    "_id": "sGdREpnSJDzEacub",
    "data": {
        "actionCategory": {
            "value": ""
        },
        "actionType": {
            "value": "passive"
        },
        "actions": {
            "value": ""
        },
        "description": {
            "value": "<p>Your upbringing emphasized teamwork and helping your allies comes naturally to you.</p>\n<p>After you @Compendium[pf2e.actionspf2e.Aid]{Aid} an ally at a skill check that doesn't have the attack trait, you can also Aid any other ally who attempts the same skill check for the same purpose that round. You do so as a free action rather than a reaction.</p>\n<p>The preparation you did to help must still apply to the other allies, and you can Aid each ally only once. For example, if you helped lift up an ally to Aid them on an Athletics check to scale a wall, you could keep the same posture to give a boost to other allies attempting to scale the wall in the same round.</p>"
        },
        "featType": {
            "value": "ancestry"
        },
        "level": {
            "value": 9
        },
        "prerequisites": {
            "value": []
        },
        "rules": [],
        "source": {
            "value": ""
        },
        "traits": {
            "custom": "",
            "rarity": {
                "value": "common"
            },
            "value": [
                "human"
            ]
        }
    },
    "effects": [],
    "flags": {},
    "img": "systems/pf2e/icons/features/feats/feats.webp",
    "name": "Group Aid",
    "type": "feat"
}
