{
    "_id": "Qb25uu1gT5CDMSWb",
    "data": {
        "actionCategory": {
            "value": ""
        },
        "actionType": {
            "value": "passive"
        },
        "actions": {
            "value": ""
        },
        "description": {
            "value": "<p>When you came of age, your fingernails grew long and sharp. You gain a claw unarmed attack that deals [[/r 1d4 #slashing]]{1d4 slashing damage}. Your claws are in the brawling group and have the agile, finesse, and unarmed traits.</p>\n<p><strong>Special</strong> Hag claws can develop at any point in a changeling's life, allowing you to select this feat anytime you would gain an ancestry feat, but once you've selected it, you can't retrain out of it.</p>"
        },
        "featType": {
            "value": "ancestry"
        },
        "level": {
            "value": 1
        },
        "location": "",
        "prerequisites": {
            "value": []
        },
        "rules": [
            {
                "category": "unarmed",
                "damage": {
                    "base": {
                        "damageType": "slashing",
                        "dice": 1,
                        "die": "d4"
                    }
                },
                "group": "brawling",
                "key": "PF2E.RuleElement.Strike",
                "label": "Claws",
                "range": "melee",
                "traits": [
                    "agile",
                    "finesse",
                    "unarmed"
                ]
            }
        ],
        "source": {
            "value": "Pathfinder Advanced Player's Guide"
        },
        "traits": {
            "custom": "",
            "rarity": {
                "value": "common"
            },
            "value": [
                "changeling"
            ]
        }
    },
    "effects": [],
    "flags": {},
    "img": "systems/pf2e/icons/features/feats/feats.webp",
    "name": "Hag Claws",
    "type": "feat"
}
