{
    "_id": "EXVHePH8alsTZ5TB",
    "data": {
        "actionCategory": {
            "value": ""
        },
        "actionType": {
            "value": "passive"
        },
        "actions": {
            "value": ""
        },
        "description": {
            "value": "<p>Your lineage descends from devils, the conniving schemers of Hell's malevolent hierarchy. You're as skilled at noticing lies and twisted wordings as you are at constructing them.</p>\n<p>You are trained in Deception and Legal Lore. If you were already trained in Deception (from your background or class, for example), you instead become trained in a skill of your choice. You also gain the @Compendium[pf2e.feats-srd.Lie To Me]{Lie To Me} skill feat.</p>"
        },
        "featType": {
            "value": "ancestry"
        },
        "level": {
            "value": 1
        },
        "prerequisites": {
            "value": []
        },
        "rules": [],
        "source": {
            "value": ""
        },
        "traits": {
            "custom": "",
            "rarity": {
                "value": "common"
            },
            "value": [
                "lineage",
                "tiefling"
            ]
        }
    },
    "effects": [],
    "flags": {},
    "img": "systems/pf2e/icons/features/feats/feats.webp",
    "name": "Hellspawn",
    "type": "feat"
}
