{
    "_id": "arlZTqfppOAXBhdw",
    "data": {
        "actionCategory": {
            "value": ""
        },
        "actionType": {
            "value": "passive"
        },
        "actions": {
            "value": ""
        },
        "description": {
            "value": "<p>You can trace your direct descent from one of the Queens of Irrisen and thus from Baba Yaga herself. Your resistance to cold increases to 5 + half your level, and you can cast 5th-level @Compendium[pf2e.spells-srd.Wall of Ice]{Wall of Ice} as an innate arcane spell once per day.</p>"
        },
        "featType": {
            "value": "ancestry"
        },
        "level": {
            "value": 13
        },
        "prerequisites": {
            "value": [
                {
                    "value": "Jadwiga ethnicity"
                },
                {
                    "value": "wintertouched human heritage"
                }
            ]
        },
        "rules": [],
        "source": {
            "value": ""
        },
        "traits": {
            "custom": "",
            "rarity": {
                "value": "common"
            },
            "value": [
                "human"
            ]
        }
    },
    "effects": [],
    "flags": {},
    "img": "systems/pf2e/icons/features/feats/feats.webp",
    "name": "Irriseni Ice-Witch",
    "type": "feat"
}
