{
    "_id": "ZHPSASbvbbshq1zG",
    "data": {
        "actionCategory": {
            "value": ""
        },
        "actionType": {
            "value": "action"
        },
        "actions": {
            "value": "1"
        },
        "description": {
            "value": "<p><strong>Requirements</strong> You are adjacent to an enemy.</p>\n<hr />\n<p>You sweep your foe into your dance. Attempt a Performance check against an adjacent enemy's Will DC. If your swashbuckler's style is @Compendium[pf2e.classfeatures.Battledancer Style]{Battledancer} and you succeed, you gain @Compendium[pf2e.classfeatures.Panache]{Panache}.</p>\n<hr />\n<p><strong>Critical Success</strong> Your foe is swept up in your dance. You both <br />move up to 10 feet in the same direction, remaining adjacent <br />to one another. Your movement doesn't trigger reactions <br />from the target (and the target's movement doesn't trigger <br />reactions because it's forced movement).</p>\n<p><strong>Success</strong> As critical success, but you both move only 5 feet.</p>\n<p><strong>Failure</strong> The foe doesn't follow your steps. You can move 5 feet <br />if you choose, but this movement triggers reactions normally.</p>\n<p><strong>Critical Failure</strong> You stumble, falling @Compendium[pf2e.conditionitems.Prone]{Prone} in your space.</p>"
        },
        "featType": {
            "value": "class"
        },
        "level": {
            "value": 4
        },
        "prerequisites": {
            "value": [
                {
                    "value": "trained in Performance"
                }
            ]
        },
        "rules": [],
        "source": {
            "value": ""
        },
        "traits": {
            "custom": "",
            "rarity": {
                "value": "common"
            },
            "value": [
                "move",
                "swashbuckler"
            ]
        }
    },
    "effects": [],
    "flags": {},
    "img": "systems/pf2e/icons/features/feats/feats.webp",
    "name": "Leading Dance",
    "type": "feat"
}
