{
    "_id": "1JTEWgonWlmeCE3w",
    "data": {
        "actionCategory": {
            "value": ""
        },
        "actionType": {
            "value": "passive"
        },
        "actions": {
            "value": ""
        },
        "description": {
            "value": "<p>Instead of you taking a Step at the end of your @Compendium[pf2e.actionspf2e.Liberating Step]{Liberating Step}, the triggering ally can Stride up to half their Speed.</p>\n<p>Even if you have @Compendium[pf2e.classfeatures.Exalt]{Exalt}, only the triggering ally gains this benefit.</p>"
        },
        "featType": {
            "value": "class"
        },
        "level": {
            "value": 12
        },
        "location": "",
        "prerequisites": {
            "value": [
                {
                    "value": "liberator cause"
                }
            ]
        },
        "rules": [],
        "source": {
            "value": ""
        },
        "traits": {
            "custom": "",
            "rarity": {
                "value": "common"
            },
            "value": [
                "champion"
            ]
        }
    },
    "effects": [],
    "flags": {},
    "img": "systems/pf2e/icons/features/feats/feats.webp",
    "name": "Liberating Stride",
    "type": "feat"
}
