{
    "_id": "SjJ8BOy5sc8p2H5E",
    "data": {
        "actionCategory": {
            "value": ""
        },
        "actionType": {
            "value": "action"
        },
        "actions": {
            "value": "1"
        },
        "description": {
            "value": "<p><strong>Archetype</strong> @Compendium[pf2e.archetypes.Turpin Rowe Lumberjack]{Turpin Rowe Lumberjack}</p>\n<hr />\n<p><strong>Requirements</strong> You and an adjacent creature are both on a narrow surface or uneven ground and the other creature is flat-footed.</p>\n<hr />\n<p>You shuffle your feet to dislodge the surface beneath you or otherwise cause your opponent to become unsteady. Attempt an Acrobatics check against the adjacent creature's Reflex saving throw DC. On a success, the creature falls. On a critical failure, you fall.</p>"
        },
        "featType": {
            "value": "archetype"
        },
        "level": {
            "value": 4
        },
        "prerequisites": {
            "value": [
                {
                    "value": "Turpin Rowe Lumberjack Dedication"
                }
            ]
        },
        "rules": [],
        "source": {
            "value": "Pathfinder #153: Life's Long Shadows"
        },
        "traits": {
            "custom": "",
            "rarity": {
                "value": "common"
            },
            "value": [
                "archetype"
            ]
        }
    },
    "effects": [],
    "flags": {},
    "img": "systems/pf2e/icons/features/feats/feats.webp",
    "name": "Log Roll",
    "type": "feat"
}
