{
    "_id": "zsubK6PaY58fOYCb",
    "data": {
        "actionCategory": {
            "value": ""
        },
        "actionType": {
            "value": "passive"
        },
        "actions": {
            "value": ""
        },
        "description": {
            "value": "<p>You have a keepsake that grants you luck. You gain a +1 circumstance bonus to saves against spells and magical effects at all times, not just when you use Leshy Superstition. If you lose the keepsake, you lose the bonus until you designate a new keepsake, typically over the course of a week.</p>"
        },
        "featType": {
            "value": "ancestry"
        },
        "level": {
            "value": 9
        },
        "prerequisites": {
            "value": [
                {
                    "value": "Leshy Superstition"
                }
            ]
        },
        "rules": [],
        "source": {
            "value": ""
        },
        "traits": {
            "custom": "",
            "rarity": {
                "value": "common"
            },
            "value": [
                "leshy"
            ]
        }
    },
    "effects": [],
    "flags": {},
    "img": "systems/pf2e/icons/features/feats/feats.webp",
    "name": "Lucky Keepsake",
    "type": "feat"
}
