{
    "_id": "Hmgy0GJKIawAiqHE",
    "data": {
        "actionCategory": {
            "value": ""
        },
        "actionType": {
            "value": "reaction"
        },
        "actions": {
            "value": ""
        },
        "description": {
            "value": "<p><strong>Frequency</strong> once per minute</p>\n<p><strong>Trigger</strong> You cast a non-cantrip occult spell or an innate spell from a changeling ancestry feat.</p>\n<hr />\n<p>You can tap into some of the magic that flows through your blood to give you new life. You gain a number of temporary Hit Points equal to half your level (minimum 1) that last until the end of your next turn.</p>\n<p>@Compendium[pf2e.feat-effects.Effect: Maiden's Mending]{Effect: Maiden's Mending}</p>"
        },
        "featType": {
            "value": "ancestry"
        },
        "level": {
            "value": 1
        },
        "location": "",
        "prerequisites": {
            "value": []
        },
        "rules": [],
        "source": {
            "value": ""
        },
        "traits": {
            "custom": "",
            "rarity": {
                "value": "common"
            },
            "value": [
                "changeling"
            ]
        }
    },
    "effects": [],
    "flags": {},
    "img": "systems/pf2e/icons/features/feats/feats.webp",
    "name": "Maiden’s Mending",
    "type": "feat"
}
