{
    "_id": "gOHBzx5Rqa6TZcrm",
    "data": {
        "actionCategory": {
            "value": ""
        },
        "actionType": {
            "value": "action"
        },
        "actions": {
            "value": "2"
        },
        "description": {
            "value": "<p>When you meet someone's gaze, they are unable to look away.</p>\n<p>Choose one target creature. That creature must succeed at a Will save or be @Compendium[pf2e.conditionitems.Fascinated]{Fascinated} until the end of your next turn; the DC for this save is equal to your class DC or spell DC, whichever is higher. If the creature succeeds at its save or its fascination ends due to a hostile action, it becomes temporarily immune to your Mesmerizing Gaze for 1 day.</p>\n<p>When you select this feat, it gains either the arcane or occult trait; once you make this choice, you can't change it.</p>"
        },
        "featType": {
            "value": "archetype"
        },
        "level": {
            "value": 6
        },
        "prerequisites": {
            "value": [
                {
                    "value": "Celebrity Dedication"
                }
            ]
        },
        "rules": [],
        "source": {
            "value": ""
        },
        "traits": {
            "custom": "",
            "rarity": {
                "value": "common"
            },
            "value": [
                "archetype",
                "emotion",
                "enchantment",
                "mental",
                "visual"
            ]
        }
    },
    "effects": [],
    "flags": {},
    "img": "systems/pf2e/icons/features/feats/feats.webp",
    "name": "Mesmerizing Gaze",
    "type": "feat"
}
