{
    "_id": "l60Ua5Ugv85GnF9b",
    "data": {
        "actionCategory": {
            "value": ""
        },
        "actionType": {
            "value": "passive"
        },
        "actions": {
            "value": ""
        },
        "description": {
            "value": "<p>Your mask protects you further from divination. Once per day, you can cast @Compendium[pf2e.spells-srd.Nondetection]{Nondetection} on yourself, heightened to the highest level of spell you can cast; the spell ends immediately if your mask is removed for even a moment. The spell is of the same tradition as your focus spells.</p>"
        },
        "featType": {
            "value": "archetype"
        },
        "level": {
            "value": 6
        },
        "location": "",
        "prerequisites": {
            "value": [
                {
                    "value": "Magic Warrior Dedication"
                }
            ]
        },
        "rules": [],
        "source": {
            "value": ""
        },
        "traits": {
            "custom": "",
            "rarity": {
                "value": "common"
            },
            "value": [
                "archetype"
            ]
        }
    },
    "effects": [],
    "flags": {},
    "img": "systems/pf2e/icons/features/feats/feats.webp",
    "name": "Nameless Anonymity",
    "type": "feat"
}
