{
    "_id": "dLof0i6LPcChJSBR",
    "data": {
        "actionCategory": {
            "value": ""
        },
        "actionType": {
            "value": "passive"
        },
        "actions": {
            "value": ""
        },
        "description": {
            "value": "<p>Your mount becomes a grotesque creature of foreboding when you ride it. Its appearance transforms as flames erupt from its skin, a whorl of negative energy surrounds it, or poison leaks from its flesh.</p>\n<p>When you @Compendium[pf2e.actionspf2e.Mount]{Mount} your steed ally, you can choose fire, negative, or poison. As long as you ride it, your steed gains resistance 10 to the chosen damage type, and any creature that touches your steed takes [[/r 1d6]] damage of the chosen type; this includes hitting the steed with unarmed attacks or with a melee weapon Strike while adjacent to the steed.</p>\n<p>This damage increases to [[/r 2d6]] at 16th level and [[/r 3d6]] at 20th level.</p>"
        },
        "featType": {
            "value": "class"
        },
        "level": {
            "value": 12
        },
        "location": "",
        "prerequisites": {
            "value": [
                {
                    "value": "divine ally (steed)"
                },
                {
                    "value": "tenets of evil"
                }
            ]
        },
        "rules": [],
        "source": {
            "value": ""
        },
        "traits": {
            "custom": "",
            "rarity": {
                "value": "uncommon"
            },
            "value": [
                "champion"
            ]
        }
    },
    "effects": [],
    "flags": {},
    "img": "systems/pf2e/icons/features/feats/feats.webp",
    "name": "Pale Horse",
    "type": "feat"
}
