{
    "_id": "X1SPiYJqWzqwzPTs",
    "data": {
        "actionCategory": {
            "value": ""
        },
        "actionType": {
            "value": "passive"
        },
        "actions": {
            "value": ""
        },
        "description": {
            "value": "<p>You tap into the unstoppable, primeval strength of your ancient kin. You gain @Compendium[pf2e.spells-srd.Freedom of Movement]{Freedom of Movement} and @Compendium[pf2e.spells-srd.Stoneskin]{Stoneskin} as 4th-level primal innate spells that you can cast once per day. As a 3-action activity, you can Cast a Spell twice to cast both of these innate spells, as long as they are both still available for the day.</p>"
        },
        "featType": {
            "value": "ancestry"
        },
        "level": {
            "value": 13
        },
        "location": "",
        "prerequisites": {
            "value": []
        },
        "rules": [],
        "source": {
            "value": ""
        },
        "traits": {
            "custom": "",
            "rarity": {
                "value": "common"
            },
            "value": [
                "lizardfolk"
            ]
        }
    },
    "effects": [],
    "flags": {},
    "img": "systems/pf2e/icons/default-icons/feats.webp",
    "name": "Primal Rampage",
    "type": "feat"
}
