{
    "_id": "sTqdFqWVL9yxi5wt",
    "data": {
        "actionCategory": {
            "value": ""
        },
        "actionType": {
            "value": "passive"
        },
        "actions": {
            "value": ""
        },
        "description": {
            "value": "<p>When you lash out with your @Compendium[pf2e.equipment-srd.Clan Dagger]{Clan Dagger}, you keep its sheath close at hand. When you use Clan's Edge, if the hand you're not holding the dagger with is empty, you can use your clan dagger's sheath to block attacks as well. The circumstance bonus to your AC from parrying increases to a +2 against any target you hit with a Strike this turn.</p>"
        },
        "featType": {
            "value": "ancestry"
        },
        "level": {
            "value": 5
        },
        "prerequisites": {
            "value": [
                {
                    "value": "Clan's Edge"
                }
            ]
        },
        "rules": [],
        "source": {
            "value": ""
        },
        "traits": {
            "custom": "",
            "rarity": {
                "value": "common"
            },
            "value": [
                "dwarf"
            ]
        }
    },
    "effects": [],
    "flags": {},
    "img": "systems/pf2e/icons/features/feats/feats.webp",
    "name": "Protective Sheath",
    "type": "feat"
}
