{
    "_id": "ftntYtiKGoPBpvcv",
    "data": {
        "actionCategory": {
            "value": ""
        },
        "actionType": {
            "value": "passive"
        },
        "actions": {
            "value": ""
        },
        "description": {
            "value": "<p>You’ve deeply studied the secrets of your blood and can force reality to act against its own wishes. You can cast @Compendium[pf2e.spells-srd.Blur]{Blur} and @Compendium[pf2e.spells-srd.Silence]{Silence} once per day each as 2nd-level divine innate spells.</p>"
        },
        "featType": {
            "value": "ancestry"
        },
        "level": {
            "value": 9
        },
        "location": "",
        "prerequisites": {
            "value": [
                {
                    "value": "Riftmarked"
                }
            ]
        },
        "rules": [],
        "source": {
            "value": ""
        },
        "traits": {
            "custom": "",
            "rarity": {
                "value": "common"
            },
            "value": [
                "tiefling"
            ]
        }
    },
    "effects": [],
    "flags": {},
    "img": "systems/pf2e/icons/features/feats/feats.webp",
    "name": "Qlippoth Magic",
    "type": "feat"
}
