{
    "_id": "v1PtAazmEFhTp6fZ",
    "data": {
        "actionCategory": {
            "value": ""
        },
        "actionType": {
            "value": "passive"
        },
        "actions": {
            "value": ""
        },
        "description": {
            "value": "<p>You can shift between your identities with ease. Instead of spending 1 minute to change your identity, you can now do so as a 3-action activity. If you are legendary in Deception, you can perform this change as a 1-action activity.</p>"
        },
        "featType": {
            "value": "archetype"
        },
        "level": {
            "value": 7
        },
        "prerequisites": {
            "value": [
                {
                    "value": "master in Deception"
                },
                {
                    "value": "Vigilante Dedication"
                }
            ]
        },
        "rules": [],
        "source": {
            "value": ""
        },
        "traits": {
            "custom": "",
            "rarity": {
                "value": "common"
            },
            "value": [
                "archetype"
            ]
        }
    },
    "effects": [],
    "flags": {},
    "img": "systems/pf2e/icons/features/feats/feats.webp",
    "name": "Quick Change (Vigilante)",
    "type": "feat"
}
