{
    "_id": "Bp02C07s4RTS4vsV",
    "data": {
        "actionCategory": {
            "value": ""
        },
        "actionType": {
            "value": "passive"
        },
        "actions": {
            "value": ""
        },
        "description": {
            "value": "<p>You spend 1 minute surveying a small location (such as a single room) to get an impression of events that occurred there in the last day. This involves moving about the area and studying footprints, the placement of objects, spilled drinks or blood, and so forth.</p>\n<p>You get an indistinct mental impression of significant events that happened there. This gives you clues and details of the past, including the overall events and their time frame, but it's not a perfect record. This also isn't enough to identify who was involved in these events if you weren't already aware the person was there.</p>\n<p>As determined by the GM, you also pick out various seemingly small details that could serve as important clues, like a memorable weapon someone used for a murder or the type of cloak someone wore when passing through.</p>"
        },
        "featType": {
            "value": "class"
        },
        "level": {
            "value": 16
        },
        "prerequisites": {
            "value": []
        },
        "rules": [],
        "source": {
            "value": ""
        },
        "traits": {
            "custom": "",
            "rarity": {
                "value": "common"
            },
            "value": [
                "concentrate",
                "investigator",
                "rogue"
            ]
        }
    },
    "effects": [],
    "flags": {},
    "img": "systems/pf2e/icons/features/feats/feats.webp",
    "name": "Reconstruct The Scene",
    "type": "feat"
}
