{
    "_id": "jvQoupE76OeUpjZp",
    "data": {
        "actionCategory": {
            "value": ""
        },
        "actionType": {
            "value": "action"
        },
        "actions": {
            "value": "2"
        },
        "description": {
            "value": "<p><strong>Requirements</strong> You are @Compendium[pf2e.conditionitems.Hidden]{Hidden} from or @Compendium[pf2e.conditionitems.Undetected]{Undetected} by all <br />of your opponents, and you aren't within 10 feet of any <br />enemy.</p>\n<hr />\n<p>You leap from the shadows to strike your foes. @Compendium[pf2e.actionspf2e.Stride]{Stride} up to your Speed, then @Compendium[pf2e.actionspf2e.Strike]{Strike} twice. If you were hidden or unnoticed by the target of these Strikes, your foe is @Compendium[pf2e.conditionitems.Flat-Footed]{Flat-Footed} against both attacks.</p>\n<p>Your multiple attack penalty applies normally for both attacks.</p>"
        },
        "featType": {
            "value": "archetype"
        },
        "level": {
            "value": 10
        },
        "prerequisites": {
            "value": [
                {
                    "value": "Scout Dedication"
                }
            ]
        },
        "rules": [],
        "source": {
            "value": ""
        },
        "traits": {
            "custom": "",
            "rarity": {
                "value": "common"
            },
            "value": [
                "archetype",
                "flourish"
            ]
        }
    },
    "effects": [],
    "flags": {},
    "img": "systems/pf2e/icons/features/feats/feats.webp",
    "name": "Scout's Pounce",
    "type": "feat"
}
