{
    "_id": "1xpqOpguTUAeFsdO",
    "data": {
        "actionCategory": {
            "value": ""
        },
        "actionType": {
            "value": "action"
        },
        "actions": {
            "value": "3"
        },
        "description": {
            "value": "<p><strong>Frequency</strong> once per day</p>\n<p>With a moment spent focusing, you can locate the telltale signs of corruption no matter what means it may use to hide from your sight. For 1 minute, you can see through up to 5 feet of stone, wood, or similar barriers as if they didn’t exist (though any amount of metal or denser barriers block this effect).</p>"
        },
        "featType": {
            "value": "bonus"
        },
        "level": {
            "value": 0
        },
        "location": "",
        "prerequisites": {
            "value": [
                {
                    "value": "Order of the Scourge"
                }
            ]
        },
        "rules": [],
        "source": {
            "value": ""
        },
        "traits": {
            "custom": "",
            "rarity": {
                "value": "common"
            },
            "value": [
                "concentrate",
                "divination",
                "magical",
                "revelation"
            ]
        }
    },
    "effects": [],
    "flags": {},
    "img": "systems/pf2e/icons/default-icons/feat.svg",
    "name": "Seek Injustice",
    "type": "feat"
}
