{
    "_id": "T8cBEhuHWkh3MqgO",
    "data": {
        "actionCategory": {
            "value": ""
        },
        "actionType": {
            "value": "passive"
        },
        "actions": {
            "value": ""
        },
        "description": {
            "value": "<p>You can tell when something’s off. You can trigger @Compendium[pf2e.feats-srd.Cat's Luck]{Cat's Luck} after you roll initiative, in addition to its normal trigger, to reroll your Initiative and take the higher of the two results.</p>\n<p>This still counts against Cat’s Luck’s frequency, as normal.</p>"
        },
        "featType": {
            "value": "ancestry"
        },
        "level": {
            "value": 9
        },
        "location": "",
        "prerequisites": {
            "value": [
                {
                    "value": "Cat's Luck"
                }
            ]
        },
        "rules": [],
        "source": {
            "value": ""
        },
        "traits": {
            "custom": "",
            "rarity": {
                "value": "common"
            },
            "value": [
                "catfolk"
            ]
        }
    },
    "effects": [],
    "flags": {},
    "img": "systems/pf2e/icons/features/feats/feats.webp",
    "name": "Sense For Trouble",
    "type": "feat"
}
