{
    "_id": "1sD5Gu8jQL09Yz2j",
    "data": {
        "actionCategory": {
            "value": "offensive"
        },
        "actionType": {
            "value": "action"
        },
        "actions": {
            "value": "2"
        },
        "description": {
            "value": "<p><strong>Requirements</strong> You are wielding a weapon that deals slashing damage or have an unarmed Strike that deals slashing damage.</p>\n<hr />\n<p>You destroy the space between you and your targets, allowing you to strike with your melee weapons at great range. Make a melee Strike with the required weapon or unarmed attack. The attack gains an 80-foot reach for this Strike.</p>\n<p>After the Strike, regardless of whether it succeeded, the world rushes to fill the space you destroyed, bringing you and the target adjacent to each other. You can choose to teleport to the closest space adjacent to the target or to attempt to teleport the target adjacent to you. If you choose the target, they can negate the teleportation if they succeed at a Fortitude save against your class DC.</p>"
        },
        "featType": {
            "value": "class"
        },
        "level": {
            "value": 20
        },
        "location": "",
        "prerequisites": {
            "value": []
        },
        "rules": [],
        "source": {
            "value": ""
        },
        "traits": {
            "custom": "",
            "rarity": {
                "value": "uncommon"
            },
            "value": [
                "conjuration",
                "fighter",
                "flourish",
                "teleportation"
            ]
        }
    },
    "effects": [],
    "flags": {},
    "img": "systems/pf2e/icons/default-icons/feats.webp",
    "name": "Sever Space",
    "type": "feat"
}
