{
    "_id": "8buK32r3i3aGyyOR",
    "data": {
        "actionCategory": {
            "value": ""
        },
        "actionType": {
            "value": "passive"
        },
        "actions": {
            "value": ""
        },
        "description": {
            "value": "<p>The magic of shaitans runs through your blood. You can cast @Compendium[pf2e.spells-srd.Glitterdust]{Glitterdust} and @Compendium[pf2e.spells-srd.Resist Energy]{Resist Energy} once per day each as 2nd-level arcane innate spells.</p>"
        },
        "featType": {
            "value": "ancestry"
        },
        "level": {
            "value": 9
        },
        "location": "",
        "prerequisites": {
            "value": []
        },
        "rules": [],
        "source": {
            "value": ""
        },
        "traits": {
            "custom": "",
            "rarity": {
                "value": "common"
            },
            "value": [
                "oread"
            ]
        }
    },
    "effects": [],
    "flags": {},
    "img": "systems/pf2e/icons/features/feats/feats.webp",
    "name": "Shaitan Magic",
    "type": "feat"
}
