{
    "_id": "f5Vkk2rM6tCe2zQn",
    "data": {
        "actionCategory": {
            "value": ""
        },
        "actionType": {
            "value": "passive"
        },
        "actions": {
            "value": ""
        },
        "description": {
            "value": "<p>You are evidence that it's lucky to travel with a halfling. You can use Halfling Luck when an ally within 30 feet fails a skill check or a saving throw to allow the ally to reroll the triggering check instead of you rerolling your own failed check. As usual, your ally must use the new result, even if it's worse than their first roll. If you have @Compendium[pf2e.feats-srd.Guiding Luck]{Guiding Luck}, you can't use Guiding Luck's effect that applies to attack rolls and Perception checks to use Shared Luck to benefit an ally.</p>"
        },
        "featType": {
            "value": "ancestry"
        },
        "level": {
            "value": 5
        },
        "prerequisites": {
            "value": [
                {
                    "value": "Halfling Luck"
                }
            ]
        },
        "rules": [],
        "source": {
            "value": ""
        },
        "traits": {
            "custom": "",
            "rarity": {
                "value": "common"
            },
            "value": [
                "halfling"
            ]
        }
    },
    "effects": [],
    "flags": {},
    "img": "systems/pf2e/icons/features/feats/feats.webp",
    "name": "Shared Luck (Halfling)",
    "type": "feat"
}
