{
    "_id": "3Y1k2eAMqCdcCGmK",
    "data": {
        "actionCategory": {
            "value": ""
        },
        "actionType": {
            "value": "reaction"
        },
        "actions": {
            "value": ""
        },
        "description": {
            "value": "<p><strong>Trigger</strong> You are struck by a critical hit that deals physical damage.</p>\n<hr />\n<p>Your intractable nature can help you shrug off even the most grievous injuries. Attempt a DC 17 flat check. If you are successful, the attack becomes a normal hit.</p>"
        },
        "featType": {
            "value": "ancestry"
        },
        "level": {
            "value": 9
        },
        "prerequisites": {
            "value": []
        },
        "rules": [],
        "source": {
            "value": ""
        },
        "traits": {
            "custom": "",
            "rarity": {
                "value": "common"
            },
            "value": [
                "dwarf"
            ]
        }
    },
    "effects": [],
    "flags": {},
    "img": "systems/pf2e/icons/features/feats/feats.webp",
    "name": "Stone Bones",
    "type": "feat"
}
