{
    "_id": "RpXWOgLWQLGdx74I",
    "data": {
        "actionCategory": {
            "value": ""
        },
        "actionType": {
            "value": "passive"
        },
        "actions": {
            "value": ""
        },
        "description": {
            "value": "<p>You can focus your superstition to break the magic of an item, in addition to destroying freestanding spells and those active on creatures.</p>\n<p>When you Sunder a Spell, you can instead attempt to counteract either an unattended magic item or one of your target's magic items. If your counteract attempt succeeds, the item becomes a mundane item of its type for 10 minutes. If you target an artifact, an intelligent item, or a particularly powerful item, your counteract attempt automatically fails.</p>"
        },
        "featType": {
            "value": "class"
        },
        "level": {
            "value": 14
        },
        "prerequisites": {
            "value": [
                {
                    "value": "Sunder Spell"
                }
            ]
        },
        "rules": [],
        "source": {
            "value": ""
        },
        "traits": {
            "custom": "",
            "rarity": {
                "value": "common"
            },
            "value": [
                "barbarian"
            ]
        }
    },
    "effects": [],
    "flags": {},
    "img": "systems/pf2e/icons/features/feats/feats.webp",
    "name": "Sunder Enchantment",
    "type": "feat"
}
