{
    "_id": "wqrOVv9gnqF4nlLR",
    "data": {
        "actionCategory": {
            "value": ""
        },
        "actionType": {
            "value": "action"
        },
        "actions": {
            "value": "3"
        },
        "description": {
            "value": "<p>You install one of your snares prepared for quick deployment in a space that's occupied by an opponent. It must be a snare that normally takes 1 minute or less to @Compendium[pf2e.actionspf2e.Craft]{Craft}.</p>\n<p>The snare automatically triggers, but it takes a -2 circumstance penalty to any applicable save DC, as well as any attack rolls or other checks the snare attempts.</p>"
        },
        "featType": {
            "value": "archetype"
        },
        "level": {
            "value": 4
        },
        "prerequisites": {
            "value": [
                {
                    "value": "Snarecrafter Dedication"
                }
            ]
        },
        "rules": [],
        "source": {
            "value": ""
        },
        "traits": {
            "custom": "",
            "rarity": {
                "value": "common"
            },
            "value": [
                "archetype",
                "manipulation"
            ]
        }
    },
    "effects": [],
    "flags": {},
    "img": "systems/pf2e/icons/features/feats/feats.webp",
    "name": "Surprise Snare",
    "type": "feat"
}
