{
    "_id": "SHpVHkPxtQggD9Cf",
    "data": {
        "actionCategory": {
            "value": ""
        },
        "actionType": {
            "value": "passive"
        },
        "actions": {
            "value": ""
        },
        "description": {
            "value": "<p>Your Swords training taught you to never lose hold of your weapon. You gain a +2 circumstance bonus to your Reflex DC when foes attempt to Disarm you. If you have the Deft Cooperation feat and critically succeed on a check to Aid an ally's attack roll or skill check, you gain a +2 circumstance bonus from Deft Cooperation (instead of a +1 bonus) the first time you attempt an attack roll or attempt a skill check where the bonus would apply.</p>\n<hr />\n<p><strong>Special</strong> You cannot select another dedication feat until you have gained two other feats from the Swordmaster archetype.</p>"
        },
        "featType": {
            "value": "class"
        },
        "level": {
            "value": 6
        },
        "prerequisites": {
            "value": [
                {
                    "value": "Strength, Dexterity, or Constitution 14"
                },
                {
                    "value": "member of the Pathfinder Society affiliated with the School of Swords"
                }
            ]
        },
        "rules": [],
        "source": {
            "value": ""
        },
        "traits": {
            "custom": "",
            "rarity": {
                "value": "uncommon"
            },
            "value": [
                "archetype",
                "dedication"
            ]
        }
    },
    "effects": [],
    "flags": {},
    "img": "systems/pf2e/icons/features/feats/feats.webp",
    "name": "Swordmaster Dedication",
    "type": "feat"
}
