{
    "_id": "HVwmYfSLhrnCksHV",
    "data": {
        "actionCategory": {
            "value": ""
        },
        "actionType": {
            "value": "action"
        },
        "actions": {
            "value": "1"
        },
        "description": {
            "value": "<p>You carefully track your prey's position and defenses, allowing you to follow up around obstacles that block your shot. Make a ranged weapon Strike against your hunted prey. You ignore the target's @Compendium[pf2e.conditionitems.Concealed]{Concealed} condition and all cover.</p>"
        },
        "featType": {
            "value": "class"
        },
        "level": {
            "value": 14
        },
        "location": "",
        "prerequisites": {
            "value": [
                {
                    "value": "Hunter's Aim"
                }
            ]
        },
        "rules": [],
        "source": {
            "value": ""
        },
        "traits": {
            "custom": "",
            "rarity": {
                "value": "common"
            },
            "value": [
                "concentrate",
                "ranger",
                "press"
            ]
        }
    },
    "effects": [],
    "flags": {},
    "img": "systems/pf2e/icons/features/feats/feats.webp",
    "name": "Targeting Shot",
    "type": "feat"
}
