{
    "_id": "sTUicpQkhiFVtMK1",
    "data": {
        "actionCategory": {
            "value": ""
        },
        "actionType": {
            "value": "reaction"
        },
        "actions": {
            "value": ""
        },
        "description": {
            "value": "<p><strong>Trigger</strong> You or an ally within 30 feet takes damage.<br /></p>\n<hr />\n<p>You transform unrealized spell energy into a protective shield. If you're a spontaneous spellcaster, expend a spell slot; if you're a prepared spellcaster, expend a spell prepared in a spell slot. Reduce the triggering damage by an amount equal to four times the level of the expended slot or spell.</p>"
        },
        "featType": {
            "value": "archetype"
        },
        "level": {
            "value": 10
        },
        "prerequisites": {
            "value": [
                {
                    "value": "Tempest-Sun Redirection"
                }
            ]
        },
        "rules": [],
        "source": {
            "value": ""
        },
        "traits": {
            "custom": "",
            "rarity": {
                "value": "common"
            },
            "value": [
                "archetype"
            ]
        }
    },
    "effects": [],
    "flags": {},
    "img": "systems/pf2e/icons/features/feats/feats.webp",
    "name": "Tempest-Sun Shielding",
    "type": "feat"
}
