{
    "_id": "7x1r2w7C7A4Uy7wG",
    "data": {
        "actionCategory": {
            "value": ""
        },
        "actionType": {
            "value": "reaction"
        },
        "actions": {
            "value": ""
        },
        "description": {
            "value": "<p><strong>Trigger</strong> An ally succeeds at a melee @Compendium[pf2e.actionspf2e.Strike]{Strike} against an opponent you are both adjacent to.</p>\n<hr />\n<p>You take advantage of the opening created by your ally to tip your foe off their feet. Attempt an Athletics check to @Compendium[pf2e.actionspf2e.Trip]{Trip} the target of the triggering attack.</p>"
        },
        "featType": {
            "value": "archetype"
        },
        "level": {
            "value": 10
        },
        "prerequisites": {
            "value": [
                {
                    "value": "Marshal Dedication"
                },
                {
                    "value": "trained in Athletics"
                }
            ]
        },
        "rules": [],
        "source": {
            "value": ""
        },
        "traits": {
            "custom": "",
            "rarity": {
                "value": "common"
            },
            "value": [
                "archetype"
            ]
        }
    },
    "effects": [],
    "flags": {},
    "img": "systems/pf2e/icons/features/feats/feats.webp",
    "name": "Topple Foe",
    "type": "feat"
}
