{
    "_id": "m9tKNsZQQjHdsmEN",
    "data": {
        "actionCategory": {
            "value": ""
        },
        "actionType": {
            "value": "passive"
        },
        "actions": {
            "value": ""
        },
        "description": {
            "value": "<p><strong>Access</strong> Erutaki ethnicity<br /></p>\n<hr />\n<p>You know the truth behind old stories that tell of sending a fetish of bone and sinew to seek vengeance. These old magics allow you to conjure constructs with ease. Add the @Compendium[pf2e.spells-srd.Summon Construct]{Summon Construct} spell to your spell list. The constructs you summon have a distinct ivory scrimshaw appearance, and if you include a drop of blood, lock of hair, or other portion of a creature's body as part of the spell's material component, the summoned construct gains a +4 status bonus to Perception checks to sense or locate that creature.</p>"
        },
        "featType": {
            "value": "ancestry"
        },
        "level": {
            "value": 1
        },
        "location": "",
        "prerequisites": {
            "value": [
                {
                    "value": "You have a spellcasting class feature with the divine or primal tradition"
                }
            ]
        },
        "rules": [],
        "source": {
            "value": ""
        },
        "traits": {
            "custom": "",
            "rarity": {
                "value": "uncommon"
            },
            "value": [
                "human"
            ]
        }
    },
    "effects": [],
    "flags": {},
    "img": "systems/pf2e/icons/features/feats/feats.webp",
    "name": "Tupilaq Carver",
    "type": "feat"
}
