{
    "_id": "6NXlg11EeCqjOmSg",
    "data": {
        "actionCategory": {
            "value": ""
        },
        "actionType": {
            "value": "passive"
        },
        "actions": {
            "value": ""
        },
        "description": {
            "value": "<p>Your connection to both life and undeath lets you twist the healing power of magic items to suit your own needs and aims. Whenever you Activate an Item to cast a @Compendium[pf2e.spells-srd.Heal]{Heal} spell, you can invert its energy to produce the effects of an equivalent @Compendium[pf2e.spells-srd.Harm]{Harm} spell instead.</p>"
        },
        "featType": {
            "value": "ancestry"
        },
        "level": {
            "value": 17
        },
        "location": "",
        "prerequisites": {
            "value": [
                {
                    "value": "ability to cast heal and harm"
                }
            ]
        },
        "rules": [],
        "source": {
            "value": ""
        },
        "traits": {
            "custom": "",
            "rarity": {
                "value": "common"
            },
            "value": [
                "dhampir"
            ]
        }
    },
    "effects": [],
    "flags": {},
    "img": "systems/pf2e/icons/features/feats/feats.webp",
    "name": "Twist Healing",
    "type": "feat"
}
