{
    "_id": "7iB1yacjF9fG6Rvn",
    "data": {
        "actionCategory": {
            "value": ""
        },
        "actionType": {
            "value": "action"
        },
        "actions": {
            "value": "2"
        },
        "description": {
            "value": "<p><strong>Frequency</strong> once per day</p>\n<hr />\n<p>You have been granted a sliver of the power of the yamaraj, the magistrates of the dead who agreed to allow duskwalkers to exist at all. You exhale a blast of icy wind and ravenous insects. This is a 30-foot cone that deals [[/r 14d6 #slashing]]{14d6 slashing damage} and [[/r 4d6 #persistent slashing]] @Compendium[pf2e.conditionitems.Persistent Damage]{Persistent Slashing Damage} (basic Reflex save using your class DC or spell DC, whichever is higher). On a critical failure, targets also become @Compendium[pf2e.conditionitems.Sickened]{Sickened} 2.</p>"
        },
        "featType": {
            "value": "ancestry"
        },
        "level": {
            "value": 17
        },
        "location": "",
        "prerequisites": {
            "value": []
        },
        "rules": [],
        "source": {
            "value": ""
        },
        "traits": {
            "custom": "",
            "rarity": {
                "value": "common"
            },
            "value": [
                "duskwalker"
            ]
        }
    },
    "effects": [],
    "flags": {},
    "img": "systems/pf2e/icons/features/feats/feats.webp",
    "name": "Yamaraj's Grandeur",
    "type": "feat"
}
