{
    "_id": "fLBNXULLPalAKlYe",
    "data": {
        "actionCategory": {
            "value": ""
        },
        "actionType": {
            "value": "passive"
        },
        "actions": {
            "value": ""
        },
        "description": {
            "value": "<p><strong>Minor Curse</strong>: Individuals who raise Cayden's passing displeasure awake as if from a hard night of drinking and find that drink tastes foul.</p>"
        },
        "featType": {
            "value": "curse"
        },
        "level": {
            "value": 0
        },
        "prerequisites": {
            "value": []
        },
        "rules": [],
        "source": {
            "value": ""
        },
        "traits": {
            "custom": "",
            "rarity": {
                "value": "common"
            },
            "selected": {},
            "value": []
        }
    },
    "effects": [],
    "flags": {},
    "img": "systems/pf2e/icons/deity/Cayden%20Cailean.webp",
    "name": "Cayden Cailean - Minor Curse",
    "type": "feat"
}
