{
    "_id": "DnlAmlrrKv3jwaOq",
    "data": {
        "actionCategory": {
            "value": ""
        },
        "actionType": {
            "value": "passive"
        },
        "actions": {
            "value": ""
        },
        "description": {
            "value": "<p><strong>Major Curse</strong>: Pharasma wills the end of your life and your lineage. You become unable to have children (or otherwise procreate by any means, including create spawn abilities) and are permanently @Compendium[pf2e.conditionitems.Doomed]{Doomed} 2.</p>"
        },
        "featType": {
            "value": "curse"
        },
        "level": {
            "value": 0
        },
        "prerequisites": {
            "value": []
        },
        "rules": [],
        "source": {
            "value": ""
        },
        "traits": {
            "custom": "",
            "rarity": {
                "value": "common"
            },
            "selected": {},
            "value": []
        }
    },
    "effects": [],
    "flags": {},
    "img": "systems/pf2e/icons/deity/Pharasma.webp",
    "name": "Pharasma - Major Curse",
    "type": "feat"
}
