{
    "_id": "0vmwZrIhm5rWHkYh",
    "data": {
        "actionCategory": {
            "value": ""
        },
        "actionType": {
            "value": "passive"
        },
        "actions": {
            "value": ""
        },
        "description": {
            "value": "<p><strong>Minor Boon (Single Use)</strong>: You see a momentary, prophetic glimpse of your fate.</p>\n<p>Once, you gain a +2 status bonus to a single check; you can apply this bonus after you determine the result, and it can potentially change the degree of success.</p>"
        },
        "featType": {
            "value": "deityboon"
        },
        "level": {
            "value": 0
        },
        "prerequisites": {
            "value": []
        },
        "rules": [],
        "source": {
            "value": ""
        },
        "traits": {
            "custom": "",
            "rarity": {
                "value": "common"
            },
            "selected": {},
            "value": []
        }
    },
    "effects": [],
    "flags": {},
    "img": "systems/pf2e/icons/deity/Pharasma.webp",
    "name": "Pharasma - Minor Boon",
    "type": "feat"
}
