{
    "_id": "hXM5jXezIki1cMI2",
    "data": {
        "additionalLanguages": {
            "count": 0,
            "custom": "",
            "value": [
                "abyssal",
                "aquan",
                "boggard",
                "draconic",
                "elven",
                "iruxi",
                "sylvan"
            ]
        },
        "boosts": {
            "0": {
                "value": [
                    "dex"
                ]
            },
            "1": {
                "value": [
                    "wis"
                ]
            },
            "2": {
                "value": [
                    "str",
                    "dex",
                    "con",
                    "int",
                    "wis",
                    "cha"
                ]
            }
        },
        "description": {
            "value": "<p><em>Gripplis are a shy and cautious people who generally seek to avoid being drawn into the complicated and dangerous affairs of others. Despite their outlook and small stature, gripplis often take bold and noble action when the situation demands it.</em></p>\n<hr />\n<p>Reclusive and canny, gripplis are treetop survivalists who harvest their homes' bounty and defend themselves against terrible threats. Their reliance on cunning and simple tools has led to gripplis being mischaracterized as primitive, yet this overlooks their shaping of the land with hidden orchards and camouflaged causeways that allow gripplis to live in prosperous peace. Gripplis are most likely to emerge from their forest homes to trade, explore, and combat threats that would despoil the world.</p>\n<h2>You Might...</h2>\n<ul>\n<li>Seek out clever ways to exploit your environment when overcoming challenges.</li>\n<li>Make friends slowly, concerned by cautionary tales of exploitative strangers.</li>\n<li>Be fiercely protective of your home or community.</li>\n</ul>\n<h2>Others Probably</h2>\n<ul>\n<li>Assume you dislike cities and people who live in them.</li>\n<li>Trust in your impartial, measured approach to understanding situations and solving problems.</li>\n<li>Give you space, fearing that touching you would prove toxic.</li>\n</ul>\n<h2>Physical Description</h2>\n<p>Gripplis resemble humanoid tree frogs, with oversized eyes, wide mouths, and gangly physiques. Their slight frames and large toes afford excellent grip while climbing, while their colorful skin provides reliable camouflage that varies by their home environment-green and brown for jungle-dwelling groups, blue and orange for riparian communities, and many other colors between. A grippli grows quickly, reaching adult size of about 2 feet in height about 3 years after hatching, though they’re only considered adults around age 12. Gripplis rarely live beyond 60 years, though exceptional individuals occasionally live as long as a century.</p>\n<h2>Society</h2>\n<p>Gripplis lead a sophisticated hunter-gatherer lifestyle with which they reshape the landscape to suit their needs: building spillways to trap fish, seeding fruit-bearing trees, sowing cover-granting foliage for future hunts, and more techniques that often escape an agriculturist’s eye. These strategies rely on community cooperation as well as dispersed populations, so gripplis commonly live in small villages, each part of a complex web of alliances and relationships. Reclusiveness has preserved grippli lives and lifestyles for millennia, yet they increasingly find themselves threatened by ancient evils and new explorers alike.</p>\n<h2>Alignment and Religion</h2>\n<p>Taught to wait, observe, and respect natural processes of life and death, many gripplis adopt neutral alignments. Those who take a more active role suppressing evils that take refuge in the jungles are often neutral good, most notably those rare fiend-keepers who absorb an evil being into their soul to contain and eventually transform its villainy through virtuous acts. Nature deities such as Gozreh or Erastil often earn gripplis' respect, yet communities often prefer less prominent, more intimate divinities such as empyreal lords, psychopomp ushers, or the fey Eldest.</p>\n<h2>Names</h2>\n<p>Grippli names often include resonant vowels and chirped consonants that remain difficult for non-gripplis to vocalize properly. Gripplis that travel widely often adopt one or more names more easily replicated by their associates.</p>\n<h3>Sample Names</h3>\n<p>Aalpo’ol, Bogwynne, Ctaprak, Eegru, Gpoun, Gruoksh, Hrrauti, Iopo, Iykiki, Kyrsiik, Mhruugu, Oplugo, Quaasol, Yolkuu, Ztaal</p>"
        },
        "flaws": {
            "0": {
                "value": [
                    "str"
                ]
            }
        },
        "hp": 6,
        "items": {
            "27c9l": {
                "id": "DRtaqOHXTRtGRIUT",
                "img": "systems/pf2e/icons/features/ancestry/low-light-vision.webp",
                "level": 1,
                "name": "Low-Light Vision",
                "pack": "pf2e.ancestryfeatures"
            }
        },
        "languages": {
            "custom": "",
            "value": [
                "common",
                "grippli"
            ]
        },
        "reach": 5,
        "rules": [],
        "size": "sm",
        "source": {
            "value": ""
        },
        "speed": 25,
        "traits": {
            "custom": "",
            "rarity": {
                "value": "uncommon"
            },
            "value": [
                "grippli",
                "humanoid"
            ]
        },
        "vision": "normal"
    },
    "effects": [],
    "flags": {},
    "img": "systems/pf2e/icons/default-icons/ancestry.svg",
    "name": "Grippli",
    "type": "ancestry"
}
