{
    "_id": "3LyOkV25p7wA181H",
    "data": {
        "description": {
            "value": "<p>Granted when someone uses @Compendium[pf2e.spells-srd.Guidance]{Guidance} on you, rendering you immune to the effect of the spell for the duration.</p>"
        },
        "duration": {
            "expiry": "turn-start",
            "sustained": false,
            "unit": "hours",
            "value": 1
        },
        "level": {
            "value": 1
        },
        "rules": [],
        "source": {
            "value": ""
        },
        "start": {
            "initiative": null,
            "value": 0
        },
        "target": null,
        "tokenIcon": {
            "show": true
        },
        "traits": {
            "custom": "",
            "rarity": {
                "value": "common"
            },
            "value": []
        }
    },
    "effects": [],
    "flags": {},
    "img": "systems/pf2e/icons/spells/guidance.webp",
    "name": "Effect: Guidance Immunity",
    "type": "effect"
}
