{
    "_id": "PNEGSVYhMKf6kQZ6",
    "data": {
        "description": {
            "value": "<p>Granted by @Compendium[pf2e.spells-srd.Call to Arms]{Call to Arms}.</p>"
        },
        "duration": {
            "expiry": "turn-start",
            "sustained": false,
            "unit": "minutes",
            "value": 1
        },
        "level": {
            "value": 1
        },
        "rules": [
            {
                "key": "PF2E.RuleElement.FlatModifier",
                "label": "Call to Arms",
                "selector": "initiative",
                "type": "status",
                "value": {
                    "brackets": [
                        {
                            "end": 5,
                            "start": 1,
                            "value": 2
                        },
                        {
                            "end": 8,
                            "start": 6,
                            "value": 3
                        },
                        {
                            "start": 9,
                            "value": 4
                        }
                    ],
                    "field": "item|data.level.value"
                }
            },
            {
                "key": "PF2E.RuleElement.TempHP",
                "value": {
                    "brackets": [
                        {
                            "end": 1,
                            "start": 1,
                            "value": 1
                        },
                        {
                            "end": 2,
                            "start": 2,
                            "value": 2
                        },
                        {
                            "end": 3,
                            "start": 3,
                            "value": 3
                        },
                        {
                            "end": 4,
                            "start": 4,
                            "value": 4
                        },
                        {
                            "end": 5,
                            "start": 5,
                            "value": 5
                        },
                        {
                            "end": 6,
                            "start": 6,
                            "value": 6
                        },
                        {
                            "end": 7,
                            "start": 7,
                            "value": 7
                        },
                        {
                            "end": 8,
                            "start": 8,
                            "value": 8
                        },
                        {
                            "end": 9,
                            "start": 9,
                            "value": 9
                        },
                        {
                            "end": 10,
                            "start": 10,
                            "value": 10
                        }
                    ],
                    "field": "item|data.level.value"
                }
            }
        ],
        "source": {
            "value": ""
        },
        "start": {
            "initiative": null,
            "value": 0
        },
        "target": null,
        "tokenIcon": {
            "show": true
        },
        "traits": {
            "custom": "",
            "rarity": {
                "value": "common"
            },
            "value": []
        }
    },
    "effects": [],
    "flags": {},
    "img": "systems/pf2e/icons/spells/call-to-arms.webp",
    "name": "Spell Effect: Call to Arms",
    "type": "effect"
}
