{
    "_id": "TwtUIEyenrtAbeiX",
    "data": {
        "description": {
            "value": "<p>Granted by @Compendium[pf2e.spells-srd.Tanglefoot]{Tanglefoot}.</p>\n<p>Vines hamper your movement, you take a -10-foot circumstance penalty to your Speeds.</p>\n<hr />\n<p><em>Note: the duration needs to be increased to 2 rounds when the spell is heightened to 2nd level, and to 1 minute when the spell is heightened to 4th level.</em></p>"
        },
        "duration": {
            "expiry": "turn-start",
            "sustained": false,
            "unit": "rounds",
            "value": 1
        },
        "level": {
            "value": 1
        },
        "rules": [
            {
                "key": "PF2E.RuleElement.FlatModifier",
                "selector": "speed",
                "type": "circumstance",
                "value": -10
            }
        ],
        "source": {
            "value": ""
        },
        "start": {
            "initiative": null,
            "value": 0
        },
        "target": null,
        "tokenIcon": {
            "show": true
        },
        "traits": {
            "custom": "",
            "rarity": {
                "value": "common"
            },
            "value": []
        }
    },
    "effects": [],
    "flags": {},
    "img": "systems/pf2e/icons/spells/tanglefoot.webp",
    "name": "Spell Effect: Tanglefoot",
    "type": "effect"
}
