{
    "_id": "iqtjMVl6rGQhX2k8",
    "data": {
        "description": {
            "value": "<p>Granted by casting @Compendium[pf2e.spells-srd.Elemental Motion]{Elemental Motion} if Air is your element.</p>"
        },
        "duration": {
            "expiry": "turn-start",
            "sustained": false,
            "unit": "minutes",
            "value": 1
        },
        "level": {
            "value": 3
        },
        "rules": [
            {
                "key": "PF2E.RuleElement.BaseSpeed",
                "selector": "fly",
                "value": "@attributes.speed.value"
            }
        ],
        "source": {
            "value": ""
        },
        "start": {
            "initiative": null,
            "value": 0
        },
        "target": null,
        "tokenIcon": {
            "show": true
        },
        "traits": {
            "custom": "",
            "rarity": {
                "value": "common"
            },
            "value": []
        }
    },
    "effects": [],
    "flags": {},
    "img": "systems/pf2e/icons/spells/elemental-motion.webp",
    "name": "Spell Effect: Elemental Motion (Air)",
    "type": "effect"
}
