{
    "_id": "giVkjJeVZjhbR6eA",
    "data": {
        "attributes": {
            "ac": {
                "value": 10
            },
            "hardness": 13,
            "hasHealth": true,
            "hp": {
                "details": "",
                "max": 52,
                "temp": 0,
                "tempmax": 0,
                "value": 52
            },
            "stealth": {
                "details": "<p>(trained) to smell the poison gas or hear it hissing</p>",
                "value": 14
            }
        },
        "creatureType": "",
        "details": {
            "description": "<p>A spring slams and locks the room's door before four hidden gas vents begin pumping poison gas into the chamber.</p>",
            "disable": "<p>Four DC 20 Thievery checks to block the gas vents, or a DC 26 Thievery check to unlock the door and escape</p>",
            "isComplex": true,
            "level": {
                "value": 5
            },
            "reset": "The trap must be manually rearmed by unblocking the vents or replacing the poison gas tank in area <b>E30</b>.",
            "routine": "<p>(1 action) Each round on its initiative count, the trap pumps more toxic gas into the room.</p>\n<p>Any breathing creature in the room takes [[/r 4d6 #poison]]{4d6 poison damage} (a successful <span data-pf2-saving-throw=\"fortitude\" data-pf2-traits=\"poison,damaging-effect\" data-pf2-label=\"Gas Trap DC\" data-pf2-dc=\"22\" data-pf2-show-dc=\"gm\">Fortitude</span> save halves the damage taken). If a creature acts before the trap on the first round, it has the option of holding its breath to postpone taking damage from the trap-holding one's breath after the trap's first action has no effect, since the air in the creature's lungs is already tainted. Locating and blocking one of the hidden gas vents reduces the poison damage by 1d6-if all four are blocked, the trap is disabled, though the door remains locked. Otherwise, the trap functions for 1 minute before all the gas is expended and characters in the room cease taking damage, after which the trap ventilates the room for 1 additional minute.</p>"
        },
        "saves": {
            "fortitude": {
                "saveDetail": "",
                "value": 0
            },
            "reflex": {
                "saveDetail": "",
                "value": 0
            },
            "will": {
                "saveDetail": "",
                "value": 0
            }
        },
        "source": {
            "value": "Pathfinder #157: Devil at the Dreaming Palace"
        },
        "statusEffects": [],
        "traits": {
            "ci": [],
            "di": {
                "custom": "",
                "selected": {},
                "value": [
                    "precision",
                    "critical-hits",
                    "object-immunities"
                ]
            },
            "dr": [],
            "dv": [],
            "rarity": {
                "value": "common"
            },
            "size": {
                "value": "med"
            },
            "traits": {
                "custom": "",
                "value": [
                    "mechanical",
                    "trap"
                ]
            }
        }
    },
    "effects": [],
    "flags": {},
    "img": "systems/pf2e/icons/default-icons/hazard.svg",
    "items": [
        {
            "_id": "chuMKB6cHYONy4NC",
            "data": {
                "actionCategory": {
                    "value": ""
                },
                "actionType": {
                    "value": "reaction"
                },
                "actions": {
                    "value": ""
                },
                "description": {
                    "value": "<p><strong>Trigger</strong> A creature opens one of the drawers;</p>\n<p><strong>Effect</strong> The door to the room slams shut and locks and the trap rolls initiative. (The trap can also be triggered manually or disarmed from area <strong>E30</strong>.)</p>"
                },
                "requirements": {
                    "value": ""
                },
                "rules": [],
                "slug": null,
                "source": {
                    "value": ""
                },
                "traits": {
                    "custom": "",
                    "rarity": {
                        "value": "common"
                    },
                    "value": []
                },
                "trigger": {
                    "value": ""
                },
                "weapon": {
                    "value": ""
                }
            },
            "effects": [],
            "flags": {},
            "img": "systems/pf2e/icons/actions/Reaction.webp",
            "name": "Toxic Gas",
            "sort": 100000,
            "type": "action"
        }
    ],
    "name": "Gas Trap",
    "token": {
        "disposition": 0,
        "height": 1,
        "img": "systems/pf2e/icons/default-icons/hazard.svg",
        "name": "Gas Trap",
        "width": 1
    },
    "type": "hazard"
}
