{
    "_id": "2goYo6VNbwC6aKF1",
    "data": {
        "actionCategory": {
            "value": ""
        },
        "actionType": {
            "value": "passive"
        },
        "actions": {
            "value": ""
        },
        "description": {
            "value": "<p>Choose a bloodline that gives you your spellcasting talent. This choice determines the type of spells you cast and the spell list you choose them from, additional spells you learn, and additional trained skills. You also gain Focus Points and special focus spells based on your bloodline. The bloodlines presented are as follows:</p>\n<ul>\n<li><strong>@Compendium[pf2e.classfeatures.Bloodline: Aberrant]{Aberrant}</strong>: A strange and unknowable influence gives you occult spells.</li>\n<li><strong>@Compendium[pf2e.classfeatures.Bloodline: Angelic]{Angelic}</strong>: Holy grace bestows divine spells upon you.</li>\n<li><strong>@Compendium[pf2e.classfeatures.Bloodline: Demonic]{Demonic}</strong>: A sinful corruption gives you divine spells.</li>\n<li><strong>@Compendium[pf2e.classfeatures.Bloodline: Diabolic]{Diabolic}</strong>: A bond with devils gives you divine spells.</li>\n<li><strong>@Compendium[pf2e.classfeatures.Bloodline: Draconic]{Draconic}</strong>: The blood of dragons grants you arcane spells.</li>\n<li><strong>@Compendium[pf2e.classfeatures.Bloodline: Elemental]{Elemental}</strong>: The power of the elements manifests in you as primal spells.</li>\n<li><strong>@Compendium[pf2e.classfeatures.Bloodline: Fey]{Fey}</strong>: Influence from the fey gives you primal spells.</li>\n<li><strong>@Compendium[pf2e.classfeatures.Bloodline: Genie]{Genie}</strong>: Through lineage, magic, or wishes made real, the blood of a noble genie flows through your veins.</li>\n<li><strong>@Compendium[pf2e.classfeatures.Bloodline: Hag]{Hag}</strong>: The blight of a hag has given you occult spells.</li>\n<li><strong>@Compendium[pf2e.classfeatures.Bloodline: Imperial]{Imperial}</strong>: An ancient power grants you arcane spells.</li>\n<li><strong>@Compendium[pf2e.classfeatures.Bloodline: Nymph]{Nymph}</strong>: One of your ancestors was inspired by a nymph, or perhaps was a nymph themself, and now the beauty of nature lives in you.</li>\n<li><strong>@Compendium[pf2e.classfeatures.Bloodline: Phoenix]{Phoenix}</strong>: The healing fire a phoenix's blessing grants you primal spells.</li>\n<li><strong>@Compendium[pf2e.classfeatures.Bloodline: Psychopomp]{Psychopomp}</strong>: For good or ill, your ancestors' deeds drew the attention of psychopomps, or you might somehow count one in your family tree. The presence of these shepherds of souls and enemies of undeath has left an indelible mark on you.</li>\n<li><strong>@Compendium[pf2e.classfeatures.Bloodline: Shadow]{Shadow}</strong>: Whether due to a velstrac's manipulations or a planar jaunt gone horribly wrong, your bloodline was infused with a vein of shadow.</li>\n<li><strong>@Compendium[pf2e.classfeatures.Bloodline: Undead]{Undead}</strong>: The touch of death gives you divine spells.</li>\n<li><strong>@Compendium[pf2e.classfeatures.Bloodline: Wyrmblessed]{Wyrmblessed}</strong>: A draconic blessing grants you divine spells.</li>\n</ul>"
        },
        "featType": {
            "value": "classfeature"
        },
        "level": {
            "value": 1
        },
        "location": "",
        "prerequisites": {
            "value": []
        },
        "rules": [],
        "source": {
            "value": ""
        },
        "traits": {
            "custom": "",
            "rarity": {
                "value": "common"
            },
            "value": [
                "sorcerer"
            ]
        }
    },
    "effects": [],
    "flags": {},
    "img": "systems/pf2e/icons/features/classes/bloodline.webp",
    "name": "Bloodline",
    "type": "feat"
}
