{
    "_id": "3OKTrm5rJdxFn4dR",
    "data": {
        "actionCategory": {
            "value": ""
        },
        "actionType": {
            "value": "passive"
        },
        "actions": {
            "value": ""
        },
        "description": {
            "value": "<p>Celestial bodies great and small exert influence on you, giving you sublime cosmic power. Perhaps you see the glittering stars as a divine blessing, or perhaps you feel drawn to the infinitely dark spaces between. You might uphold deities like Desna, Sarenrae, or the deific lovers Shizuru and Tsukiyo who represent the sun and the moon-or you might draw power from dark entities from beyond the stars, like certain Outer Gods, or destructive gods of the night like Zon-Kuthon or the rat goddess Lao Shu Po.</p>\n<h3>Curse of the Sky's Call</h3>\n<p>You have your head in the clouds-and not just figuratively. Your body is drawn toward the heavens, making you lighter and less substantial than you should be. Your eyes glow with starry light, and your hair and clothing float and drift around you.</p>"
        },
        "featType": {
            "value": "classfeature"
        },
        "level": {
            "value": 2
        },
        "location": "",
        "prerequisites": {
            "value": []
        },
        "rules": [],
        "source": {
            "value": ""
        },
        "traits": {
            "custom": "",
            "rarity": {
                "value": "common"
            },
            "value": [
                "oracle"
            ]
        }
    },
    "effects": [],
    "flags": {},
    "img": "systems/pf2e/icons/features/classes/cosmos-mystery.webp",
    "name": "Cosmos Mystery (Multiclass)",
    "type": "feat"
}
