{
    "_id": "Cq6NjvcKZOMySBVj",
    "data": {
        "actionCategory": {
            "value": ""
        },
        "actionType": {
            "value": "passive"
        },
        "actions": {
            "value": ""
        },
        "description": {
            "value": "<p>You move like the wind. You gain a +10-foot status bonus to your Speed whenever you're not wearing armor. The bonus increases by 5 feet for every 4 levels you have beyond 3rd.</p>"
        },
        "featType": {
            "value": "classfeature"
        },
        "level": {
            "value": 3
        },
        "location": "",
        "prerequisites": {
            "value": []
        },
        "rules": [
            {
                "key": "PF2E.RuleElement.FlatModifier",
                "label": "Incredible Movement",
                "selector": "land-speed",
                "type": "status",
                "value": {
                    "brackets": [
                        {
                            "end": 6,
                            "start": 3,
                            "value": 10
                        },
                        {
                            "end": 10,
                            "start": 7,
                            "value": 15
                        },
                        {
                            "end": 14,
                            "start": 11,
                            "value": 20
                        },
                        {
                            "end": 18,
                            "start": 15,
                            "value": 25
                        },
                        {
                            "start": 19,
                            "value": 30
                        }
                    ]
                }
            }
        ],
        "source": {
            "value": ""
        },
        "traits": {
            "custom": "",
            "rarity": {
                "value": "common"
            },
            "value": [
                "monk"
            ]
        }
    },
    "effects": [],
    "flags": {},
    "img": "systems/pf2e/icons/features/classes/incredible-movement.webp",
    "name": "Incredible Movement",
    "type": "feat"
}
