{
    "_id": "88Q33X2a0iYPkbzd",
    "data": {
        "actionCategory": {
            "value": ""
        },
        "actionType": {
            "value": "passive"
        },
        "actions": {
            "value": ""
        },
        "description": {
            "value": "<p>Your rage intensifies and lets you burst into action. Your proficiency rank for your barbarian class DC increases to expert.</p>\n<p>You gain the @Compendium[pf2e.actionspf2e.Mighty Rage]{Mighty Rage} free action.</p>"
        },
        "featType": {
            "value": "classfeature"
        },
        "level": {
            "value": 11
        },
        "location": "5e5WBG5gTDFmKi3i",
        "prerequisites": {
            "value": []
        },
        "rules": [
            {
                "key": "ActiveEffectLike",
                "mode": "upgrade",
                "path": "data.attributes.classDC.rank",
                "value": 2
            }
        ],
        "source": {
            "value": ""
        },
        "traits": {
            "custom": "",
            "rarity": {
                "value": "common"
            },
            "value": [
                "barbarian"
            ]
        }
    },
    "effects": [],
    "flags": {},
    "img": "systems/pf2e/icons/features/classes/mighty-rage.webp",
    "name": "Mighty Rage",
    "type": "feat"
}
