{
    "_id": "tvdb1jkjl2bRZjSp",
    "data": {
        "actionCategory": {
            "value": ""
        },
        "actionType": {
            "value": "passive"
        },
        "actions": {
            "value": ""
        },
        "description": {
            "value": "<p>You focus on bizarre mutagenic transformations that sacrifice one aspect of a creature's physical or psychological being in order to strengthen another. You start with the formulas for two 1st-level mutagens in your formula book, in addition to your other formulas.</p>\n<p>Your research field adds a number of formulas to your formula book; these are your signature items. When using a batch of @Compendium[pf2e.classfeatures.Infused Reagents]{Infused Reagents} to create your signature items using @Compendium[pf2e.classfeatures.Advanced Alchemy]{Advanced Alchemy}, you create three items instead of two. Each time you gain a level, you can swap one of your signature items with another formula in your formula book. This new signature item must be on your research field's list of possible signature items.</p>\n<p>You gain the following free action.</p>\n<h3 class=\"title\">@Compendium[pf2e.actionspf2e.Mutagenic Flashback]{Mutagenic Flashback}</h3>\n<p><strong>Frequency</strong> once per day</p>\n<hr />\n<p>You experience a brief resurgence of a mutagen. Choose one mutagen you've consumed since your last daily preparations. You gain the effects of that mutagen for 1 minute.</p>\n<h2 class=\"title\">@Compendium[pf2e.classfeatures.Field Discovery (Mutagenist)]{Field Discovery}<span style=\"float: right;\">Level 5</span></h2>\n<p>When using Advanced Alchemy to make mutagens during your daily preparations, you can use a batch of reagents to create any three mutagens instead of just two of the same mutagen.</p>\n<h2 class=\"title\">@Compendium[pf2e.classfeatures.Perpetual Infusions (Mutagenist)]{Perpetual Infusions}<span style=\"float: right;\">Level 7</span></h2>\n<p>You have learned how to create perpetual alchemical infusions that can provide a near-infinite supply of certain simple items. You gain the ability to create two 1st-level alchemical items using Quick Alchemy without spending a batch of infused reagents. The items you can select depend on your research field and must be in your formula book.</p>\n<p>Choose two of the following formulas: @Compendium[pf2e.equipment-srd.Bestial Mutagen (Lesser)]{Bestial Mutagen (Lesser)}, @Compendium[pf2e.equipment-srd.Cognitive Mutagen (Lesser)]{Cognitive Mutagen (Lesser)}, @Compendium[pf2e.equipment-srd.Juggernaut Mutagen (Lesser)]{Juggernaut Mutagen (Lesser)}, @Compendium[pf2e.equipment-srd.Quicksilver Mutagen (Lesser)]{Quicksilver Mutagen (Lesser)}, @Compendium[pf2e.equipment-srd.Serene Mutagen (Lesser)]{Serene Mutagen (Lesser)}, @Compendium[pf2e.equipment-srd.Silvertongue Mutagen (Lesser)]{Silvertongue Mutagen (Lesser)}.</p>\n<h2 class=\"title\">@Compendium[pf2e.classfeatures.Perpetual Potency (Mutagenist)]{Perpetual Potency}<span style=\"float: right;\">Level 11</span></h2>\n<p>Your perpetual infusions improve, allowing you to use @Compendium[pf2e.classfeatures.Quick Alchemy]{Quick Alchemy} to create more powerful items with no cost. The items you can select depend on your research field and must be in your formula book.</p>\n<p>The moderate versions of the mutagens you chose for perpetual infusions.</p>\n<h2 class=\"title\">@Compendium[pf2e.classfeatures.Greater Field Discovery (Mutagenist)]{Greater Field Discovery}<span style=\"float: right;\">Level 13</span></h2>\n<p>If you imbibe another mutagen while you are under the effects of a mutagen that you created, you can gain the benefits and the drawbacks of both mutagens at once, despite the fact that they both have the polymorph trait and would not normally function together.</p>\n<p>If you come under the effects of any further mutagens while benefiting from two mutagens, you lose the benefit of one of the former mutagens of your choice, while retaining the drawbacks of all the mutagens.</p>\n<p>If you are under the effects of two mutagens and you come under the effect of a non-mutagen polymorph effect, you lose the benefits of the mutagens while retaining the drawbacks of both.</p>\n<h2 class=\"title\">@Compendium[pf2e.classfeatures.Perpetual Perfection (Mutagenist)]{Perpetual Perfection}<span style=\"float: right;\">Level 17</span></h2>\n<p>You have perfected your perpetual infusions, allowing you to use Quick Alchemy to create even more powerful items at no cost. The items you can select depend on your research field and must be in your formula book.</p>\n<p>The greater versions of the mutagens you chose for perpetual infusions.</p>"
        },
        "featType": {
            "value": "classfeature"
        },
        "level": {
            "value": 1
        },
        "location": "",
        "prerequisites": {
            "value": []
        },
        "rules": [],
        "source": {
            "value": ""
        },
        "traits": {
            "custom": "",
            "rarity": {
                "value": "common"
            },
            "value": [
                "alchemist"
            ]
        }
    },
    "effects": [],
    "flags": {},
    "img": "systems/pf2e/icons/features/classes/mutagenist.webp",
    "name": "Mutagenist",
    "type": "feat"
}
