{
    "_id": "zT6QiTMxxj8JYoN9",
    "data": {
        "actionCategory": {
            "value": ""
        },
        "actionType": {
            "value": "passive"
        },
        "actions": {
            "value": ""
        },
        "description": {
            "value": "<p>Using your familiar as a conduit, your patron provides you the power to cast spells. You can cast spells using the @Compendium[pf2e.actionspf2e.Cast a Spell]{Cast a Spell} activity, and you can supply material, somatic, and verbal components when casting spells.</p>\n<p>At 1st level, you can prepare up to two 1st-level spells and five cantrips each morning from the spells your familiar knows. Prepared spells remain available to you until you cast them or until you prepare your spells again. The number of spells you can prepare is called your spell slots.</p>\n<p>As you increase in level as a witch, your number of spell slots and the highest level of spells you can cast from spell slots increase.</p>\n<p>Some of your spells require you to attempt a spell attack roll to see how effective they are, or have your enemies roll against your spell DC (typically by attempting a saving throw). Since your key ability is Intelligence, your spell attack rolls and spell DCs use your Intelligence modifier.</p>\n<h3>Heightening Spells</h3>\n<p>When you get spell slots of 2nd level and higher, you can fill those slots with stronger versions of lower-level spells. This increases the spell's level, heightening it to match the spell slot. Many spells have specific improvements when they are heightened to certain levels.</p>\n<h3>Cantrips</h3>\n<p>A cantrip is a special type of spell that doesn't use spell slots. You can cast a cantrip at will, any number of times per day. A cantrip is always automatically heightened to half your level rounded up-this is usually equal to the highest level of spell you can cast as a witch. For example, as a 1st-level witch, your cantrips are 1st-level spells, and as a 5th-level witch, your cantrips are 3rd-level spells.</p>"
        },
        "featType": {
            "value": "classfeature"
        },
        "level": {
            "value": 1
        },
        "location": "",
        "prerequisites": {
            "value": []
        },
        "rules": [],
        "source": {
            "value": ""
        },
        "traits": {
            "custom": "",
            "rarity": {
                "value": "common"
            },
            "value": [
                "witch"
            ]
        }
    },
    "effects": [],
    "flags": {},
    "img": "systems/pf2e/icons/features/classes/witch-spellcasting.webp",
    "name": "Witch Spellcasting",
    "type": "feat"
}
