{
    "_id": "HNEUSYnInffvGPHK",
    "data": {
        "abilities": {
            "cha": {
                "mod": 4
            },
            "con": {
                "mod": 4
            },
            "dex": {
                "mod": 6
            },
            "int": {
                "mod": 0
            },
            "str": {
                "mod": -5
            },
            "wis": {
                "mod": 4
            }
        },
        "attributes": {
            "ac": {
                "details": "",
                "value": 25
            },
            "allSaves": {
                "value": ""
            },
            "hp": {
                "details": "(negative healing)",
                "max": 95,
                "temp": 0,
                "value": 95
            },
            "initiative": {
                "ability": "perception"
            },
            "perception": {
                "value": 15
            },
            "shield": {
                "ac": 0,
                "brokenThreshold": 0,
                "hardness": 0,
                "max": 0,
                "value": 0
            },
            "speed": {
                "otherSpeeds": [
                    {
                        "exceptions": "",
                        "label": "Fly",
                        "type": "fly",
                        "value": "40"
                    }
                ],
                "value": "0"
            }
        },
        "details": {
            "alignment": {
                "value": "LE"
            },
            "creatureType": "Undead",
            "flavorText": "When an evil mortal creature dies, it sometimes returns to haunt the area of its death as a specter, a hateful remnant, always seeking to slay others-particularly humanoids-in an attempt to distribute its pain among as many souls as it can. A specter maintains a strange semblance of its prior identity, but with a corrupted sense of purpose. It cannot be reasoned with.<br /><br /> A specter denied the opportunity to harm living humanoids grows increasingly agonized and irrational, akin to the mindset of a starving person forever denied a release from agony through death.<br /><br />",
            "level": {
                "value": 7
            },
            "source": {
                "value": "Pathfinder Bestiary 2"
            }
        },
        "resources": {},
        "saves": {
            "fortitude": {
                "saveDetail": "",
                "value": 13
            },
            "reflex": {
                "saveDetail": "",
                "value": 17
            },
            "will": {
                "saveDetail": "",
                "value": 15
            }
        },
        "traits": {
            "attitude": {
                "value": "hostile"
            },
            "ci": [],
            "di": {
                "custom": "",
                "value": [
                    "death effects",
                    "disease",
                    "paralyzed",
                    "poison",
                    "precision",
                    "unconscious"
                ]
            },
            "dr": [
                {
                    "exceptions": "force, ghost touch, or positive, double vs non-magical",
                    "label": "All",
                    "type": "all",
                    "value": "5"
                }
            ],
            "dv": [],
            "languages": {
                "custom": "telepathy 100 feet (with spectral thralls only)",
                "selected": [],
                "value": [
                    "common",
                    "necril"
                ]
            },
            "rarity": {
                "value": "common"
            },
            "senses": {
                "value": "darkvision"
            },
            "size": {
                "value": "med"
            },
            "traits": {
                "custom": "",
                "value": [
                    "incorporeal",
                    "undead"
                ]
            }
        }
    },
    "effects": [],
    "flags": {},
    "img": "systems/pf2e/icons/default-icons/npc.svg",
    "items": [
        {
            "_id": "zjVbARImBBAx6EKv",
            "data": {
                "attack": {
                    "value": ""
                },
                "attackEffects": {
                    "custom": "",
                    "value": []
                },
                "bonus": {
                    "value": 16
                },
                "damageRolls": {
                    "0": {
                        "damage": "2d8+8",
                        "damageType": "negative"
                    }
                },
                "description": {
                    "value": ""
                },
                "rules": [],
                "slug": null,
                "source": {
                    "value": ""
                },
                "traits": {
                    "custom": "",
                    "rarity": {
                        "value": "common"
                    },
                    "value": [
                        "finesse"
                    ]
                },
                "weaponType": {
                    "value": "melee"
                }
            },
            "effects": [],
            "flags": {},
            "img": "systems/pf2e/icons/default-icons/melee.svg",
            "name": "Vile Touch",
            "sort": 100000,
            "type": "melee"
        },
        {
            "_id": "VzobMtkoa82xICPm",
            "data": {
                "actionCategory": {
                    "value": "interaction"
                },
                "actionType": {
                    "value": "passive"
                },
                "actions": {
                    "value": ""
                },
                "description": {
                    "value": "<p>A monster with darkvision can see perfectly well in areas of darkness and dim light, though such vision is in black and white only. Some forms of magical darkness, such as a 4th-level @Compendium[pf2e.spells-srd.Darkness]{Darkness} spell, block normal darkvision. A monster with @Compendium[pf2e.bestiary-ability-glossary-srd.Greater Darkvision]{Greater Darkvision}, however, can see through even these forms of magical darkness.</p>"
                },
                "requirements": {
                    "value": ""
                },
                "rules": [],
                "slug": "darkvision",
                "source": {
                    "value": ""
                },
                "traits": {
                    "custom": "",
                    "rarity": {
                        "value": "common"
                    },
                    "value": []
                },
                "trigger": {
                    "value": ""
                },
                "weapon": {
                    "value": ""
                }
            },
            "effects": [],
            "flags": {
                "core": {
                    "sourceId": "Compendium.pf2e.bestiary-ability-glossary-srd.qCCLZhnp2HhP3Ex6"
                }
            },
            "img": "systems/pf2e/icons/default-icons/action.svg",
            "name": "Darkvision",
            "sort": 200000,
            "type": "action"
        },
        {
            "_id": "9yk5MBYML8Z0OmtD",
            "data": {
                "actionCategory": {
                    "value": "interaction"
                },
                "actionType": {
                    "value": "passive"
                },
                "actions": {
                    "value": ""
                },
                "description": {
                    "value": "<p>A monster with telepathy can communicate mentally with any creatures within the listed radius, as long as they share a language. This doesn't give any special access to their thoughts, and communicates no more information than normal speech would.</p>"
                },
                "requirements": {
                    "value": ""
                },
                "rules": [],
                "slug": "telepathy",
                "source": {
                    "value": ""
                },
                "traits": {
                    "custom": "",
                    "rarity": {
                        "value": "common"
                    },
                    "value": [
                        "aura",
                        "divination",
                        "magical"
                    ]
                },
                "trigger": {
                    "value": ""
                },
                "weapon": {
                    "value": ""
                }
            },
            "effects": [],
            "flags": {
                "core": {
                    "sourceId": "Compendium.pf2e.bestiary-ability-glossary-srd.kdhbPaBMK1d1fpbA"
                }
            },
            "img": "systems/pf2e/icons/default-icons/mystery-man.svg",
            "name": "Telepathy (with spectral thralls only)",
            "sort": 300000,
            "type": "action"
        },
        {
            "_id": "ZqBQutg0Cvs5YcxR",
            "data": {
                "actionCategory": {
                    "value": "defensive"
                },
                "actionType": {
                    "value": "passive"
                },
                "actions": {
                    "value": ""
                },
                "description": {
                    "value": "<p>A creature with negative healing draws health from negative energy rather than positive energy. It is damaged by positive damage and is not healed by positive healing effects. It does not take negative damage, and it is healed by negative effects that heal undead.</p>"
                },
                "requirements": {
                    "value": ""
                },
                "rules": [],
                "slug": "negative-healing",
                "source": {
                    "value": ""
                },
                "traits": {
                    "custom": "",
                    "rarity": {
                        "value": "common"
                    },
                    "value": []
                },
                "trigger": {
                    "value": ""
                },
                "weapon": {
                    "value": ""
                }
            },
            "effects": [],
            "flags": {
                "core": {
                    "sourceId": "Compendium.pf2e.bestiary-ability-glossary-srd.TTCw5NusiSSkJU1x"
                }
            },
            "img": "systems/pf2e/icons/default-icons/action.svg",
            "name": "Negative Healing",
            "sort": 400000,
            "type": "action"
        },
        {
            "_id": "BPJS4QzIXUC3Zmwf",
            "data": {
                "actionCategory": {
                    "value": "defensive"
                },
                "actionType": {
                    "value": "passive"
                },
                "actions": {
                    "value": ""
                },
                "description": {
                    "value": "<p>30 feet, DC 22</p>\n<p>A creature that first enters the area must attempt a Will save. Regardless of the result of the saving throw, the creature is temporarily immune to this monster's Frightful Presence for 1 minute.</p>\n<p><strong>Critical Success</strong> The creature is unaffected by the presence.</p>\n<p><strong>Success</strong> The creature is @Compendium[pf2e.conditionitems.Frightened]{Frightened 1}.</p>\n<p><strong>Failure</strong> The creature is @Compendium[pf2e.conditionitems.Frightened]{Frightened 2}.</p>\n<p><strong>Critical Failure</strong> The creature is @Compendium[pf2e.conditionitems.Frightened]{Frightened 4}.</p>"
                },
                "requirements": {
                    "value": ""
                },
                "rules": [],
                "slug": "frightful-presence",
                "source": {
                    "value": ""
                },
                "traits": {
                    "custom": "",
                    "rarity": {
                        "value": "common"
                    },
                    "value": [
                        "aura",
                        "emotion",
                        "fear",
                        "mental"
                    ]
                },
                "trigger": {
                    "value": ""
                },
                "weapon": {
                    "value": ""
                }
            },
            "effects": [],
            "flags": {
                "core": {
                    "sourceId": "Compendium.pf2e.bestiary-ability-glossary-srd.etMnv73EIdEZrYYu"
                }
            },
            "img": "systems/pf2e/icons/default-icons/mystery-man.svg",
            "name": "Frightful Presence",
            "sort": 500000,
            "type": "action"
        },
        {
            "_id": "RGaUdIjwMpgnNYGg",
            "data": {
                "actionCategory": {
                    "value": "defensive"
                },
                "actionType": {
                    "value": "passive"
                },
                "actions": {
                    "value": ""
                },
                "description": {
                    "value": "<p>A specter that goes for more than a month without dealing negative damage to a living humanoid becomes desperate and almost feral. It changes alignment from lawful evil to chaotic evil, loses control of any corrupted thralls it might have, and becomes @Compendium[pf2e.conditionitems.Quickened]{Quickened}. It can use its additional action only to make vile touch Strikes against humanoid targets. At the end of any turn in which it deals any amount of negative damage to a living humanoid, it reverts to lawful evil and is no longer quickened, but any thralls it lost control of remain free.</p>"
                },
                "requirements": {
                    "value": ""
                },
                "rules": [],
                "slug": null,
                "source": {
                    "value": ""
                },
                "traits": {
                    "custom": "",
                    "rarity": {
                        "value": "common"
                    },
                    "value": [
                        "humanoid"
                    ]
                },
                "trigger": {
                    "value": ""
                },
                "weapon": {
                    "value": ""
                }
            },
            "effects": [],
            "flags": {},
            "img": "systems/pf2e/icons/default-icons/mystery-man.svg",
            "name": "Pain Starvation",
            "sort": 600000,
            "type": "action"
        },
        {
            "_id": "qh8LFXVLWjILfZZx",
            "data": {
                "actionCategory": {
                    "value": "defensive"
                },
                "actionType": {
                    "value": "passive"
                },
                "actions": {
                    "value": ""
                },
                "description": {
                    "value": "<p>A specter caught in sunlight is @Compendium[pf2e.conditionitems.Clumsy]{Clumsy 2} and @Compendium[pf2e.conditionitems.Slowed]{Slowed 2} for as long as it remains in the sunlight.</p>"
                },
                "requirements": {
                    "value": ""
                },
                "rules": [],
                "slug": null,
                "source": {
                    "value": ""
                },
                "traits": {
                    "custom": "",
                    "rarity": {
                        "value": "common"
                    },
                    "value": []
                },
                "trigger": {
                    "value": ""
                },
                "weapon": {
                    "value": ""
                }
            },
            "effects": [],
            "flags": {},
            "img": "systems/pf2e/icons/actions/Passive.webp",
            "name": "Sunlight Powerlessness",
            "sort": 700000,
            "type": "action"
        },
        {
            "_id": "OSiq1CXChzTT7udW",
            "data": {
                "actionCategory": {
                    "value": "offensive"
                },
                "actionType": {
                    "value": "action"
                },
                "actions": {
                    "value": "2"
                },
                "description": {
                    "value": "<p>The specter makes a vile touch Strike. If it damages a living creature, the specter gains 5 temporary Hit Points and the target creature must attempt a <span data-pf2-check=\"will\" data-pf2-dc=\"24\" data-pf2-traits=\"curse,divine,enchantment,incapacitation,mental\" data-pf2-label=\"Spectral Corruption DC\" data-pf2-show-dc=\"gm\">Will</span> save to avoid becoming corrupted.</p>\n<hr />\n<p><strong>Critical Success</strong> The creature is unaffected and is temporarily immune to spectral corruption for 1 minute.</p>\n<p><strong>Success</strong> The creature is @Compendium[pf2e.conditionitems.Stupefied]{Stupefied 2} for 1 hour.</p>\n<p><strong>Failure</strong> The creature succumbs to the corruption and becomes a spectral thrall temporarily. The creature is @Compendium[pf2e.conditionitems.Controlled]{Controlled} by the specter, obeying the specter's telepathic or spoken orders, though a spectral thrall does not obey obviously self-destructive orders. This lasts until the end of the thrall's next turn, at which point it is no longer controlled but becomes @Compendium[pf2e.conditionitems.Stupefied]{Stupefied 2} for 1 hour.</p>\n<p><strong>Critical Failure</strong> As failure, but the duration is unlimited. The thrall can attempt a new Will save at the end of each of its turns; on a success, it is no longer controlled by the specter but becomes @Compendium[pf2e.conditionitems.Stupefied]{Stupefied 2} for 1 hour.</p>"
                },
                "requirements": {
                    "value": ""
                },
                "rules": [],
                "slug": null,
                "source": {
                    "value": ""
                },
                "traits": {
                    "custom": "",
                    "rarity": {
                        "value": "common"
                    },
                    "value": [
                        "curse",
                        "divine",
                        "enchantment",
                        "incapacitation",
                        "mental"
                    ]
                },
                "trigger": {
                    "value": ""
                },
                "weapon": {
                    "value": ""
                }
            },
            "effects": [],
            "flags": {},
            "img": "systems/pf2e/icons/actions/TwoActions.webp",
            "name": "Spectral Corruption",
            "sort": 800000,
            "type": "action"
        },
        {
            "_id": "R9IAepGCjja3f9FP",
            "data": {
                "description": {
                    "value": ""
                },
                "item": {
                    "value": 0
                },
                "mod": {
                    "value": 17
                },
                "proficient": {
                    "value": 0
                },
                "rules": [],
                "slug": null,
                "source": {
                    "value": ""
                },
                "traits": {
                    "custom": "",
                    "rarity": {
                        "value": "common"
                    },
                    "value": []
                }
            },
            "effects": [],
            "flags": {},
            "img": "systems/pf2e/icons/default-icons/lore.svg",
            "name": "Acrobatics",
            "sort": 900000,
            "type": "lore"
        },
        {
            "_id": "7Sy3VLJjVY7IdW0F",
            "data": {
                "description": {
                    "value": ""
                },
                "item": {
                    "value": 0
                },
                "mod": {
                    "value": 15
                },
                "proficient": {
                    "value": 0
                },
                "rules": [],
                "slug": null,
                "source": {
                    "value": ""
                },
                "traits": {
                    "custom": "",
                    "rarity": {
                        "value": "common"
                    },
                    "value": []
                }
            },
            "effects": [],
            "flags": {},
            "img": "systems/pf2e/icons/default-icons/lore.svg",
            "name": "Intimidation",
            "sort": 1000000,
            "type": "lore"
        },
        {
            "_id": "C1gCdCYUAoqjpkXr",
            "data": {
                "description": {
                    "value": ""
                },
                "item": {
                    "value": 0
                },
                "mod": {
                    "value": 17
                },
                "proficient": {
                    "value": 0
                },
                "rules": [],
                "slug": null,
                "source": {
                    "value": ""
                },
                "traits": {
                    "custom": "",
                    "rarity": {
                        "value": "common"
                    },
                    "value": []
                }
            },
            "effects": [],
            "flags": {},
            "img": "systems/pf2e/icons/default-icons/lore.svg",
            "name": "Stealth",
            "sort": 1100000,
            "type": "lore"
        }
    ],
    "name": "Specter",
    "token": {
        "disposition": -1,
        "height": 1,
        "img": "systems/pf2e/icons/default-icons/npc.svg",
        "name": "Specter",
        "width": 1
    },
    "type": "npc"
}
