{
    "_id": "7BFd8A9HFrmg6vwL",
    "data": {
        "description": {
            "value": "<p>The border between life and death becomes blurred to you. You gain a +2 status bonus to Fortitude saving throws for 1 round.</p>"
        },
        "duration": {
            "expiry": "turn-start",
            "sustained": false,
            "unit": "rounds",
            "value": 1
        },
        "level": {
            "value": 1
        },
        "rules": [
            {
                "key": "PF2E.RuleElement.FlatModifier",
                "selector": "fortitude",
                "type": "status",
                "value": 2
            }
        ],
        "source": {
            "value": ""
        },
        "start": {
            "initiative": null,
            "value": 0
        },
        "target": null,
        "tokenIcon": {
            "show": true
        },
        "traits": {
            "custom": "",
            "rarity": {
                "value": "common"
            },
            "value": []
        }
    },
    "effects": [],
    "flags": {},
    "img": "systems/pf2e/icons/features/classes/psychopomp.webp",
    "name": "Effect: Psychopomp Blood Magic (Self)",
    "type": "effect"
}
