{
    "_id": "h8zxY9hTeHtWsBVW",
    "data": {
        "ability": {
            "value": ""
        },
        "area": {
            "areaType": "",
            "value": null
        },
        "areasize": {
            "value": ""
        },
        "category": {
            "value": "spell"
        },
        "components": {
            "material": true,
            "somatic": true,
            "verbal": true
        },
        "cost": {
            "value": ""
        },
        "damage": {
            "applyMod": false,
            "value": ""
        },
        "damageType": {
            "value": ""
        },
        "description": {
            "value": "<p>You use your occult lore and the power of your mind to manipulate the spiritual multiverse, resulting in any of the following effects:</p>\n<ul>\n<li>Duplicate any occult spell of 9th level or lower.</li>\n<li>Duplicate any non-occult spell of 7th level or lower.</li>\n<li>Produce any effect whose power is equivalent to any occult spell 9th level or lower, or non-occult spell 7th level or lower.</li>\n<li>Reverse certain effects that refer to the wish spell</li>\n</ul>\n<p>At the GM's discretion, you can try to produce greater effects, but this is dangerous and the spell may have only a partial effect.</p>"
        },
        "duration": {
            "value": ""
        },
        "hasCounteractCheck": {
            "value": false
        },
        "level": {
            "value": 10
        },
        "location": {
            "value": ""
        },
        "materials": {
            "value": ""
        },
        "prepared": {
            "value": ""
        },
        "primarycheck": {
            "value": ""
        },
        "range": {
            "value": ""
        },
        "rules": [],
        "save": {
            "basic": "",
            "value": ""
        },
        "scaling": {
            "formula": "",
            "mode": "none"
        },
        "school": {
            "value": "divination"
        },
        "secondarycasters": {
            "value": ""
        },
        "secondarycheck": {
            "value": ""
        },
        "source": {
            "value": ""
        },
        "spellType": {
            "value": "utility"
        },
        "sustained": {
            "value": false
        },
        "target": {
            "value": ""
        },
        "time": {
            "value": "3"
        },
        "traditions": {
            "value": [
                "occult"
            ]
        },
        "traits": {
            "custom": "",
            "rarity": {
                "value": "common"
            },
            "value": [
                "divination"
            ]
        }
    },
    "effects": [],
    "flags": {},
    "img": "systems/pf2e/icons/spells/alter-reality.webp",
    "name": "Alter Reality",
    "type": "spell"
}
