{
    "_id": "10siFBMF4pIDhVmf",
    "data": {
        "ability": {
            "value": ""
        },
        "area": {
            "areaType": "",
            "value": null
        },
        "areasize": {
            "value": ""
        },
        "category": {
            "value": "spell"
        },
        "components": {
            "material": true,
            "somatic": true,
            "verbal": true
        },
        "cost": {
            "value": ""
        },
        "damage": {
            "applyMod": false,
            "value": ""
        },
        "damageType": {
            "value": ""
        },
        "description": {
            "value": "<p>You curse the target with a thirst no drink can quench. You can Dismiss the spell. The target must attempt a Fortitude save.</p>\n<hr />\n<p><span><strong>Critical Success</strong> The creature is unaffected and is temporarily immune for 1 hour.</span></p>\n<p><span><strong>Success</strong> The creature is @Compendium[pf2e.conditionitems.Fatigued]{Fatigued} for 1 round.</span></p>\n<p><span><strong>Failure</strong> The creature is immediately afflicted by thirst as if it hadn't had a drink in days. It becomes Fatigued and takes 1d4 damage each hour that can't be healed until it quenches its thirst. No amount of drinking can quench the creature's thirst during the spell's duration.</span></p>\n<p><span><strong>Critical Failure</strong> As failure but the creature takes 2d4 damage each hour, twice as much as usual for thirst.</span></p>\n<hr />\n<p><strong>Heightened (+3)</strong> The thirst becomes more unbearable, increasing the damage each hour by 1d4, or by 2d4 on a critical failure.</p>"
        },
        "duration": {
            "value": "1 day"
        },
        "hasCounteractCheck": {
            "value": false
        },
        "level": {
            "value": 3
        },
        "location": {
            "value": ""
        },
        "materials": {
            "value": ""
        },
        "prepared": {
            "value": ""
        },
        "primarycheck": {
            "value": ""
        },
        "range": {
            "value": "30 feet"
        },
        "rules": [],
        "save": {
            "basic": "",
            "value": "fortitude"
        },
        "scaling": {
            "formula": "1d4",
            "mode": "none"
        },
        "school": {
            "value": "necromancy"
        },
        "secondarycasters": {
            "value": ""
        },
        "secondarycheck": {
            "value": ""
        },
        "source": {
            "value": ""
        },
        "spellType": {
            "value": "save"
        },
        "sustained": {
            "value": false
        },
        "target": {
            "value": "1 living creature"
        },
        "time": {
            "value": "3"
        },
        "traditions": {
            "custom": "",
            "value": [
                "arcane",
                "occult",
                "primal"
            ]
        },
        "traits": {
            "custom": "",
            "rarity": {
                "value": "common"
            },
            "value": [
                "necromancy",
                "curse"
            ]
        }
    },
    "effects": [],
    "flags": {},
    "img": "systems/pf2e/icons/spells/cup-of-dust.webp",
    "name": "Cup of Dust",
    "type": "spell"
}
