{
    "_id": "ziHDISWkFSwz3pmn",
    "data": {
        "ability": {
            "value": ""
        },
        "area": {
            "areaType": "",
            "value": ""
        },
        "areasize": {
            "value": ""
        },
        "category": {
            "value": "focus"
        },
        "components": {
            "material": false,
            "somatic": true,
            "verbal": true
        },
        "cost": {
            "value": ""
        },
        "damage": {
            "applyMod": false,
            "value": "3d8"
        },
        "damageType": {
            "value": "positive"
        },
        "description": {
            "value": "<p>With a surge of healing energy, you push back against an affliction threatening the target and grant a small amount of healing. The target recovers 3d8 Hit Points.</p>\n<p>You attempt to counteract any one affliction you are aware the target has, suspending its effects for 1 hour on a success rather than removing it.</p>\n<p>The target is then temporarily immune to<em> delay affliction</em> for 1 day. You don't need to have identified the name of the specific affliction, but you do need to be aware of it; for instance, you couldn't delay an ingested poison during its onset period unless you were aware of the poison.</p>\n<hr />\n<p><strong>Heightened (+1)</strong> The target recovers an additional 1d8 Hit Points and you can attempt to suspend an additional affliction.</p>"
        },
        "duration": {
            "value": ""
        },
        "hasCounteractCheck": {
            "value": true
        },
        "level": {
            "value": 3
        },
        "location": {
            "value": ""
        },
        "materials": {
            "value": ""
        },
        "prepared": {
            "value": ""
        },
        "primarycheck": {
            "value": ""
        },
        "range": {
            "value": "30 feet"
        },
        "rules": [],
        "save": {
            "basic": "",
            "value": ""
        },
        "scaling": {
            "formula": "1d8",
            "mode": "level1"
        },
        "school": {
            "value": "necromancy"
        },
        "secondarycasters": {
            "value": ""
        },
        "secondarycheck": {
            "value": ""
        },
        "source": {
            "value": ""
        },
        "spellType": {
            "value": "attack"
        },
        "sustained": {
            "value": false
        },
        "target": {
            "value": "1 creature"
        },
        "time": {
            "value": "2"
        },
        "traditions": {
            "custom": "",
            "value": []
        },
        "traits": {
            "custom": "",
            "rarity": {
                "value": "uncommon"
            },
            "value": [
                "healing",
                "necromancy",
                "oracle",
                "positive",
                "cursebound"
            ]
        }
    },
    "effects": [],
    "flags": {},
    "img": "systems/pf2e/icons/spells/delay-affliction.webp",
    "name": "Delay Affliction",
    "type": "spell"
}
