{
    "_id": "QpjHqxwTGdILLvjD",
    "data": {
        "ability": {
            "value": ""
        },
        "area": {
            "value": ""
        },
        "areasize": {
            "value": ""
        },
        "category": {
            "value": "focus"
        },
        "components": {
            "material": false,
            "somatic": true,
            "verbal": true
        },
        "cost": {
            "value": ""
        },
        "damage": {
            "applyMod": false,
            "value": ""
        },
        "damageType": {
            "value": ""
        },
        "description": {
            "value": "<p><span>You can look at currents in the air and water and see tracks that you can follow just as you would on land. You can use Survival to @Compendium[pf2e.actionspf2e.Track]{Track} through both air and water, noticing aerial or aquatic \"tracks\" of all creatures who passed nearby in the last hour. It's more difficult to Track in this way: the DC to Track through air or water is always at least 30, or higher after precipitation or wind (in the air) or heavy tides or currents (in the water). It's possible to @Compendium[pf2e.actionspf2e.Cover Tracks]{Cover Tracks} against this spell, but creatures might not realize they need to do so.</span></p>"
        },
        "duration": {
            "value": "1 hour"
        },
        "hasCounteractCheck": {
            "value": false
        },
        "level": {
            "value": 3
        },
        "location": {
            "value": ""
        },
        "materials": {
            "value": ""
        },
        "prepared": {
            "value": ""
        },
        "primarycheck": {
            "value": ""
        },
        "range": {
            "value": ""
        },
        "rules": [],
        "save": {
            "basic": "",
            "value": ""
        },
        "scaling": {
            "formula": "",
            "mode": "none"
        },
        "school": {
            "value": "divination"
        },
        "secondarycasters": {
            "value": ""
        },
        "secondarycheck": {
            "value": ""
        },
        "source": {
            "value": ""
        },
        "spellType": {
            "value": "utility"
        },
        "sustained": {
            "value": false
        },
        "target": {
            "value": ""
        },
        "time": {
            "value": "2"
        },
        "traditions": {
            "value": []
        },
        "traits": {
            "custom": "",
            "rarity": {
                "value": "uncommon"
            },
            "value": [
                "divination",
                "ranger"
            ]
        }
    },
    "effects": [],
    "flags": {},
    "img": "systems/pf2e/icons/spells/ephemeral-tracking.webp",
    "name": "Ephemeral Tracking",
    "type": "spell"
}
