{
    "_id": "yY1H5zhO5dHmD8lz",
    "data": {
        "ability": {
            "value": ""
        },
        "area": {
            "areaType": "emanation",
            "value": 15
        },
        "areasize": {
            "value": "15-foot emanation"
        },
        "category": {
            "value": "focus"
        },
        "components": {
            "material": false,
            "somatic": true,
            "verbal": true
        },
        "cost": {
            "value": ""
        },
        "damage": {
            "applyMod": false,
            "value": ""
        },
        "damageType": {
            "value": ""
        },
        "description": {
            "value": "<p>A divine beacon radiates serenity, soothing nearby allies.</p>\n<p>Allies within the area gain a +1 status bonus to saving throws against emotion effects.</p>\n<p>@Compendium[pf2e.spell-effects.Spell Effect: Font of Serenity]{Spell Effect: Font of Serenity}</p>\n<p>An ally can touch the font as an Interact action; if they do so, the spell attempts to counteract one emotion effect affecting the ally of the ally's choice, after which that emotion effect is temporarily immune for 1 day. If the spell succeeds at the counteract check, it removes the emotion effect from your ally, though not from any other creatures the effect might be affecting.</p>\n<hr />\n<p><strong>Heightened (+4)</strong> The bonus increases by 1.</p>"
        },
        "duration": {
            "value": "1 minute"
        },
        "hasCounteractCheck": {
            "value": true
        },
        "level": {
            "value": 4
        },
        "location": {
            "value": ""
        },
        "materials": {
            "value": ""
        },
        "prepared": {
            "value": ""
        },
        "primarycheck": {
            "value": ""
        },
        "range": {
            "value": "30 feet"
        },
        "rules": [],
        "save": {
            "basic": "",
            "value": ""
        },
        "scaling": {
            "formula": "",
            "mode": "none"
        },
        "school": {
            "value": "abjuration"
        },
        "secondarycasters": {
            "value": ""
        },
        "secondarycheck": {
            "value": ""
        },
        "source": {
            "value": ""
        },
        "spellType": {
            "value": "utility"
        },
        "sustained": {
            "value": false
        },
        "target": {
            "value": ""
        },
        "time": {
            "value": "2"
        },
        "traditions": {
            "custom": "",
            "value": []
        },
        "traits": {
            "custom": "",
            "rarity": {
                "value": "uncommon"
            },
            "value": [
                "abjuration",
                "cleric",
                "emotion",
                "mental"
            ]
        }
    },
    "effects": [],
    "flags": {},
    "img": "systems/pf2e/icons/spells/font-of-serenity.webp",
    "name": "Font of Serenity",
    "type": "spell"
}
