{
    "_id": "vQuwLqtFFYt0K15N",
    "data": {
        "ability": {
            "value": ""
        },
        "area": {
            "areaType": "",
            "value": ""
        },
        "areasize": {
            "value": ""
        },
        "category": {
            "value": "focus"
        },
        "components": {
            "material": false,
            "somatic": true,
            "verbal": true
        },
        "cost": {
            "value": ""
        },
        "damage": {
            "applyMod": false,
            "value": "1d6+4"
        },
        "damageType": {
            "value": "healing"
        },
        "description": {
            "value": "<p>You imbue the target berry with the bounty of nature, turning it into a goodberry that can heal and sustain far beyond its normal capacity. A creature can eat the goodberry with an Interact action to regain 1d6+4 Hit Points. A berry not consumed during the duration withers away. Every six goodberries consumed gives as much nourishment as one square meal for a typical human.</p>\n<p>@Compendium[pf2e.spell-effects.Spell Effect: Goodberry]{Spell Effect: Goodberry}</p>\n<hr />\n<p><strong>Heightened (+1)</strong> You can target an additional berry. A creature can consume any number of goodberries from the same casting with a single Interact action.</p>"
        },
        "duration": {
            "value": "10 minutes"
        },
        "hasCounteractCheck": {
            "value": false
        },
        "level": {
            "value": 1
        },
        "location": {
            "value": ""
        },
        "materials": {
            "value": ""
        },
        "prepared": {
            "value": ""
        },
        "primarycheck": {
            "value": ""
        },
        "range": {
            "value": "touch"
        },
        "rules": [],
        "save": {
            "basic": "",
            "value": ""
        },
        "scaling": {
            "formula": "",
            "mode": "none"
        },
        "school": {
            "value": "necromancy"
        },
        "secondarycasters": {
            "value": ""
        },
        "secondarycheck": {
            "value": ""
        },
        "source": {
            "value": ""
        },
        "spellType": {
            "value": "heal"
        },
        "sustained": {
            "value": false
        },
        "target": {
            "value": "1 ripe berry"
        },
        "time": {
            "value": "2"
        },
        "traditions": {
            "value": []
        },
        "traits": {
            "custom": "",
            "rarity": {
                "value": "uncommon"
            },
            "value": [
                "druid",
                "healing",
                "necromancy"
            ]
        }
    },
    "effects": [],
    "flags": {},
    "img": "systems/pf2e/icons/spells/goodberry.webp",
    "name": "Goodberry",
    "type": "spell"
}
