{
    "_id": "rfZpqmj0AIIdkVIs",
    "data": {
        "ability": {
            "value": ""
        },
        "area": {
            "areaType": "",
            "value": null
        },
        "areasize": {
            "value": "varies"
        },
        "category": {
            "value": "spell"
        },
        "components": {
            "material": false,
            "somatic": false,
            "verbal": false
        },
        "cost": {
            "value": ""
        },
        "damage": {
            "applyMod": false,
            "value": "1d8"
        },
        "damageType": {
            "value": "positive"
        },
        "description": {
            "value": "<p>You channel positive energy to heal the living or damage the undead. If the target is a willing living creature, you restore 1d8 Hit Points. If the target is undead, you deal that amount of positive damage to it, and it gets a basic Fortitude save. The number of actions you spend when Casting this Spell determines its targets, range, area, and other parameters.</p>\n<hr />\n<p><strong>1 Action</strong> (somatic) The spell has a range of touch.</p>\n<p><strong>2 Actions</strong> (somatic, verbal) The spell has a range of 30 feet. If you're healing a living creature, increase the Hit Points restored by 8.</p>\n<p><strong>3 Actions</strong> (material, somatic, verbal) You disperse positive energy in a 30-foot emanation. This targets all living and undead creatures in the burst.</p>\n<hr />\n<p><strong>Heightened (+1)</strong> The amount of healing or damage increases by 1d8, and the extra healing for the 2-action version increases by 8.</p>"
        },
        "duration": {
            "value": ""
        },
        "hasCounteractCheck": {
            "value": false
        },
        "level": {
            "value": 1
        },
        "location": {
            "value": ""
        },
        "materials": {
            "value": ""
        },
        "prepared": {
            "value": ""
        },
        "primarycheck": {
            "value": ""
        },
        "range": {
            "value": "varies"
        },
        "rules": [],
        "save": {
            "basic": "",
            "value": ""
        },
        "scaling": {
            "formula": "1d8",
            "mode": "level1"
        },
        "school": {
            "value": "necromancy"
        },
        "secondarycasters": {
            "value": ""
        },
        "secondarycheck": {
            "value": ""
        },
        "source": {
            "value": ""
        },
        "spellType": {
            "value": "heal"
        },
        "sustained": {
            "value": false
        },
        "target": {
            "value": "1 willing living creature or 1 undead"
        },
        "time": {
            "value": "1 to 3"
        },
        "traditions": {
            "custom": "",
            "value": [
                "divine",
                "primal"
            ]
        },
        "traits": {
            "custom": "",
            "rarity": {
                "value": "common"
            },
            "value": [
                "healing",
                "necromancy",
                "positive"
            ]
        }
    },
    "effects": [],
    "flags": {},
    "img": "systems/pf2e/icons/spells/heal.webp",
    "name": "Heal",
    "type": "spell"
}
