{
    "_id": "aEitTTb9PnOyidRf",
    "data": {
        "ability": {
            "value": ""
        },
        "area": {
            "value": ""
        },
        "areasize": {
            "value": ""
        },
        "category": {
            "value": "focus"
        },
        "components": {
            "material": false,
            "somatic": true,
            "verbal": false
        },
        "cost": {
            "value": ""
        },
        "damage": {
            "applyMod": false,
            "value": "2"
        },
        "damageType": {
            "value": "mental"
        },
        "description": {
            "value": "<p>A long, jagged needle jabs into the target foe's psyche whenever it tries to attack a specifically forbidden creature. Name yourself or one of your allies. The target takes [[/r 2 #mental]]{2 mental damage} any time it uses a hostile action against the named creature.</p>\n<hr />\n<p><strong>Heightened (+1)</strong> Increase the damage by [[/r 2 #mental]]{2 mental}.</p>"
        },
        "duration": {
            "value": "Sustained up to 1 minute"
        },
        "hasCounteractCheck": {
            "value": false
        },
        "level": {
            "value": 1
        },
        "location": {
            "value": "gj8uSdGt5Fbk1fGz"
        },
        "materials": {
            "value": ""
        },
        "prepared": {
            "value": ""
        },
        "primarycheck": {
            "value": ""
        },
        "range": {
            "value": "30 feet"
        },
        "rules": [],
        "save": {
            "basic": "basic",
            "value": "will"
        },
        "scaling": {
            "formula": "2",
            "mode": "level1"
        },
        "school": {
            "value": "enchantment"
        },
        "secondarycasters": {
            "value": ""
        },
        "secondarycheck": {
            "value": ""
        },
        "source": {
            "value": ""
        },
        "spellType": {
            "value": "save"
        },
        "sustained": {
            "value": false
        },
        "target": {
            "value": "1 enemy"
        },
        "time": {
            "value": "1"
        },
        "traditions": {
            "value": []
        },
        "traits": {
            "custom": "Hex",
            "rarity": {
                "value": "uncommon"
            },
            "selected": {
                "custom": "",
                "enchantment": "Enchantment",
                "mental": "Mental",
                "witch": "Witch"
            },
            "value": [
                "enchantment",
                "mental",
                "witch",
                "hex"
            ]
        }
    },
    "effects": [],
    "flags": {},
    "img": "systems/pf2e/icons/spells/needle-of-vengeance.webp",
    "name": "Needle of Vengeance",
    "type": "spell"
}
