{
    "_id": "lZx8jZfKrMEtyGY0",
    "data": {
        "ability": {
            "value": ""
        },
        "area": {
            "areaType": "cone",
            "value": "15"
        },
        "autoHeightenLevel": {
            "value": null
        },
        "category": {
            "value": "focus"
        },
        "components": {
            "material": false,
            "somatic": true,
            "verbal": true
        },
        "cost": {
            "value": ""
        },
        "damage": {
            "applyMod": false,
            "value": "1d4"
        },
        "damageType": {
            "value": "fire"
        },
        "description": {
            "value": "<p>You create a gout of flame that both heals and burns. You restore [[/r 1d4 #Hit Points]]{1d4 Hit Points} to all allies in the area, and those allies gain a +1 status bonus to Fortitude saves for 1 minute. Enemies in the area take [[/r 1d4 #fire]]{1d4 fire damage} with a basic Reflex save.</p>\n<p>@Compendium[pf2e.spell-effects.Effect: Rejuvinating Flames]{Spell Effect: Rejuvinating Flames}</p>\n<hr />\n<p><strong>Heightened (+1)</strong> You restore an additional [[/r 1d4]] HP to your allies and deal an additional [[/r 1d4 #fire]]{1d4 fire damage} to enemies.</p>"
        },
        "duration": {
            "value": ""
        },
        "hasCounteractCheck": {
            "value": false
        },
        "level": {
            "value": 1
        },
        "location": {
            "value": ""
        },
        "materials": {
            "value": ""
        },
        "prepared": {
            "value": ""
        },
        "primarycheck": {
            "value": ""
        },
        "range": {
            "value": ""
        },
        "rules": [],
        "save": {
            "basic": "basic",
            "value": "reflex"
        },
        "scaling": {
            "formula": "1d4",
            "mode": "level1"
        },
        "school": {
            "value": "necromancy"
        },
        "secondarycasters": {
            "value": ""
        },
        "secondarycheck": {
            "value": ""
        },
        "source": {
            "value": ""
        },
        "spellType": {
            "value": "save"
        },
        "sustained": {
            "value": false
        },
        "target": {
            "value": ""
        },
        "time": {
            "value": "2"
        },
        "traditions": {
            "value": []
        },
        "traits": {
            "custom": "",
            "rarity": {
                "value": "uncommon"
            },
            "value": [
                "fire",
                "healing",
                "sorcerer"
            ]
        }
    },
    "effects": [],
    "flags": {},
    "img": "systems/pf2e/icons/default-icons/spell.svg",
    "name": "Rejuvenating Flames",
    "type": "spell"
}
