{
    "_id": "zPhArF36ZVgLeVUU",
    "data": {
        "actionCategory": {
            "value": ""
        },
        "actionType": {
            "value": "passive"
        },
        "actions": {
            "value": ""
        },
        "description": {
            "value": "<p>Your lineage stems from azarketis who remain dedicated to their deep-sea roots. Divorced from land society, you’re a foreigner to any world above a thousand fathoms deep. You gain @Compendium[pf2e.ancestryfeatures.Darkvision]{Darkvision}.</p>\n<p>Your body is dotted with phosphorescent spots that emit a guiding light and help you communicate. The spots - located primarily on your face, arms, and hands - illuminate a 10-foot radius around you with dim light. You can activate, deactivate, or change the arrangement of lights as an action, which has the concentration trait.</p>"
        },
        "featType": {
            "value": "heritage"
        },
        "level": {
            "value": 1
        },
        "location": "",
        "prerequisites": {
            "value": []
        },
        "rules": [
            {
                "key": "PF2E.RuleElement.Sense",
                "label": "PF2E.SensesDarkvision",
                "selector": "darkvision"
            }
        ],
        "source": {
            "value": ""
        },
        "traits": {
            "custom": "",
            "rarity": {
                "value": "common"
            },
            "value": [
                "azarketi"
            ]
        }
    },
    "effects": [],
    "flags": {},
    "img": "systems/pf2e/icons/default-icons/feat.svg",
    "name": "Ancient Scale Azarketi",
    "type": "feat"
}
