{
    "_id": "L6zfGzLMDLHbZ7VV",
    "data": {
        "actionCategory": {
            "value": ""
        },
        "actionType": {
            "value": "passive"
        },
        "actions": {
            "value": ""
        },
        "description": {
            "value": "<p>Your body continually produces small fruits imbued with primal magic. At dawn each day, a new fruit ripens. You or an ally can remove this fruit as an Interact action. If a living creature that can derive sustenance from fruit consumes it as an Interact action within the next hour, they regain 1d8 Hit Points, plus an additional 1d8 Hit Points for every 2 of your levels beyond 1st. This effect has the healing, necromancy, and positive traits.</p>"
        },
        "featType": {
            "value": "heritage"
        },
        "level": {
            "value": 1
        },
        "location": "",
        "prerequisites": {
            "value": []
        },
        "rules": [],
        "source": {
            "value": ""
        },
        "traits": {
            "custom": "",
            "rarity": {
                "value": "common"
            },
            "value": [
                "leshy"
            ]
        }
    },
    "effects": [],
    "flags": {},
    "img": "systems/pf2e/icons/default-icons/feat.svg",
    "name": "Fruit Leshy",
    "type": "feat"
}
