{
    "_id": "N36ZR4lh9eCazDaN",
    "data": {
        "actionCategory": {
            "value": ""
        },
        "actionType": {
            "value": "passive"
        },
        "actions": {
            "value": ""
        },
        "description": {
            "value": "<p>Either one of your parents was an elf, or one or both were half-elves. You have pointed ears and other telltale signs of elf heritage. You gain the elf trait, the half-elf trait, and @Compendium[pf2e.ancestryfeatures.Low-Light Vision]{Low-Light Vision}. In addition, you can select elf, half-elf, and human feats whenever you gain an ancestry feat.</p>"
        },
        "featType": {
            "value": "heritage"
        },
        "level": {
            "value": 1
        },
        "location": "",
        "prerequisites": {
            "value": []
        },
        "rules": [],
        "source": {
            "value": ""
        },
        "traits": {
            "custom": "",
            "rarity": {
                "value": "common"
            },
            "selected": {
                "human": "Human"
            },
            "value": [
                "elf",
                "half-elf",
                "human",
                "versatile heritage"
            ]
        }
    },
    "effects": [],
    "flags": {},
    "img": "systems/pf2e/icons/features/ancestry/half-elf.webp",
    "name": "Half-Elf",
    "type": "feat"
}
