{
    "_id": "fROPRHGyUn4PgcER",
    "data": {
        "actionCategory": {
            "value": ""
        },
        "actionType": {
            "value": "passive"
        },
        "actions": {
            "value": ""
        },
        "description": {
            "value": "<p>The long snouts that run in your family give you a keener sense of smell than most ratfolk. You gain imprecise scent with a range of 30 feet. This means you can use your sense of smell to determine a creature's location. The GM will usually double the range if you're downwind from the creature or halve the range if you're upwind.</p>\n<p>In addition, you gain a +2 circumstance bonus to Perception checks to @Compendium[pf2e.actionspf2e.Seek]{Seek} a creature or object within the range of your scent.</p>"
        },
        "featType": {
            "value": "heritage"
        },
        "level": {
            "value": 1
        },
        "location": "",
        "prerequisites": {
            "value": []
        },
        "rules": [
            {
                "acuity": "imprecise",
                "key": "PF2E.RuleElement.Sense",
                "label": "PF2E.SensesScent",
                "range": 30,
                "selector": "scent"
            },
            {
                "key": "PF2E.RuleElement.FlatModifier",
                "label": "Longsnout Rat (Seek within scent range)",
                "predicate": {
                    "all": [
                        "action:seek",
                        "target:within-30-feet"
                    ]
                },
                "selector": "perception",
                "type": "circumstance",
                "value": 2
            }
        ],
        "source": {
            "value": ""
        },
        "traits": {
            "custom": "",
            "rarity": {
                "value": "common"
            },
            "value": [
                "ratfolk"
            ]
        }
    },
    "effects": [],
    "flags": {},
    "img": "systems/pf2e/icons/features/ancestry/longsnout-rat.webp",
    "name": "Longsnout Rat",
    "type": "feat"
}
