{
    "_id": "VLjkX7HpDqKaidNd",
    "data": {
        "actionCategory": {
            "value": ""
        },
        "actionType": {
            "value": "passive"
        },
        "actions": {
            "value": ""
        },
        "description": {
            "value": "<p>Your friendship with the elf ghost Talamira has unlocked the secrets of the ancient Crystal Keepers. You gain access to the @Compendium[pf2e.archetypes.Crystal Keeper]{Crystal Keeper} archetype and all associated feats.</p>"
        },
        "featType": {
            "value": "pfsboon"
        },
        "identified": {
            "value": true
        },
        "level": {
            "value": 0
        },
        "prerequisites": {
            "value": []
        },
        "rules": [],
        "source": {
            "value": ""
        },
        "traits": {
            "custom": "",
            "rarity": {
                "value": "common"
            },
            "selected": {},
            "value": []
        }
    },
    "effects": [],
    "flags": {},
    "img": "systems/pf2e/icons/default-icons/mystery-man.webp",
    "name": "AoA #148: Boon A - Crystal Clear",
    "type": "feat"
}
