{
    "_id": "awcOD618fuXZN3rh",
    "data": {
        "actionCategory": {
            "value": ""
        },
        "actionType": {
            "value": "passive"
        },
        "actions": {
            "value": ""
        },
        "description": {
            "value": "<p><strong>[Downtime]</strong></p>\n<p><strong>Prerequisites:</strong> Tier 1 with the Radiant Oath</p>\n<p><strong>Cost</strong>: 1 Fame</p>\n<p><strong>Effect</strong>: By spending your off hours administering medical aid to those in need, you have developed extraordinary first aid instincts. While you have this boon slotted, you can spend Downtime to provide medical services to others. Once you have expended 8 days of Downtime in this way, this boon becomes slotless, and you can expend the boon as a free action before attempting a Medicine check to Administer First Aid, Treat Disease, Treat Poison, or Treat Wounds. You improve your check's degree of success by one step (such as if you roll a failure, you get a success instead); the boon is not expended if your original roll is a critical success. Once you expend this boon, it provides no other benefit.</p>\n<p><strong>Special</strong> You can purchase this boon multiple times, though you cannot expend more than one copy of this boon per adventure.</p>"
        },
        "featType": {
            "value": "pfsboon"
        },
        "level": {
            "value": 0
        },
        "prerequisites": {
            "value": []
        },
        "rules": [],
        "source": {
            "value": ""
        },
        "traits": {
            "custom": "",
            "rarity": {
                "value": "common"
            },
            "selected": {},
            "value": []
        }
    },
    "effects": [],
    "flags": {},
    "img": "systems/pf2e/icons/default-icons/mystery-man.webp",
    "name": "Practiced Medic",
    "type": "feat"
}
