{
    "_id": "xVMouu7E7Xy7AGER",
    "data": {
        "actionCategory": {
            "value": ""
        },
        "actionType": {
            "value": "passive"
        },
        "actions": {
            "value": ""
        },
        "description": {
            "value": "<p><strong>[Advanced]</strong></p>\n<p><strong>Effect</strong>: The underlying idea for this scenario came from a creative and enthusiastic audience at an adventure design panel at PaizoCon. You can slot this special boon only while playing a game at a convention. If you do, you begin the adventure with one additional Hero Point.</p>"
        },
        "featType": {
            "value": "pfsboon"
        },
        "level": {
            "value": 0
        },
        "prerequisites": {
            "value": []
        },
        "rules": [],
        "source": {
            "value": ""
        },
        "traits": {
            "custom": "",
            "rarity": {
                "value": "common"
            },
            "selected": {},
            "value": []
        }
    },
    "effects": [],
    "flags": {},
    "img": "systems/pf2e/icons/default-icons/mystery-man.webp",
    "name": "S1-13 - Convention Hero",
    "type": "feat"
}
