{
    "_id": "iRLU5DTWY16HIqcc",
    "data": {
        "actionCategory": {
            "value": ""
        },
        "actionType": {
            "value": "passive"
        },
        "actions": {
            "value": ""
        },
        "description": {
            "value": "<p><strong>[General][Limited Use] □</strong></p>\n<p><strong>Effect</strong>: In defeating a growing cult of Groetus in Cassomir, your spirit is filled with a renewed resistance against the same prophecies of doom that his priests shout from the rooftops. When your dying value is increased to exactly the amount that would kill you, this boon automatically activates. Check the box that precedes this boon and decrease your dying value by one.</p>"
        },
        "featType": {
            "value": "pfsboon"
        },
        "level": {
            "value": 0
        },
        "prerequisites": {
            "value": []
        },
        "rules": [],
        "source": {
            "value": ""
        },
        "traits": {
            "custom": "",
            "rarity": {
                "value": "common"
            },
            "selected": {},
            "value": []
        }
    },
    "effects": [],
    "flags": {},
    "img": "systems/pf2e/icons/default-icons/mystery-man.webp",
    "name": "S1-22 - Doom Averted",
    "type": "feat"
}
