{
    "_id": "eu2HidLHaGKe4MPn",
    "data": {
        "description": {
            "value": "<p>Granted by @Compendium[pf2e.feats-srd.Twin Parry]{Twin Parry} if neither weapon has the parry trait.</p>\n<p>You gain a +1 circumstance bonus to AC until the start of your next turn.</p>"
        },
        "duration": {
            "expiry": "turn-start",
            "sustained": false,
            "unit": "unlimited",
            "value": -1
        },
        "level": {
            "value": 1
        },
        "rules": [
            {
                "key": "PF2E.RuleElement.FlatModifier",
                "label": "Twin Parry",
                "selector": "ac",
                "type": "circumstance",
                "value": 1
            }
        ],
        "source": {
            "value": ""
        },
        "start": {
            "initiative": null,
            "value": 0
        },
        "target": null,
        "tokenIcon": {
            "show": true
        },
        "traits": {
            "custom": "",
            "rarity": {
                "value": "common"
            },
            "value": []
        }
    },
    "effects": [],
    "flags": {},
    "img": "systems/pf2e/icons/equipment/weapons/main-gauche.webp",
    "name": "Effect: Twin Parry",
    "type": "effect"
}
