{
    "_id": "RxDDXK52lwyHXl7v",
    "data": {
        "description": {
            "value": "<p>Granted by @Compendium[pf2e.feats-srd.Scout's Warning]{Scout's Warning}.</p>\n<p>You gain a +1 circumstance bonus to your initiative roll.</p>"
        },
        "duration": {
            "expiry": "turn-end",
            "sustained": false,
            "unit": "rounds",
            "value": 0
        },
        "level": {
            "value": 4
        },
        "rules": [
            {
                "key": "PF2E.RuleElement.FlatModifier",
                "selector": "initiative",
                "type": "circumstance",
                "value": 1
            }
        ],
        "source": {
            "value": ""
        },
        "start": {
            "initiative": null,
            "value": 0
        },
        "target": null,
        "tokenIcon": {
            "show": true
        },
        "traits": {
            "custom": "",
            "rarity": {
                "value": "common"
            },
            "value": []
        }
    },
    "effects": [],
    "flags": {},
    "img": "systems/pf2e/icons/features/classes/heightened-senses.webp",
    "name": "Effect: Scout's Warning",
    "type": "effect"
}
