{
    "_id": "VIScVb6Hl7KwoWfH",
    "data": {
        "description": {
            "value": "<p>Granted by @Compendium[pf2e.feats-srd.Bolera's Interrogation]{Bolera's Interrogation}</p>\n<p>On a critical failure, the creature finds itself unable to speak any deliberate and intentional lies and takes a -4 penalty to Deception checks. This effect lasts for 10 minutes as long as you are within 30 feet of the target and the target is aware that you are using the ability against it. If you begin a new interrogation, this effect ends for any previous target. After your interrogation ends, the target is immune to this ability for 24 hours.</p>"
        },
        "duration": {
            "expiry": "turn-start",
            "sustained": false,
            "unit": "minutes",
            "value": 10
        },
        "level": {
            "value": 1
        },
        "rules": [
            {
                "key": "PF2E.RuleElement.FlatModifier",
                "selector": "deception",
                "value": -4
            }
        ],
        "source": {
            "value": "Pathfinder #157: Devil at the Dreaming Palace"
        },
        "start": {
            "initiative": null,
            "value": 0
        },
        "target": null,
        "tokenIcon": {
            "show": true
        },
        "traits": {
            "custom": "",
            "rarity": {
                "value": "common"
            },
            "value": []
        }
    },
    "effects": [],
    "flags": {},
    "img": "systems/pf2e/icons/default-icons/effect.svg",
    "name": "Effect: Bolera's Interrogation (Critical Failure)",
    "type": "effect"
}
