{
    "_id": "q2kY0TzXloJ8HLNO",
    "data": {
        "description": {
            "value": "<p><strong>Effect</strong>: While working with less experienced Pathfinder allies, you provide pointers and lead drills that ensure your newer colleagues' attacks strike true. For any PCs benefiting from a Level Bump and whose levels are lower than yours, you increase the Level Bump's modifier to attack rolls and spell attack rolls to 2.</p>\n<p><strong>Normal</strong>: A Level Bump increases a PC's attack roll and spell attack roll modifiers by 1.</p>\n<p><strong>Special</strong>: A PC can only benefit from two mentor boons.</p>"
        },
        "duration": {
            "expiry": "turn-start",
            "sustained": false,
            "unit": "unlimited",
            "value": -1
        },
        "level": {
            "value": 1
        },
        "rules": [
            {
                "key": "PF2E.RuleElement.FlatModifier",
                "label": "Combat Mentor Adjustment",
                "selector": "attack-roll",
                "value": 1
            }
        ],
        "source": {
            "value": ""
        },
        "start": {
            "initiative": null,
            "value": 0
        },
        "target": null,
        "tokenIcon": {
            "show": true
        },
        "traits": {
            "custom": "",
            "rarity": {
                "value": "common"
            },
            "value": []
        }
    },
    "effects": [],
    "flags": {},
    "img": "systems/pf2e/icons/default-icons/effect.svg",
    "name": "Effect: Combat Mentor Boon (PFS)",
    "type": "effect"
}
