{
    "_id": "WM8ycweNEOEFE08F",
    "data": {
        "attributes": {
            "ac": {
                "value": 22
            },
            "hardness": 10,
            "hasHealth": true,
            "hp": {
                "details": "",
                "max": 42,
                "temp": 0,
                "value": 42
            },
            "stealth": {
                "details": "<p>(DC 20 to find the cluster of aeon stones at the center of the nexus in the fog)</p>",
                "value": 8
            }
        },
        "creatureType": "",
        "details": {
            "description": "<p>A small cluster of aeon stones floats two feet off the ground, orbiting by shards of shattered aeon stones that crackle with electricity.</p>",
            "disable": "<p><span data-pf2-check=\"thievery\" data-pf2-traits=\"magical,trap\" data-pf2-label=\"Remove Aeon Stone DC\" data-pf2-dc=\"23\" data-pf2-show-dc=\"gm\">Thievery</span> (trained) to remove one nexus aeon stone from the center</p>",
            "isComplex": true,
            "level": {
                "value": 3
            },
            "reset": "",
            "routine": "<p><span class=\"pf2-icon\">3</span> The trap loses one action each turn for each nexus aeon stone removed from its center. On each action, it shoots a jet of electrified, razor-sharp aeon stone shards at a different creature within 30 feet, dealing [[/r 1d8 #piercing]]{1d8 piercing damage} and [[/r 1d8 #electricity]]{1d8 electricity damage} (<span data-pf2-saving-throw=\"reflex\" data-pf2-traits=\"damaging-effect\" data-pf2-label=\"Aeon Nexus\" data-pf2-dc=\"21\" data-pf2-show-dc=\"gm\">basic Reflex</span>).</p>"
        },
        "saves": {
            "fortitude": {
                "saveDetail": "",
                "value": 14
            },
            "reflex": {
                "saveDetail": "",
                "value": 8
            },
            "will": {
                "saveDetail": "",
                "value": 0
            }
        },
        "source": {
            "value": "Pathfinder Society Quest #9: Wayfinder Origins"
        },
        "statusEffects": [],
        "traits": {
            "ci": [],
            "di": {
                "custom": "",
                "selected": {},
                "value": []
            },
            "dr": [],
            "dv": [],
            "rarity": {
                "value": "common"
            },
            "size": {
                "value": "med"
            },
            "traits": {
                "custom": "",
                "value": [
                    "magical",
                    "trap"
                ]
            }
        }
    },
    "effects": [],
    "flags": {},
    "img": "systems/pf2e/icons/default-icons/hazard.svg",
    "items": [
        {
            "_id": "BZbjUiSahHTYztMv",
            "data": {
                "actionCategory": {
                    "value": "offensive"
                },
                "actionType": {
                    "value": "reaction"
                },
                "actions": {
                    "value": ""
                },
                "description": {
                    "value": "<p data-visibility=\"gm\"><strong>Trigger</strong> A creature who is not carrying a wayfinder with an aeon stone from the nexus slotted into it approaches within 15 feet of the aeon nexus;</p>\n<p><strong>Effect</strong> The trap shocks the target, dealing [[/r 2d8 #electricity]]{2d8 electricity damage} to the triggering creature (<span data-pf2-check=\"reflex\" data-pf2-traits=\"damaging-effect\" data-pf2-label=\"Static DC\" data-pf2-dc=\"21\" data-pf2-show-dc=\"gm\">basic Reflex</span>), then rolls initiative.</p>"
                },
                "requirements": {
                    "value": ""
                },
                "rules": [],
                "slug": null,
                "source": {
                    "value": ""
                },
                "traits": {
                    "custom": "",
                    "rarity": {
                        "value": "common"
                    },
                    "value": []
                },
                "trigger": {
                    "value": ""
                },
                "weapon": {
                    "value": ""
                }
            },
            "effects": [],
            "flags": {},
            "img": "systems/pf2e/icons/actions/Reaction.webp",
            "name": "Static",
            "sort": 0,
            "type": "action"
        }
    ],
    "name": "Aeon Nexus (3-4)",
    "token": {
        "disposition": 0,
        "height": 1,
        "img": "systems/pf2e/icons/default-icons/hazard.svg",
        "name": "Aeon Nexus",
        "width": 1
    },
    "type": "hazard"
}
