{
    "_id": "YtkTx8318EKs43yn",
    "data": {
        "attributes": {
            "ac": {
                "value": 19
            },
            "hardness": 10,
            "hasHealth": true,
            "hp": {
                "details": "",
                "max": 44,
                "temp": 0,
                "value": 44
            },
            "stealth": {
                "details": "<p>(trained); DC 23 (expert) to notice the construct limbs at the bottom of the pit.</p>",
                "value": 10
            }
        },
        "creatureType": "",
        "details": {
            "description": "<p>The limbs of smashed constructs line the bottom of the fissure, beneath the water. They desperately grab anything that gets too close.</p>",
            "disable": "<p><span data-pf2-check=\"thievery\" data-pf2-label=\"Immobilize Limbs DC\" data-pf2-dc=\"21\" data-pf2-show-dc=\"gm\">Thievery</span> (trained) or <span data-pf2-check=\"engineering-lore\" data-pf2-label=\"Immobilize Limbs DC\" data-pf2-dc=\"19\" data-pf2-show-dc=\"gm\">Engineering Lore</span> or <span data-pf2-check=\"azlant-lore\" data-pf2-label=\"Immobilize Limbs DC\" data-pf2-dc=\"19\" data-pf2-show-dc=\"gm\">Azlant Lore</span> twice to immobilize the limbs, or <span data-pf2-check=\"deception\" data-pf2-label=\"Trick Limbs DC\" data-pf2-dc=\"18\" data-pf2-show-dc=\"gm\"> Deception</span> twice to trick the limbs into grasping each other.</p>",
            "isComplex": true,
            "level": {
                "value": 3
            },
            "reset": "",
            "routine": "<p><span class=\"pf2-icon\">2</span> The grasping limbs try to Grapple all creatures in the water (Athletics [[/r 1d20 +12 #Athletics]]{+12}). They then tighten around all creatures they have grabbed or restrained, dealing [[/r 2d8 #bludgeoning]]{2d8 bludgeoning damage} (<span data-pf2-saving-throw=\"fortitude\" data-pf2-label=\"Grasping Limbs DC\" data-pf2-dc=\"20\" data-pf2-show-dc=\"gm\">basic Fortitude</span>).</p>"
        },
        "saves": {
            "fortitude": {
                "saveDetail": "",
                "value": 12
            },
            "reflex": {
                "saveDetail": "",
                "value": 6
            },
            "will": {
                "saveDetail": "",
                "value": 0
            }
        },
        "source": {
            "value": "Pathfinder Society Quest #9: Wayfinder Origins"
        },
        "statusEffects": [],
        "traits": {
            "ci": [],
            "di": {
                "custom": "",
                "selected": {},
                "value": [
                    "precision",
                    "critical-hits",
                    "object-immunities"
                ]
            },
            "dr": [],
            "dv": [],
            "rarity": {
                "value": "unique"
            },
            "size": {
                "value": "med"
            },
            "traits": {}
        }
    },
    "effects": [],
    "flags": {},
    "img": "systems/pf2e/icons/default-icons/hazard.svg",
    "items": [
        {
            "_id": "sFXPrl6HPYHEscXg",
            "data": {
                "actionCategory": {
                    "value": "offensive"
                },
                "actionType": {
                    "value": "reaction"
                },
                "actions": {
                    "value": ""
                },
                "description": {
                    "value": "<p data-visibility=\"gm\"><strong>Trigger</strong> A creature falls into the water;</p>\n<p><strong>Effect</strong> The smashed constructs at the bottom of the water try to Grapple the triggering creature (Athletics [[/r 1d20+12 #Athletics]]{+12}). The trap rolls initiative.</p>"
                },
                "requirements": {
                    "value": ""
                },
                "rules": [],
                "slug": null,
                "source": {
                    "value": ""
                },
                "traits": {
                    "custom": "",
                    "rarity": {
                        "value": "common"
                    },
                    "value": []
                },
                "trigger": {
                    "value": ""
                },
                "weapon": {
                    "value": ""
                }
            },
            "effects": [],
            "flags": {},
            "img": "systems/pf2e/icons/actions/Reaction.webp",
            "name": "Grasp",
            "sort": 0,
            "type": "action"
        }
    ],
    "name": "Grasping Limbs (5-6)",
    "token": {
        "disposition": 0,
        "height": 1,
        "img": "systems/pf2e/icons/default-icons/hazard.svg",
        "name": "Grasping Limbs",
        "width": 1
    },
    "type": "hazard"
}
