{
    "_id": "aqDFxmLMx6cOnGlx",
    "data": {
        "attributes": {
            "ac": {
                "value": 25
            },
            "hardness": 12,
            "hasHealth": true,
            "hp": {
                "details": "to destroy a single nozzle; <strong> Door</strong> Hardness 6,  <strong> HP</strong>  22 (BT 11) to break open a door and escape the hallway",
                "max": 50,
                "temp": 0,
                "tempmax": 0,
                "value": 50
            },
            "stealth": {
                "details": "DC 23 Perception",
                "value": 13
            }
        },
        "creatureType": "",
        "customModifiers": {},
        "details": {
            "description": "Nozzles hidden in the ceiling of the four corridors leading to the intersection spray jets of flame along their lengths when the trap is triggered.",
            "disable": "DC 22 Thievery to disable a single nozzle, DC 21 Thievery twice to unlock a door, or DC 25 Thievery to deactivate the trap from the control panel. A hero who isn't trained in Thievery automatically fails these checks.",
            "isComplex": true,
            "level": {
                "value": 5
            },
            "reset": "The trap deactivates and resets after 10 minutes. After the trap is activated for the fourth time, it runs out of fuel and must be reset manually.",
            "routine": "(4 actions) The trap loses 1 action each turn for each disabled nozzle. On each action, a different nozzle fires a jet of flame down a different corridor, dealing [[3d6]] fire damage to each creature in the first 10 feet of the corridor past the intersection (DC 22 basic Reflex save).\nA creature standing in the corridor intersection can be hit by only one flame jet per round even if they're in the area of multiple flame jets. The creature attempts only one saving throw per round, but it takes a -2 circumstance penalty to its saving throw."
        },
        "saves": {
            "fortitude": {
                "saveDetail": "",
                "value": 15
            },
            "reflex": {
                "saveDetail": "",
                "value": 8
            },
            "will": {
                "saveDetail": "",
                "value": 0
            }
        },
        "source": {
            "value": "Pathfinder Adventure: Troubles in Otari"
        },
        "statusEffects": [],
        "traits": {
            "ci": [],
            "di": {
                "custom": "sneak attack",
                "selected": {},
                "value": [
                    "critical-hits"
                ]
            },
            "dr": [],
            "dv": [],
            "rarity": {
                "value": "common"
            },
            "size": {
                "value": "med"
            },
            "traits": {
                "custom": "",
                "value": [
                    "mechanical"
                ]
            }
        }
    },
    "effects": [],
    "flags": {},
    "img": "systems/pf2e/icons/default-icons/hazard.svg",
    "items": [
        {
            "_id": "Fk4R8F6Vr2Lr7mZZ",
            "data": {
                "actionCategory": {
                    "value": ""
                },
                "actionType": {
                    "value": "reaction"
                },
                "actions": {
                    "value": ""
                },
                "description": {
                    "value": "<p>If a creature enters the corridor intersection, the four doors exiting this intersection close and lock, and the trap rolls Stealth (+13) for its initiative.</p>"
                },
                "requirements": {
                    "value": ""
                },
                "rules": [],
                "slug": null,
                "source": {
                    "value": ""
                },
                "traits": {
                    "custom": "",
                    "rarity": {
                        "value": "common"
                    },
                    "value": []
                },
                "trigger": {
                    "value": ""
                },
                "weapon": {
                    "value": ""
                }
            },
            "effects": [],
            "flags": {},
            "img": "systems/pf2e/icons/actions/Reaction.webp",
            "name": "Seal the Doors",
            "sort": 100000,
            "type": "action"
        }
    ],
    "name": "Tongues of Flame",
    "token": {
        "disposition": 0,
        "height": 1,
        "img": "systems/pf2e/icons/default-icons/hazard.svg",
        "name": "Tongues of Flame",
        "width": 1
    },
    "type": "hazard"
}
